Division,WeightClassKg,Place,Name,Team,BodyweightKg,Best3SquatKg,Best3BenchKg,Best3DeadliftKg,TotalKg,Equipment,Event,Sex,BirthDate
Boys,51.71,1,Aiden Guzman,Mineral Wells,50.35,104.33,61.23,108.86,274.42,Single-ply,SBD,M,
Boys,51.71,DQ,Alex Kim,Graham,49.9,,,,,Single-ply,SBD,M,
Boys,55.79,1,Brayden Ragle,Weatherford,55.79,117.93,79.38,127.01,324.32,Single-ply,SBD,M,
Boys,59.87,1,Cameron Wilson,Weatherford,59.42,149.69,99.79,145.15,394.63,Single-ply,SBD,M,
Boys,59.87,2,Evan Guzman,Mineral Wells,56.7,142.88,70.31,140.61,353.8,Single-ply,SBD,M,
Boys,67.13,1,Blake Nelson,Weatherford,66.22,158.76,102.06,158.76,419.57,Single-ply,SBD,M,
Boys,67.13,2,Evan Kuhn,Mineral Wells,62.6,136.08,77.11,142.88,356.07,Single-ply,SBD,M,
Boys,74.84,1,Michael Young,Graham,70.31,136.08,72.57,151.95,360.61,Single-ply,SBD,M,
Boys,74.84,2,Cody Epperson,Graham,69.85,90.72,61.23,136.08,288.03,Single-ply,SBD,M,
Boys,82.1,1,Aldo Cereceres,Graham,79.83,188.24,106.59,181.44,476.27,Single-ply,SBD,M,
Boys,82.1,2,Eathan Broomes,Weatherford,78.47,172.37,115.67,183.7,471.74,Single-ply,SBD,M,
Boys,82.1,3,Bowen Boenisch,Graham,78.93,115.67,65.77,127.01,308.44,Single-ply,SBD,M,
Boys,89.81,1,Christian Medina,Weatherford,89.81,195.04,154.22,206.38,555.65,Single-ply,SBD,M,
Boys,89.81,2,Daniel Seals,Weatherford,89.36,217.72,149.69,170.1,537.51,Single-ply,SBD,M,
Boys,89.81,3,Colton Ligon,Graham,82.55,192.78,117.93,192.78,503.49,Single-ply,SBD,M,
Boys,89.81,4,James Vela,Graham,85.28,206.38,108.86,165.56,480.81,Single-ply,SBD,M,
Boys,89.81,5,Patrick Wiley,Weatherford,85.28,161.03,111.13,170.1,442.25,Single-ply,SBD,M,
Boys,89.81,6,Cayden Scobee,Graham,85.73,147.42,74.84,133.81,356.07,Single-ply,SBD,M,
Boys,99.79,1,Jj Lee,Graham,92.99,215.46,136.08,201.85,553.38,Single-ply,SBD,M,
Boys,99.79,2,Bryson Ross,Weatherford,99.79,192.78,136.08,188.24,517.1,Single-ply,SBD,M,
Boys,99.79,3,Heladio Gonzales,Mineral Wells,96.62,172.37,86.18,181.44,439.98,Single-ply,SBD,M,
Boys,99.79,4,Talan Yowell,Graham,96.62,142.88,88.45,147.42,378.75,Single-ply,SBD,M,
Boys,99.79,DQ,Devon Castro,Graham,92.08,,,,,Single-ply,SBD,M,
Boys,109.77,1,Riley Wrinkle,Weatherford,108.41,254.01,151.95,244.94,650.91,Single-ply,SBD,M,
Boys,109.77,2,Lane Malone,Weatherford,102.06,217.72,136.08,192.78,546.58,Single-ply,SBD,M,
Boys,109.77,3,Lawson Marin,Graham,101.15,124.74,79.38,136.08,340.19,Single-ply,SBD,M,
Boys,124.74,1,Gary O'Bannon,Weatherford,117.48,217.72,142.88,199.58,560.19,Single-ply,SBD,M,
Boys,124.74,2,Bryce Fellows,Mineral Wells,110.68,195.04,115.67,210.92,521.63,Single-ply,SBD,M,
Boys,124.74,3,Ethan Woodruff,Weatherford,114.76,181.44,131.54,181.44,494.42,Single-ply,SBD,M,
Boys,124.74,4,Steven Brown,Graham,124.74,165.56,95.25,195.04,455.86,Single-ply,SBD,M,
Boys,139.71,1,Omar Galvan,Mineral Wells,126.1,217.72,120.2,183.7,521.63,Single-ply,SBD,M,
Boys,139.71,2,Elias Lopez,Mineral Wells,129.73,201.85,99.79,163.29,464.93,Single-ply,SBD,M,
Boys,139.71+,1,Cayson Wells,Mineral Wells,163.29,161.03,104.33,156.49,421.84,Single-ply,SBD,M,
