Division,WeightClassKg,Place,Name,Team,BodyweightKg,Best3SquatKg,Best3BenchKg,Best3DeadliftKg,TotalKg,Equipment,Event,Sex,BirthDate
Boys,51.71,1,Christavian Hafford,San Augustine,49.62,102.06,61.23,102.06,265.35,Single-ply,SBD,M,
Boys,51.71,2,Larry Clifton,San Augustine,51.44,83.91,54.43,92.99,231.33,Single-ply,SBD,M,
Boys,51.71,DQ,Alex Stepp,Hemphill,50.8,,,,,Single-ply,SBD,M,
Boys,59.87,1,Jamorian Henderson,San Augustine,59.87,102.06,72.57,113.4,288.03,Single-ply,SBD,M,
Boys,59.87,2,Javian Stewart,San Augustine,59.87,102.06,61.23,113.4,276.69,Single-ply,SBD,M,
Boys,67.13,1,Jairus Crane,San Augustine,67.13,154.22,92.99,163.29,410.5,Single-ply,SBD,M,
Boys,67.13,2,Jayden Jones,San Augustine,64.59,113.4,65.77,154.22,333.39,Single-ply,SBD,M,
Boys,74.84,1,Carlos Garrett,Shelbyville,73.48,167.83,120.2,158.76,446.79,Single-ply,SBD,M,
Boys,74.84,2,Ja'Kerrick Stripling,San Augustine,73.39,149.69,83.91,181.44,415.04,Single-ply,SBD,M,
Boys,74.84,3,Brayden Stewart,Hemphill,69.85,129.27,92.99,142.88,365.14,Single-ply,SBD,M,
Boys,82.1,1,Kevorian Barnes,San Augustine,82.1,181.44,115.67,226.8,523.9,Single-ply,SBD,M,
Boys,89.81,1,Jolon Garner,San Augustine,87.54,204.12,115.67,206.38,526.17,Single-ply,SBD,M,
Boys,89.81,2,Edvin Smith,San Augustine,89.72,163.29,97.52,181.44,442.25,Single-ply,SBD,M,
Boys,89.81,2,Carlos Acosta,San Augustine,84.82,147.42,117.93,181.44,446.79,Single-ply,SBD,M,
Boys,99.79,1,Dre'Lyn Washington,Hemphill,99.34,244.94,151.95,274.42,671.32,Single-ply,SBD,M,
Boys,99.79,3,Joe Harris,Hemphill,92.99,170.1,106.59,156.49,433.18,Single-ply,SBD,M,
Boys,109.77,1,Celvin Proctor,Hemphill,102.06,192.78,120.2,208.65,521.63,Single-ply,SBD,M,
Boys,109.77,2,Criston Simmons,San Augustine,104.51,149.69,99.79,215.46,464.93,Single-ply,SBD,M,
Boys,139.71+,1,Trey Cartwright,Shelbyville,150.14,254.01,142.88,210.92,607.81,Single-ply,SBD,M,
