Division,WeightClassKg,Place,Name,Team,BodyweightKg,Best3SquatKg,Best3BenchKg,Best3DeadliftKg,TotalKg,Equipment,Event,Sex,BirthDate
Girls,44.23,1,Kaitlynn Barnett,Quitman,43.64,86.18,45.36,104.33,235.87,Single-ply,SBD,F,
Girls,47.85,1,Addison Marcee,Quitman,47.17,97.52,49.9,86.18,233.6,Single-ply,SBD,F,
Girls,51.94,1,Hailey Ward,Lone Oak,51.89,81.65,31.75,74.84,188.24,Single-ply,SBD,F,
Girls,60.1,1,Mattie Fuller,Lone Oak,59.87,97.52,56.7,88.45,242.67,Single-ply,SBD,F,
Girls,60.1,2,Tristan Wood,Quitman,56.84,102.06,43.09,88.45,233.6,Single-ply,SBD,F,
Girls,67.36,1,Katelynn Fuller,Lone Oak,66.77,183.7,88.45,142.88,415.04,Single-ply,SBD,F,
Girls,67.36,DQ,Savannah Ward,Lone Oak,65.05,68.04,,,,Single-ply,SBD,F,
Girls,67.36,DQ,Daisy Howell,Lone Oak,62.14,65.77,31.75,,,Single-ply,SBD,F,
Girls,75.07,1,Gatha Davis,Quitman,68.49,154.22,70.31,156.49,381.02,Single-ply,SBD,F,
Girls,75.07,DQ,Ella Folks,Lone Oak,74.03,74.84,43.09,,,Single-ply,SBD,F,
Girls,82.33,1,Sofia Tannebaum,Quitman,80.51,106.59,40.82,106.59,254.01,Single-ply,SBD,F,
Girls,90.04,1,Bailey Hughes,Quitman,82.64,156.49,77.11,140.61,374.21,Single-ply,SBD,F,
Girls,100.02,1,Jessica Saulters,Lone Oak,98.61,181.44,111.13,142.88,435.45,Single-ply,SBD,F,
Girls,100.02,DQ,Rosie Rodriguez,Lone Oak,91.17,151.95,,,,Single-ply,SBD,F,
