Division,WeightClassKg,Place,Name,Team,BodyweightKg,Best3SquatKg,Best3BenchKg,Best3DeadliftKg,TotalKg,Equipment,Event,Sex,BirthDate
Boys,51.71,1,Juan Gonzalez,Gladewater Sabine,49.53,90.72,43.09,99.79,233.6,Single-ply,SBD,M,
Boys,67.13,1,Kile Stripland,Gladewater Sabine,66.68,181.44,124.74,174.63,480.81,Single-ply,SBD,M,
Boys,67.13,2,Luis Williams,Harleton,66.9,158.76,117.93,172.37,449.06,Single-ply,SBD,M,
Boys,67.13,3,Zane Smith #3,Gladewater Sabine,66.68,161.03,127.01,154.22,442.25,Single-ply,SBD,M,
Boys,67.13,4,Nick Paschall,Harleton,64.64,151.95,81.65,156.49,390.09,Single-ply,SBD,M,
Boys,67.13,5,Nathan Heitritter,Harleton,64.64,106.59,68.04,90.72,265.35,Single-ply,SBD,M,
Boys,74.84,1,Blake Blassingame,Harleton,73.98,181.44,111.13,163.29,455.86,Single-ply,SBD,M,
Boys,74.84,2,Matt Morgan,Gladewater Sabine,73.3,161.03,111.13,163.29,435.45,Single-ply,SBD,M,
Boys,74.84,3,JB Hill,Gladewater Sabine,74.12,176.9,90.72,167.83,435.45,Single-ply,SBD,M,
Boys,74.84,4,Spencer Hammack,Harleton,70.67,161.03,97.52,142.88,401.43,Single-ply,SBD,M,
Boys,74.84,5,Korbin Colquitt,Gladewater Sabine,74.62,129.27,92.99,156.49,378.75,Single-ply,SBD,M,
Boys,74.84,6,Brendan Scott,Harleton,72.57,136.08,83.91,142.88,362.87,Single-ply,SBD,M,
Boys,74.84,7,Landon Moses,Gladewater Sabine,74.43,136.08,81.65,142.88,360.61,Single-ply,SBD,M,
Boys,74.84,8,Tayton Benfit,Harleton,72.94,124.74,79.38,142.88,347,Single-ply,SBD,M,
Boys,74.84,9,Cade Canfield,Harleton,73.84,102.06,,120.2,222.26,Single-ply,SD,M,
Boys,74.84,10,Jestin Hollinsworth,Harleton,74.12,161.03,,,161.03,Single-ply,S,M,
Boys,82.1,1,Kaden Richard,Gladewater Sabine,79.61,195.04,120.2,183.7,498.95,Single-ply,SBD,M,
Boys,82.1,2,Eric Pantoja,Harleton,79.7,147.42,83.91,170.1,401.43,Single-ply,SBD,M,
Boys,82.1,3,Tristan Peterson,Gladewater Sabine,80.92,142.88,95.25,156.49,394.63,Single-ply,SBD,M,
Boys,82.1,4,Reed Thornburgh,Gladewater Sabine,81.69,140.61,86.18,161.03,387.82,Single-ply,SBD,M,
Boys,82.1,5,Luke Ratcliff,Harleton,80.74,120.2,74.84,122.47,317.51,Single-ply,SBD,M,
Boys,89.81,1,Daylon Branham,Gladewater Sabine,87.63,226.8,145.15,215.46,587.4,Single-ply,SBD,M,
Boys,89.81,2,Chance Owens,Gladewater Sabine,89.36,213.19,142.88,192.78,548.85,Single-ply,SBD,M,
Boys,89.81,3,Taber Childs,Harleton,88.77,204.12,122.47,195.04,521.63,Single-ply,SBD,M,
Boys,89.81,4,Austin Stephens,Gladewater Sabine,86.05,156.49,92.99,163.29,412.77,Single-ply,SBD,M,
Boys,89.81,5,Carter Bibb,Harleton,83.96,151.95,79.38,174.63,405.97,Single-ply,SBD,M,
Boys,89.81,6,Tony Vincente,Gladewater Sabine,82.78,136.08,83.91,124.74,344.73,Single-ply,SBD,M,
Boys,99.79,1,Brody Kriegel,Harleton,99.61,217.72,115.67,197.31,530.7,Single-ply,SBD,M,
Boys,99.79,2,Taylor Wilson,Gladewater Sabine,96.84,188.24,136.08,176.9,501.22,Single-ply,SBD,M,
Boys,99.79,3,Caleb Smith,Harleton,94.08,185.97,104.33,174.63,464.93,Single-ply,SBD,M,
Boys,109.77,1,Brendan Miller,Gladewater Sabine,100.65,222.26,145.15,213.19,580.6,Single-ply,SBD,M,
Boys,109.77,2,Izaiah McClain,Harleton,105.73,142.88,115.67,181.44,439.98,Single-ply,SBD,M,
Boys,109.77,3,Kyle Wright,Harleton,108.59,142.88,79.38,151.95,374.21,Single-ply,SBD,M,
Boys,109.77,4,Peyton Murray,Harleton,109.41,147.42,70.31,136.08,353.8,Single-ply,SBD,M,
Boys,109.77,5,Stephen Calico,Gladewater Sabine,109.41,,106.59,161.03,267.62,Single-ply,BD,M,
Boys,124.74,1,Jayden Willie,Harleton,113.13,226.8,113.4,204.12,544.31,Single-ply,SBD,M,
Boys,124.74,2,Lane Woods,Harleton,112.04,190.51,95.25,167.83,453.59,Single-ply,SBD,M,
Boys,139.71,1,Max Ramirez,Harleton,134.81,208.65,124.74,185.97,519.36,Single-ply,SBD,M,
Boys,,NS,Garrison Conner,Diana New Diana,,,,,,Single-ply,SBD,M,
