Division,WeightClassKg,Place,Name,Team,BodyweightKg,Best3SquatKg,Best3BenchKg,Best3DeadliftKg,TotalKg,Equipment,Event,Sex,BirthDate
Div 2,67.13,1,Caleb Vandergriff,Godley,65.77,129.27,83.91,147.42,360.61,Single-ply,SBD,M,
Div 2,67.13,2,Landon Gresham,Godley,62.14,102.06,,124.74,226.8,Single-ply,SD,M,
Div 2,67.13,3,Audie Mahagan,Godley,66.22,136.08,70.31,136.08,342.46,Single-ply,SBD,M,
Div 2,74.84,1,Ethan Parkinson,Godley,69.85,120.2,77.11,151.95,349.27,Single-ply,SBD,M,
Div 2,99.79,1,Xori Herbert,Godley,91.17,102.06,65.77,113.4,281.23,Single-ply,SBD,M,
Div 3,55.79,1,Jason Campos,Rio Vista,52.16,70.31,49.9,90.72,210.92,Single-ply,SBD,M,
Div 3,67.13,1,Wyatt Johnson,Rio Vista,66.68,136.08,65.77,154.22,356.07,Single-ply,SBD,M,
Div 3,74.84,1,Alex Andrade,Itasca,71.21,147.42,74.84,163.29,385.55,Single-ply,SBD,M,
Div 3,82.1,1,Davonte Grisham,Itasca,76.2,174.63,106.59,183.7,464.93,Single-ply,SBD,M,
Div 3,82.1,2,Gary Michel,Rio Vista,78.47,120.2,68.04,129.27,317.51,Single-ply,SBD,M,
Div 3,89.81,1,Juan Hernandez,Itasca,89.36,165.56,77.11,167.83,410.5,Single-ply,SBD,M,
Div 3,89.81,2,Treavor McCombie,Rio Vista,85.28,142.88,86.18,147.42,376.48,Single-ply,SBD,M,
Div 3,124.74,1,Andy Cumins,Rio Vista,111.58,174.63,97.52,156.49,428.64,Single-ply,SBD,M,
Div 3,124.74,2,Nicholas Holt,Rio Vista,115.21,151.95,83.91,136.08,371.95,Single-ply,SBD,M,
Div 3,124.74,3,Noah Andrews,Rio Vista,110.68,147.42,90.72,124.74,362.87,Single-ply,SBD,M,
Div 3,139.71,1,Ethan Cumins,Rio Vista,127.91,251.74,183.7,226.8,662.24,Single-ply,SBD,M,
