Division,WeightClassKg,Place,Name,Team,BodyweightKg,Best3SquatKg,Best3BenchKg,Best3DeadliftKg,TotalKg,Equipment,Event,Sex,BirthDate
Boys,55.79,1,Daniel Renteria,Fort Stockton,55.7,115.67,65.77,113.4,294.84,Single-ply,SBD,M,
Boys,59.87,1,Juan Ruiz,Sonora,59.42,151.95,86.18,167.83,405.97,Single-ply,SBD,M,
Boys,59.87,2,Ignacio Coranado,Sonora,59.87,176.9,77.11,145.15,399.16,Single-ply,SBD,M,
Boys,59.87,3,Andy Martinez,Odessa,59.65,127.01,61.23,108.86,297.1,Single-ply,SBD,M,
Boys,59.87,4,Darian Renteria,Fort Stockton,59.87,120.2,65.77,108.86,294.84,Single-ply,SBD,M,
Boys,67.13,1,Bryan Lee Rivera,Fort Stockton,67.13,167.83,111.13,179.17,458.13,Single-ply,SBD,M,
Boys,67.13,2,Jamie Buitron,Sonora,65.23,156.49,97.52,183.7,437.72,Single-ply,SBD,M,
Boys,67.13,3,Jackson Carroll,Sonora,66.95,167.83,74.84,181.44,424.11,Single-ply,SBD,M,
Boys,67.13,4,Tanner Flannagan,Sonora,65.68,142.88,79.38,149.69,371.95,Single-ply,SBD,M,
Boys,67.13,5,Ricardo Pacheco,Fort Stockton,67.04,136.08,83.91,147.42,367.41,Single-ply,SBD,M,
Boys,74.84,1,Nate Gensler,Sonora,74.84,192.78,117.93,204.12,514.83,Single-ply,SBD,M,
Boys,74.84,2,Sean Mungia,Sonora,74.84,195.04,104.33,176.9,476.27,Single-ply,SBD,M,
Boys,74.84,3,Adam Sanchez,Sonora,72.3,172.37,102.06,183.7,458.13,Single-ply,SBD,M,
Boys,74.84,4,Jonathon Lozano,Sonora,74.84,151.95,95.25,142.88,390.09,Single-ply,SBD,M,
Boys,74.84,5,Chris Miller,Grandfalls-Royalty,70.31,90.72,61.23,102.06,254.01,Single-ply,SBD,M,
Boys,74.84,6,Jason Miller,Grandfalls-Royalty,69.22,77.11,45.36,86.18,208.65,Single-ply,SBD,M,
Boys,82.1,1,Rino Hernandez,Sonora,82.1,181.44,102.06,204.12,487.61,Single-ply,SBD,M,
Boys,82.1,2,Mario Fernandez,Sonora,82.1,156.49,111.13,156.49,424.11,Single-ply,SBD,M,
Boys,82.1,3,Jesus Montes,Odessa,80.29,138.35,92.99,131.54,362.87,Single-ply,SBD,M,
Boys,82.1,4,Josh Lozano,Sonora,81.19,136.08,79.38,136.08,351.53,Single-ply,SBD,M,
Boys,82.1,5,Jacob Perez,Sonora,82.1,113.4,56.7,145.15,315.25,Single-ply,SBD,M,
Boys,82.1,6,Jonathen Balderama,Odessa,79.83,70.31,61.23,97.52,229.06,Single-ply,SBD,M,
Boys,89.81,1,Roy Bislar,Fort Stockton,88.9,199.58,117.93,174.63,492.15,Single-ply,SBD,M,
Boys,89.81,2,Elijah Samaniego,Sonora,85.37,158.76,104.33,170.1,433.18,Single-ply,SBD,M,
Boys,89.81,3,Adam Marquez,Fort Stockton,89.81,172.37,54.43,158.76,385.55,Single-ply,SBD,M,
Boys,89.81,4,Joe Salgado,Fort Stockton,89.81,127.01,102.06,142.88,371.95,Single-ply,SBD,M,
Boys,89.81,5,Isaiah Vasquez,Grandfalls-Royalty,85.28,79.38,90.72,158.76,328.85,Single-ply,SBD,M,
Boys,89.81,6,Gavriel Rodriguez,Grandfalls-Royalty,89.81,102.06,61.23,124.74,288.03,Single-ply,SBD,M,
Boys,89.81,7,Rowdy Mendoza,Odessa,88.9,113.4,56.7,95.25,265.35,Single-ply,SBD,M,
Boys,89.81,DQ,Dustin Rodriguez,Fort Stockton,89.49,,,,,Single-ply,SBD,M,
Boys,99.79,1,Damian Dominguez,Odessa,99.79,158.76,83.91,147.42,390.09,Single-ply,SBD,M,
Boys,99.79,2,Joel Avitia,Odessa,99.25,136.08,77.11,131.54,344.73,Single-ply,SBD,M,
Boys,109.77,1,Jose Ramirez,Fort Stockton,107.95,192.78,122.47,163.29,478.54,Single-ply,SBD,M,
Boys,109.77,2,Charlie Galliton,Sonora,109.59,149.69,106.59,188.24,444.52,Single-ply,SBD,M,
Boys,124.74,1,Marcos Villalobos,Sonora,118.3,210.92,102.06,213.19,526.17,Single-ply,SBD,M,
Boys,124.74,2,Phillip De Hoyoa,Sonora,124.74,181.44,102.06,183.7,467.2,Single-ply,SBD,M,
Boys,124.74,3,Jacob Martinez,Sonora,113.17,154.22,127.01,165.56,446.79,Single-ply,SBD,M,
Boys,124.74,4,Ector Martinez,Fort Stockton,113.4,111.13,86.18,122.47,319.78,Single-ply,SBD,M,
