Division,WeightClassKg,Place,Name,Team,BodyweightKg,Best3SquatKg,Best3BenchKg,Best3DeadliftKg,TotalKg,Equipment,Event,Sex,BirthDate
Boys,51.71,1,Brandon Acosta,Corpus Christi Calallen,50.98,68.04,43.09,77.11,188.24,Single-ply,SBD,M,
Boys,55.79,1,David Chittarath,Rockport-Fulton,54.79,145.15,86.18,161.03,392.36,Single-ply,SBD,M,
Boys,55.79,2,Justin Cantu,Corpus Christi Calallen,55.43,122.47,90.72,142.88,356.07,Single-ply,SBD,M,
Boys,59.87,1,Julian Cadena,Corpus Christi Calallen,59.06,163.29,124.74,158.76,446.79,Single-ply,SBD,M,
Boys,59.87,2,Jordan Gibson,Rockport-Fulton,59.47,136.08,99.79,136.08,371.95,Single-ply,SBD,M,
Boys,59.87,3,Anthonie Cordova,Ingleside,56.97,102.06,52.16,120.2,274.42,Single-ply,SBD,M,
Boys,67.13,1,Elijah Galvan,Ingleside,61.78,158.76,86.18,172.37,417.3,Single-ply,SBD,M,
Boys,67.13,2,Isaac Tamayo,Ingleside,62.69,154.22,95.25,167.83,417.3,Single-ply,SBD,M,
Boys,74.84,1,Raul Vasquez,Ingleside,70.4,176.9,115.67,190.51,483.08,Single-ply,SBD,M,
Boys,74.84,2,Cristian Kane,Rockport-Fulton,74.57,170.1,95.25,188.24,453.59,Single-ply,SBD,M,
Boys,74.84,3,Zander Wilson,Rockport-Fulton,70.49,161.03,97.52,136.08,394.63,Single-ply,SBD,M,
Boys,74.84,DQ,Joaquin Soliz,Corpus Christi Calallen,74.48,138.35,92.99,,,Single-ply,SBD,M,
Boys,82.1,1,Jaxon Mabile,Ingleside,79.38,274.42,154.22,260.82,689.46,Single-ply,SBD,M,
Boys,82.1,2,Nathaniel Garcia,Corpus Christi Calallen,78.02,165.56,113.4,197.31,476.27,Single-ply,SBD,M,
Boys,82.1,3,Kaleb Schmidt,Rockport-Fulton,76.7,161.03,95.25,181.44,437.72,Single-ply,SBD,M,
Boys,82.1,4,Jaykob De La Paz,Corpus Christi Calallen,80.29,154.22,90.72,170.1,415.04,Single-ply,SBD,M,
Boys,82.1,5,Kaleb White,Rockport-Fulton,81.78,102.06,68.04,113.4,283.5,Single-ply,SBD,M,
Boys,89.81,1,Epi Hinojosa,Corpus Christi Calallen,88.9,260.82,161.03,219.99,641.83,Single-ply,SBD,M,
Boys,89.81,2,Seth Morgan,Ingleside,85.09,210.92,142.88,244.94,598.74,Single-ply,SBD,M,
Boys,89.81,3,Joey Cantu,Rockport-Fulton,84.64,233.6,131.54,219.99,585.13,Single-ply,SBD,M,
Boys,89.81,4,Ean McPherson,Rockport-Fulton,89.45,215.46,131.54,208.65,555.65,Single-ply,SBD,M,
Boys,89.81,5,Austin Neil,Ingleside,88.99,185.97,95.25,165.56,446.79,Single-ply,SBD,M,
Boys,89.81,6,Joshua Jarman,Corpus Christi Calallen,86.73,156.49,104.33,174.63,435.45,Single-ply,SBD,M,
Boys,89.81,DQ,Jadon Sanchez,Ingleside,87.18,204.12,104.33,,,Single-ply,SBD,M,
Boys,99.79,1,Dylan Lageschulte,Corpus Christi Calallen,99.79,229.06,136.08,219.99,585.13,Single-ply,SBD,M,
Boys,99.79,2,Payton McAlister,Rockport-Fulton,97.98,197.31,124.74,190.51,512.56,Single-ply,SBD,M,
Boys,99.79,3,Vic Pena,Rockport-Fulton,92.53,158.76,74.84,167.83,401.43,Single-ply,SBD,M,
Boys,99.79,4,Gilbert Herrera,Corpus Christi Calallen,95.35,151.95,90.72,145.15,387.82,Single-ply,SBD,M,
Boys,99.79,5,Zack Gisler,Rockport-Fulton,93.8,102.06,79.38,142.88,324.32,Single-ply,SBD,M,
Boys,109.77,1,Seth Ruff,Ingleside,105.78,340.19,192.78,306.17,839.15,Single-ply,SBD,M,
Boys,109.77,2,Ricardo Carrion,Corpus Christi Calallen,104.33,231.33,163.29,235.87,630.49,Single-ply,SBD,M,
Boys,109.77,3,Aiden Hinojosa,Corpus Christi Calallen,108.41,206.38,129.27,192.78,528.44,Single-ply,SBD,M,
Boys,109.77,4,Eric Stapp,Ingleside,102.87,213.19,124.74,174.63,512.56,Single-ply,SBD,M,
Boys,109.77,5,Jace Hofstetter,Corpus Christi Calallen,106.14,149.69,106.59,140.61,396.89,Single-ply,SBD,M,
Boys,109.77,6,Colton Kalhoerfer,Rockport-Fulton,103.51,142.88,86.18,124.74,353.8,Single-ply,SBD,M,
Boys,124.74,1,Arturo Gallegos III,Ingleside,119.75,247.21,124.74,213.19,585.13,Single-ply,SBD,M,
Boys,139.71,1,Junior Saenz,Corpus Christi Calallen,126.19,213.19,117.93,172.37,503.49,Single-ply,SBD,M,
Boys,139.71,2,Daniel Crespin,Rockport-Fulton,129.73,158.76,79.38,151.95,390.09,Single-ply,SBD,M,
Boys,,NS,Austin Bryant,Rockport-Fulton,,,,,,Single-ply,SBD,M,
Boys,,NS,Nygel Hudson,Ingleside,,,,,,Single-ply,SBD,M,
