Division,WeightClassKg,Place,Name,Team,BodyweightKg,Best3SquatKg,Best3BenchKg,Best3DeadliftKg,TotalKg,Equipment,Event,Sex,BirthDate
Boys,51.71,1,Md Jawwadullah,Frisco Liberty,50.67,83.91,43.09,115.67,242.67,Single-ply,SBD,M,
Boys,59.87,1,Parker Brosam,Frisco Centennial,58.79,117.93,56.7,117.93,292.57,Single-ply,SBD,M,
Boys,59.87,2,Ameer Alnseirat,Frisco Liberty,59.1,95.25,54.43,108.86,258.55,Single-ply,SBD,M,
Boys,67.13,1,Ehab Alneirat,Frisco Liberty,65.68,90.72,58.97,111.13,260.82,Single-ply,SBD,M,
Boys,74.84,1,Caleb Forte,Frisco Liberty,73.71,163.29,117.93,174.63,455.86,Single-ply,SBD,M,
Boys,74.84,2,Hunter Phillips,Frisco Centennial,74.62,163.29,99.79,163.29,426.38,Single-ply,SBD,M,
Boys,82.1,1,Max Dodson,Frisco Centennial,81.74,172.37,102.06,208.65,483.08,Single-ply,SBD,M,
Boys,82.1,2,Bernie Ortiz,Frisco Liberty,78.02,172.37,97.52,176.9,446.79,Single-ply,SBD,M,
Boys,89.81,1,Josh Rolon,Frisco Centennial,84.64,154.22,102.06,154.22,410.5,Single-ply,SBD,M,
Boys,89.81,2,Ashton Scott,Frisco Centennial,86.82,151.95,95.25,158.76,405.97,Single-ply,SBD,M,
Boys,89.81,3,Shawheen Hoosh,Frisco Liberty,88.59,127.01,115.67,156.49,399.16,Single-ply,SBD,M,
Boys,99.79,1,Garrett Spangler,Frisco Centennial,98.61,249.48,140.61,215.46,605.55,Single-ply,SBD,M,
Boys,99.79,2,Daniel Ajayi,Frisco Liberty,93.62,229.06,124.74,229.06,582.87,Single-ply,SBD,M,
Boys,99.79,3,Joseph Hancock,Frisco Liberty,99.29,197.31,83.91,192.78,474,Single-ply,SBD,M,
Boys,99.79,4,Kyle Schmid,Frisco Centennial,93.76,183.7,90.72,156.49,430.91,Single-ply,SBD,M,
Boys,109.77,1,Chika Ugoh,Frisco Liberty,104.96,224.53,120.2,197.31,542.04,Single-ply,SBD,M,
Boys,109.77,2,Dickson Addo,Frisco Liberty,106.46,176.9,90.72,192.78,460.4,Single-ply,SBD,M,
Boys,109.77,3,Dillon Davis,Frisco Liberty,101.15,124.74,104.33,181.44,410.5,Single-ply,SBD,M,
Boys,124.74,1,Jadon Simmons,Frisco Liberty,111.81,181.44,81.65,145.15,408.23,Single-ply,SBD,M,
Boys,124.74,2,Josh Ryder,Frisco Centennial,116.48,136.08,108.86,140.61,385.55,Single-ply,SBD,M,
