Division,WeightClassKg,Place,Name,Team,BodyweightKg,Best3SquatKg,Best3BenchKg,Best3DeadliftKg,TotalKg,Equipment,Event,Sex,BirthDate
Boys,55.79,1,Alex Salto,Manvel,53.98,108.86,83.91,136.08,328.85,Single-ply,SBD,M,
Boys,67.13,1,Zyran King-Brooks,Alvin Shadow Creek,67.13,147.42,99.79,179.17,426.38,Single-ply,SBD,M,
Boys,67.13,2,Luke Simbajon,Alvin Shadow Creek,66.68,127.01,90.72,158.76,376.48,Single-ply,SBD,M,
Boys,67.13,3,David Jimenez,Alvin Shadow Creek,64.86,106.59,81.65,163.29,351.53,Single-ply,SBD,M,
Boys,67.13,4,Hudson Lee,Stafford,62.6,120.2,72.57,124.74,317.51,Single-ply,SBD,M,
Boys,74.84,1,Junji Chen,Alvin Shadow Creek,74.84,192.78,111.13,224.53,528.44,Single-ply,SBD,M,
Boys,74.84,2,Grant Crawford,Alvin Shadow Creek,74.84,183.7,108.86,183.7,476.27,Single-ply,SBD,M,
Boys,74.84,3,Wilhelm Tampo,Alvin Shadow Creek,74.84,151.95,92.99,174.63,419.57,Single-ply,SBD,M,
Boys,82.1,1,LaMarkus Owens,Manvel,80.29,233.6,133.81,233.6,601.01,Single-ply,SBD,M,
Boys,82.1,2,Isaiah Llorens,Stafford,80.74,204.12,124.74,199.58,528.44,Single-ply,SBD,M,
Boys,82.1,3,Joshua Lockett,Alvin Shadow Creek,75.75,156.49,111.13,188.24,455.86,Single-ply,SBD,M,
Boys,89.81,1,Garrett Sassin,Alvin Shadow Creek,89.81,165.56,115.67,188.24,469.47,Single-ply,SBD,M,
Boys,99.79,1,Dylan Campbell,Alvin Shadow Creek,95.25,285.76,165.56,249.48,700.8,Single-ply,SBD,M,
Boys,99.79,2,Brandon Jackson,Alvin Shadow Creek,98.43,204.12,142.88,226.8,573.79,Single-ply,SBD,M,
Boys,99.79,3,Ricardo Medina,Manvel,97.98,201.85,120.2,240.4,562.45,Single-ply,SBD,M,
Boys,99.79,4,Osiris Jackson,Alvin Shadow Creek,94.8,147.42,136.08,170.1,453.59,Single-ply,SBD,M,
Boys,99.79,5,Nya Mack,Stafford,99.79,151.95,99.79,188.24,439.98,Single-ply,SBD,M,
Boys,99.79,6,Jonathan Whalen,Stafford,92.08,115.67,83.91,165.56,365.14,Single-ply,SBD,M,
Boys,109.77,1,Chancellor Buford,Alvin Shadow Creek,107.95,235.87,158.76,285.76,680.39,Single-ply,SBD,M,
Boys,109.77,2,Jose Carrizales,Alvin Shadow Creek,107.05,206.38,127.01,215.46,548.85,Single-ply,SBD,M,
Boys,109.77,3,Jaric Woodley,Manvel,101.6,199.58,127.01,208.65,535.24,Single-ply,SBD,M,
Boys,109.77,4,Joshua Diaz,Alvin Shadow Creek,104.33,170.1,133.81,172.37,476.27,Single-ply,SBD,M,
Boys,124.74,1,Dylan Hughes,Alvin Shadow Creek,122.92,244.94,167.83,249.48,662.24,Single-ply,SBD,M,
Boys,124.74,2,Trevin Patt,Stafford,114.76,204.12,133.81,219.99,557.92,Single-ply,SBD,M,
Boys,124.74,3,David Collins,Stafford,114.76,197.31,147.42,192.78,537.51,Single-ply,SBD,M,
Boys,124.74,4,Julian Rodriguez,Alvin Shadow Creek,110.22,142.88,86.18,142.88,371.95,Single-ply,SBD,M,
Boys,139.71,1,John Fletcher,Manvel,129.27,229.06,133.81,204.12,566.99,Single-ply,SBD,M,
Boys,139.71,2,Jaden Edmonson,Manvel,131.54,195.04,133.81,231.33,560.19,Single-ply,SBD,M,
Boys,139.71,3,Xavier Potts,Manvel,125.19,240.4,129.27,181.44,551.11,Single-ply,SBD,M,
Boys,139.71,4,Francisco Elgueda,Alvin Shadow Creek,127.46,165.56,102.06,204.12,471.74,Single-ply,SBD,M,
Boys,139.71+,1,Devin Davis #2,Manvel,145.15,195.04,154.22,174.63,523.9,Single-ply,SBD,M,
