Division,WeightClassKg,Place,Name,Team,BodyweightKg,Best3SquatKg,Best3BenchKg,Best3DeadliftKg,TotalKg,Equipment,Event,Sex,BirthDate
Boys,59.87,1,Cameron Yale,Magnolia,58.97,195.04,102.06,183.7,480.81,Single-ply,SBD,M,
Boys,59.87,2,Caleb Abbott,Magnolia,58.51,138.35,81.65,136.08,356.07,Single-ply,SBD,M,
Boys,59.87,5,Cristian Castro,Bryan,56.25,131.54,79.38,149.69,360.61,Single-ply,SBD,M,
Boys,67.13,1,Joseph Tellez,Magnolia,62.6,161.03,102.06,172.37,435.45,Single-ply,SBD,M,
Boys,67.13,2,Deonald Butler,Magnolia,60.33,151.95,74.84,151.95,378.75,Single-ply,SBD,M,
Boys,74.84,1,Michael Carter,Magnolia,74.84,201.85,108.86,170.1,480.81,Single-ply,SBD,M,
Boys,74.84,2,Owen Cunningham,Magnolia,73.03,165.56,90.72,170.1,426.38,Single-ply,SBD,M,
Boys,74.84,3,George Nunez,Bryan,71.21,115.67,61.23,127.01,303.91,Single-ply,SBD,M,
Boys,82.1,1,Christian Cook,Magnolia,80.74,170.1,131.54,165.56,467.2,Single-ply,SBD,M,
Boys,82.1,2,Zach Cleveland,Magnolia,80.29,179.17,113.4,167.83,460.4,Single-ply,SBD,M,
Boys,82.1,3,Marcus Heard,Bryan Rudder,81.19,165.56,111.13,170.1,446.79,Single-ply,SBD,M,
Boys,82.1,4,Lukas Hardy,Bryan Rudder,76.66,151.95,92.99,167.83,412.77,Single-ply,SBD,M,
Boys,82.1,6,Trace Emola,Bryan Rudder,76.2,136.08,65.77,145.15,347,Single-ply,SBD,M,
Boys,89.81,1,Andrew Ortiz,Magnolia,88.9,188.24,124.74,190.51,503.49,Single-ply,SBD,M,
Boys,89.81,2,Timothy Watson,New Waverly,87.09,161.03,115.67,165.56,442.25,Single-ply,SBD,M,
Boys,89.81,3,Hunter McCary,Bryan Rudder,89.36,138.35,83.91,149.69,371.95,Single-ply,SBD,M,
Boys,99.79,1,Eric Ezar,Bryan Rudder,90.26,204.12,131.54,188.24,523.9,Single-ply,SBD,M,
Boys,99.79,2,Cesar Martínez,Bryan,98.88,199.58,129.27,190.51,519.36,Single-ply,SBD,M,
Boys,99.79,3,JaMarcus Jones,Bryan Rudder,92.53,199.58,117.93,195.04,512.56,Single-ply,SBD,M,
Boys,99.79,4,Quentin Lucas,Magnolia,92.99,183.7,102.06,176.9,462.66,Single-ply,SBD,M,
Boys,99.79,5,Mason Williams,Bryan Rudder,94.35,102.06,61.23,129.27,292.57,Single-ply,SBD,M,
Boys,109.77,1,Mason Feldman,Magnolia,108.86,226.8,138.35,183.7,548.85,Single-ply,SBD,M,
Boys,109.77,3,Xavier Camero,Bryan Rudder,109.32,183.7,117.93,165.56,467.2,Single-ply,SBD,M,
Boys,124.74,1,Austin Pennington,Bryan,122.47,226.8,122.47,247.21,596.47,Single-ply,SBD,M,
Boys,124.74,2,JonTavion Workman,Bryan,122.02,226.8,136.08,226.8,589.67,Single-ply,SBD,M,
Boys,124.74,2,Ishmeal Ealoms,Bryan,111.13,190.51,117.93,195.04,503.49,Single-ply,SBD,M,
Boys,124.74,3,Carlos Ortiz,Magnolia,114.76,233.6,129.27,204.12,566.99,Single-ply,SBD,M,
