Division,WeightClassKg,Place,Name,Team,BodyweightKg,Best3SquatKg,Best3BenchKg,Best3DeadliftKg,TotalKg,Equipment,Event,Sex,BirthDate
Boys,51.71,1,Jacob Guerrero,Yorktown,51.71,147.42,83.91,142.88,374.21,Single-ply,SBD,M,
Boys,51.71,2,Isaiah Luna,Poth,45.81,79.38,52.16,92.99,224.53,Single-ply,SBD,M,
Boys,55.79,1,Emilio Garza,Poth,55.79,106.59,54.43,102.06,263.08,Single-ply,SBD,M,
Boys,55.79,DQ,Bryan Peralta,Yorktown,55.25,,,,,Single-ply,SBD,M,
Boys,59.87,1,Nicolas Martinez,Stockdale,57.61,149.69,79.38,156.49,385.55,Single-ply,SBD,M,
Boys,59.87,2,Morris Brown,Kenedy,59.51,142.88,77.11,149.69,369.68,Single-ply,SBD,M,
Boys,67.13,1,Ashton Gomez,Stockdale,63.23,163.29,90.72,151.95,405.97,Single-ply,SBD,M,
Boys,67.13,2,Bryan Leal,Kenedy,63.68,142.88,68.04,154.22,365.14,Single-ply,SBD,M,
Boys,67.13,3,Kolton Kurtz,Poth,60.69,77.11,52.16,104.33,233.6,Single-ply,SBD,M,
Boys,74.84,1,Matthew Jarzombek,Poth,74.84,142.88,92.99,183.7,419.57,Single-ply,SBD,M,
Boys,74.84,2,Logan Pawelek,Poth,71.94,142.88,79.38,165.56,387.82,Single-ply,SBD,M,
Boys,74.84,3,Trentyn Voelkel,Stockdale,68.67,140.61,79.38,154.22,374.21,Single-ply,SBD,M,
Boys,74.84,4,Alex Ramon,Poth,72.21,142.88,77.11,142.88,362.87,Single-ply,SBD,M,
Boys,74.84,5,Nikolaus Mahlstede,Stockdale,68.31,120.2,77.11,140.61,337.93,Single-ply,SBD,M,
Boys,82.1,1,Cesar Solache,Stockdale,79.92,158.76,102.06,190.51,451.32,Single-ply,SBD,M,
Boys,82.1,2,Calvin Lopez,Kenedy,81.56,165.56,102.06,136.08,403.7,Single-ply,SBD,M,
Boys,82.1,3,Patrick Segura,Kenedy,81.74,154.22,81.65,165.56,401.43,Single-ply,SBD,M,
Boys,82.1,4,Wilfred Chapa,Poth,79.56,97.52,70.31,108.86,276.69,Single-ply,SBD,M,
Boys,89.81,1,Alvin Amador,Kenedy,85.28,226.8,124.74,210.92,562.45,Single-ply,SBD,M,
Boys,89.81,2,Jose Barrientos,Stockdale,85.82,158.76,88.45,185.97,433.18,Single-ply,SBD,M,
Boys,99.79,1,Christopher Keiser,Stockdale,99.34,208.65,140.61,233.6,582.87,Single-ply,SBD,M,
Boys,99.79,2,Nando Vargas,Kenedy,96.07,226.8,111.13,226.8,564.72,Single-ply,SBD,M,
Boys,109.77,1,Logan Baker,Stockdale,109.23,278.96,145.15,260.82,684.92,Single-ply,SBD,M,
Boys,109.77,2,Ryland Reyna,Kenedy,109.04,210.92,142.88,213.19,566.99,Single-ply,SBD,M,
Boys,109.77,3,Alex Gonzalez,Kenedy,103.51,210.92,117.93,195.04,523.9,Single-ply,SBD,M,
Boys,109.77,DQ,Connor Ruppert,Yorktown,105.05,,,,,Single-ply,SBD,M,
Boys,124.74,1,Joseph Luna,Kenedy,122.7,233.6,142.88,226.8,603.28,Single-ply,SBD,M,
Boys,124.74,2,Robert De Leon,Kenedy,111.95,190.51,136.08,188.24,514.83,Single-ply,SBD,M,
Boys,124.74,DQ,Ethan Ponpa,Yorktown,111.4,,,,,Single-ply,SBD,M,
Boys,139.71,1,Zackaria Biessar,Stockdale,132.27,195.04,104.33,195.04,494.42,Single-ply,SBD,M,
Boys,139.71,2,Hunter Hall,Yorktown,135.62,151.95,102.06,156.49,410.5,Single-ply,SBD,M,
