Division,WeightClassKg,Place,Name,Team,BodyweightKg,Best3SquatKg,Best3BenchKg,Best3DeadliftKg,TotalKg,Equipment,Event,Sex,BirthDate
Boys,55.79,1,Nate Martinez,Weslaco East,54.43,142.88,88.45,136.08,367.41,Single-ply,SBD,M,
Boys,59.87,1,Roy Stroman,Weslaco,59.87,183.7,108.86,170.1,462.66,Single-ply,SBD,M,
Boys,59.87,2,Eric Gonzalez,Weslaco,59.87,163.29,90.72,161.03,415.04,Single-ply,SBD,M,
Boys,59.87,3,Alex Esparza,Weslaco,59.87,154.22,86.18,158.76,399.16,Single-ply,SBD,M,
Boys,67.13,1,Marcus Saenz,Weslaco,67.13,208.65,117.93,183.7,510.29,Single-ply,SBD,M,
Boys,67.13,2,Marcos Dominguez,Weslaco,67.13,183.7,113.4,165.56,462.66,Single-ply,SBD,M,
Boys,67.13,DQ,Sam Garcia,Weslaco,66.59,,,,,Single-ply,SBD,M,
Boys,74.84,1,Armando Santos,Weslaco East,72.57,176.9,113.4,190.51,480.81,Single-ply,SBD,M,
Boys,74.84,2,Ethan Urbina,Weslaco,70.76,158.76,79.38,149.69,387.82,Single-ply,SBD,M,
Boys,82.1,1,Sergio Lerma,Weslaco,79.51,292.57,129.27,265.35,687.19,Single-ply,SBD,M,
Boys,82.1,2,Diego Ruiz,Weslaco East,80.74,183.7,108.86,165.56,458.13,Single-ply,SBD,M,
Boys,89.81,1,Larry Strickland,Weslaco,88.54,292.57,145.15,278.96,716.68,Single-ply,SBD,M,
Boys,89.81,2,Jose Zavala,Weslaco East,87.54,192.78,127.01,192.78,512.56,Single-ply,SBD,M,
Boys,89.81,3,Gabriel Villarreal,Weslaco East,88.45,154.22,108.86,174.63,437.72,Single-ply,SBD,M,
Boys,99.79,1,David Trevino,Weslaco East,99.79,190.51,136.08,204.12,530.7,Single-ply,SBD,M,
Boys,99.79,2,Joshua Handy,Weslaco,99.34,158.76,104.33,158.76,421.84,Single-ply,SBD,M,
Boys,109.77,1,Josue Moralez,Weslaco East,109.77,235.87,165.56,238.14,639.57,Single-ply,SBD,M,
Boys,109.77,2,Erasmo Garces,Weslaco,109.68,249.48,158.76,224.53,632.76,Single-ply,SBD,M,
Boys,109.77,3,Julian Gonzalez,Weslaco East,109.32,183.7,127.01,204.12,514.83,Single-ply,SBD,M,
Boys,109.77,4,Eric Davila,Weslaco,105.23,210.92,108.86,183.7,503.49,Single-ply,SBD,M,
Boys,124.74,1,Zeke Negrete,Weslaco East,123.38,265.35,183.7,260.82,709.87,Single-ply,SBD,M,
Boys,124.74,2,Roland Morales,Weslaco,120.66,272.16,183.7,233.6,689.46,Single-ply,SBD,M,
Boys,124.74,3,Andrew Reyes,Weslaco,117.93,242.67,149.69,215.46,607.81,Single-ply,SBD,M,
Boys,124.74,DQ,Ian Colin,Weslaco,122.47,215.46,,,,Single-ply,SBD,M,
Boys,139.71,1,Jaime Hernandez,Weslaco,129.27,156.49,115.67,142.88,415.04,Single-ply,SBD,M,
