Division,WeightClassKg,Place,Name,Team,BodyweightKg,Best3SquatKg,Best3BenchKg,Best3DeadliftKg,TotalKg,Equipment,Event,Sex,BirthDate
Girls,44.23,1,Sage Thompson,Lometa,44.18,97.52,61.23,104.33,263.08,Single-ply,SBD,F,
Girls,44.23,2,Alyssa Marmolejo,Copperas Cove,43.54,92.99,45.36,111.13,249.48,Single-ply,SBD,F,
Girls,44.23,3,Aevrie Seegmiller,Comanche,44,83.91,45.36,86.18,215.46,Single-ply,SBD,F,
Girls,44.23,4,Athena Aviles,Copperas Cove,43.54,61.23,31.75,74.84,167.83,Single-ply,SBD,F,
Girls,44.23,5,Daisy Almazan,Dublin,36.56,58.97,34.02,65.77,158.76,Single-ply,SBD,F,
Girls,44.23,6,Brooke Maddox,Comanche,41.28,36.29,22.68,61.23,120.2,Single-ply,SBD,F,
Girls,44.23,DQ,Diminika Roman,Stephenville,44,,,,,Single-ply,SBD,F,
Girls,47.85,1,Zhynese Finley,Bangs,47.72,106.59,61.23,133.81,301.64,Single-ply,SBD,F,
Girls,47.85,2,Emily Cason,Copperas Cove,46.45,102.06,45.36,117.93,265.35,Single-ply,SBD,F,
Girls,47.85,3,Dalicia Vargas,Rogers,46.81,106.59,43.09,99.79,249.48,Single-ply,SBD,F,
Girls,47.85,4,Alexis Gustavsen,Hico,46.08,79.38,43.09,92.99,215.46,Single-ply,SBD,F,
Girls,47.85,5,Daisy Leija,Stephenville,47.63,79.38,38.56,79.38,197.31,Single-ply,SBD,F,
Girls,47.85,DQ,Katie Hollon,Early,47.63,,,,,Single-ply,SBD,F,
Girls,51.94,1,Amiah Rodriguez,Stephenville,51.8,106.59,54.43,115.67,276.69,Single-ply,SBD,F,
Girls,51.94,2,Kailey Scheriger,Sidney,51.8,97.52,47.63,113.4,258.55,Single-ply,SBD,F,
Girls,51.94,3,Hannah Middleton,Early,51.71,97.52,45.36,113.4,256.28,Single-ply,SBD,F,
Girls,51.94,4,Madi Hicks,Meridian,51.07,70.31,43.09,97.52,210.92,Single-ply,SBD,F,
Girls,51.94,5,Rayna Argote,San Saba,50.08,68.04,36.29,83.91,188.24,Single-ply,SBD,F,
Girls,51.94,6,Paula Beltran,Dublin,49.53,63.5,29.48,90.72,183.7,Single-ply,SBD,F,
Girls,51.94,DQ,Kayla Rosas,Meridian,51.71,,,,,Single-ply,SBD,F,
Girls,56.02,1,Nikayla Waller,Lometa,55.7,124.74,68.04,131.54,324.32,Single-ply,SBD,F,
Girls,56.02,2,Bekah Smithson,Early,54.61,115.67,56.7,127.01,299.37,Single-ply,SBD,F,
Girls,56.02,3,Ariana Hernández,Rogers,54.98,108.86,54.43,129.27,292.57,Single-ply,SBD,F,
Girls,56.02,4,Elizabeth Schiller,Rogers,55.43,106.59,56.7,127.01,290.3,Single-ply,SBD,F,
Girls,56.02,5,Alivia Arnold,Copperas Cove,55.43,115.67,63.5,102.06,281.23,Single-ply,SBD,F,
Girls,56.02,6,Lila Richards,Stephenville,54.43,102.06,56.7,106.59,265.35,Single-ply,SBD,F,
Girls,56.02,7,Rylie Guerro,Bangs,55.79,92.99,40.82,97.52,231.33,Single-ply,SBD,F,
Girls,56.02,8,Kayla Zamora,Copperas Cove,54.34,83.91,36.29,97.52,217.72,Single-ply,SBD,F,
Girls,56.02,9,Natalia Timm,Copperas Cove,55.52,86.18,40.82,86.18,213.19,Single-ply,SBD,F,
Girls,56.02,10,Aryana Thompson,Rogers,53.61,72.57,34.02,95.25,201.85,Single-ply,SBD,F,
Girls,60.1,1,Alri Lindeque,Sidney,59.87,127.01,70.31,129.27,326.59,Single-ply,SBD,F,
Girls,60.1,2,Arianna Eseroma,Copperas Cove,59.06,120.2,68.04,133.81,322.05,Single-ply,SBD,F,
Girls,60.1,3,Brianna Downie,Valley Mills,56.97,61.23,,,61.23,Single-ply,S,F,
Girls,60.1,DQ,Shelby Broekhuizen,Florence,58.33,108.86,58.97,,,Single-ply,SBD,F,
Girls,60.1,DQ,Josmary Munoz,Sidney,59.87,,,,,Single-ply,SBD,F,
Girls,60.1,DQ,Cloie Montague,Bangs,56.52,,,,,Single-ply,SBD,F,
Girls,60.1,DQ,Katie Snoody,Jonesboro,59.87,,,,,Single-ply,SBD,F,
Girls,60.1,DQ,Alondra Mata,Junction,59.15,120.2,63.5,,,Single-ply,SBD,F,
Girls,67.36,1,Emily Guerrero,Comanche,60.42,138.35,72.57,140.61,351.53,Single-ply,SBD,F,
Girls,67.36,2,Danielle Alcorta,Early,64.41,140.61,65.77,129.27,335.66,Single-ply,SBD,F,
Girls,67.36,3,Jessica Leija,Stephenville,65.14,131.54,63.5,129.27,324.32,Single-ply,SBD,F,
Girls,67.36,4,Abby Gautreaux,Thrall,61.69,120.2,65.77,131.54,317.51,Single-ply,SBD,F,
Girls,67.36,5,Dominick Rico,Hico,67.31,131.54,52.16,124.74,308.44,Single-ply,SBD,F,
Girls,67.36,6,Mattie League,Thrall,66.59,113.4,68.04,124.74,306.17,Single-ply,SBD,F,
Girls,67.36,7,Alexcia Gaines,Copperas Cove,63.87,113.4,61.23,124.74,299.37,Single-ply,SBD,F,
Girls,67.36,8,Karlee Drake,Rogers,65.68,113.4,56.7,111.13,281.23,Single-ply,SBD,F,
Girls,67.36,9,Lindsay Campos,Bangs,65.32,120.2,52.16,102.06,274.42,Single-ply,SBD,F,
Girls,67.36,10,Aleiya Cotton,Brownwood,62.14,102.06,52.16,97.52,251.74,Single-ply,SBD,F,
Girls,67.36,11,Erin Hornback,Florence,62.78,81.65,54.43,90.72,226.8,Single-ply,SBD,F,
Girls,67.36,DQ,Maliyah Tate,Copperas Cove,67.31,124.74,,,,Single-ply,SBD,F,
Girls,67.36,DQ,Alejandra Villanueva,Junction,63.32,,,,,Single-ply,SBD,F,
Girls,75.07,1,Maddison Sheumaker,Copperas Cove,67.86,131.54,88.45,147.42,367.41,Single-ply,SBD,F,
Girls,75.07,2,Alyne Celedon,Early,74.12,158.76,77.11,122.47,358.34,Single-ply,SBD,F,
Girls,75.07,3,Selena Balderas,Bangs,74.84,124.74,74.84,136.08,335.66,Single-ply,SBD,F,
Girls,75.07,4,Kiarra Telles,Junction,68.58,117.93,77.11,122.47,317.51,Single-ply,SBD,F,
Girls,75.07,5,Kynedi Isham,San Saba,67.59,124.74,61.23,115.67,301.64,Single-ply,SBD,F,
Girls,75.07,6,Celeste Leon,Early,73.75,120.2,68.04,97.52,285.76,Single-ply,SBD,F,
Girls,75.07,7,Caris Howell,Stephenville,70.85,102.06,68.04,111.13,281.23,Single-ply,SBD,F,
Girls,75.07,8,Jasmine Gama,Lometa,69.67,86.18,52.16,90.72,229.06,Single-ply,SBD,F,
Girls,75.07,9,Hannah Lee,Brownwood,73.48,70.31,52.16,74.84,197.31,Single-ply,SBD,F,
Girls,75.07,DQ,Harley Castillo,Junction,74.84,,,,,Single-ply,SBD,F,
Girls,75.07,DQ,Isabella Esquivel,Junction,72.85,138.35,63.5,,,Single-ply,SBD,F,
Girls,75.07,DQ,Joe Lee Norwood,Florence,74.84,,,,,Single-ply,SBD,F,
Girls,82.33,1,Estrella Campos,Rogers,78.93,142.88,61.23,147.42,351.53,Single-ply,SBD,F,
Girls,82.33,2,Maddie Durant,Stephenville,81.92,140.61,58.97,133.81,333.39,Single-ply,SBD,F,
Girls,82.33,3,Analise Burciaga,Dublin,81.01,120.2,52.16,138.35,310.71,Single-ply,SBD,F,
Girls,82.33,4,Esmeralda Alonso,Stephenville,75.75,120.2,58.97,129.27,308.44,Single-ply,SBD,F,
Girls,82.33,5,Carolina Soto,Stephenville,76.2,120.2,52.16,104.33,276.69,Single-ply,SBD,F,
Girls,82.33,6,Melanie Malave,Copperas Cove,77.47,102.06,54.43,104.33,260.82,Single-ply,SBD,F,
Girls,82.33,7,Abigail Gamino,Rogers,80.2,92.99,49.9,95.25,238.14,Single-ply,SBD,F,
Girls,82.33,8,Britni Roberts,Goldthwaite,76.02,83.91,43.09,106.59,233.6,Single-ply,SBD,F,
Girls,90.04,1,Cydney Morgan,Hico,85.09,154.22,88.45,145.15,387.82,Single-ply,SBD,F,
Girls,90.04,2,Shelby Bruggman,Rogers,87.18,147.42,90.72,147.42,385.55,Single-ply,SBD,F,
Girls,90.04,3,Carly Rodriguez,Comanche,88.54,154.22,81.65,149.69,385.55,Single-ply,SBD,F,
Girls,90.04,4,Arianna Rosati-Floyd,Stephenville,83.64,145.15,83.91,151.95,381.02,Single-ply,SBD,F,
Girls,90.04,5,Kenya Barnes,Brownwood,85.09,142.88,70.31,151.95,365.14,Single-ply,SBD,F,
Girls,90.04,6,Madison Borum,Junction,85.18,115.67,61.23,104.33,281.23,Single-ply,SBD,F,
Girls,90.04,7,Adi Poston,Valley Mills,89.54,122.47,58.97,99.79,281.23,Single-ply,SBD,F,
Girls,90.04,8,Emilee Beam,Dublin,83.64,97.52,61.23,104.33,263.08,Single-ply,SBD,F,
Girls,90.04,9,Ella Frederick,Dublin,84.55,83.91,56.7,108.86,249.48,Single-ply,SBD,F,
Girls,90.04,DQ,Terra Reed,Coleman,89.09,127.01,,,,Single-ply,SBD,F,
Girls,100.02,1,Madi Pokorny,Thrall,96.8,86.18,45.36,90.72,222.26,Single-ply,SBD,F,
Girls,100.02,DQ,Aubreyanna Ziegler,Stephenville,95.25,161.03,70.31,,,Single-ply,SBD,F,
Girls,117.71,1,Alisha Parks,Coleman,117.48,181.44,92.99,117.93,392.36,Single-ply,SBD,F,
Girls,117.71,2,Norma Hernandez,Stephenville,102.69,163.29,83.91,136.08,383.29,Single-ply,SBD,F,
Girls,117.71,3,Angela Amos,Bangs,114.94,158.76,97.52,127.01,383.29,Single-ply,SBD,F,
Girls,117.71,4,Shumara Finley,Bangs,102.33,127.01,81.65,133.81,342.46,Single-ply,SBD,F,
Girls,117.71,5,Jessica Aleman,Valley Mills,104.42,136.08,61.23,127.01,324.32,Single-ply,SBD,F,
Girls,117.71,6,Daisy Garza,Coleman,104.14,124.74,58.97,122.47,306.17,Single-ply,SBD,F,
Girls,117.71,7,AvaGrace Warner,Valley Mills,116.39,104.33,56.7,106.59,267.62,Single-ply,SBD,F,
Girls,117.71,8,Angela Huddleston,Coleman,101.88,106.59,54.43,102.06,263.08,Single-ply,SBD,F,
Girls,117.71,9,Chasiti Ranaghan,Hamilton,107.32,106.59,47.63,108.86,263.08,Single-ply,SBD,F,
Girls,117.71+,1,Alyssa Arnold,Copperas Cove,129,260.82,140.61,204.12,605.55,Single-ply,SBD,F,
Girls,117.71+,2,Aubry Carr,Rogers,137.62,215.46,136.08,158.76,510.29,Single-ply,SBD,F,
Girls,117.71+,3,Jetta Gomez,San Saba,118.02,136.08,90.72,127.01,353.8,Single-ply,SBD,F,
Girls,117.71+,4,Lorraine Herd,Hamilton,138.44,149.69,79.38,124.74,353.8,Single-ply,SBD,F,
Girls,117.71+,5,Leticia Salas,Comanche,121.38,136.08,83.91,117.93,337.93,Single-ply,SBD,F,
Girls,117.71+,6,Shylee Chapman,Rogers,128.55,120.2,61.23,111.13,292.57,Single-ply,SBD,F,
Girls,117.71+,DQ,Faith Grace,Thrall,117.93,,,,,Single-ply,SBD,F,
