Division,WeightClassKg,Place,Name,Team,BodyweightKg,Best3SquatKg,Best3BenchKg,Best3DeadliftKg,TotalKg,Equipment,Event,Sex,BirthDate
Girls,51.94,1,Kimberly Diaz,Bangs,51.62,92.99,47.63,81.65,222.26,Single-ply,SBD,F,
Girls,51.94,2,Jayme Cottle,Brownwood,51.71,70.31,45.36,90.72,206.38,Single-ply,SBD,F,
Girls,51.94,3,Kinnison Harvey,Brownwood,51.71,52.16,24.95,65.77,142.88,Single-ply,SBD,F,
Girls,56.02,1,Emily Taylor,Coleman,54.88,86.18,56.7,99.79,242.67,Single-ply,SBD,F,
Girls,60.1,1,LeeAllora Buchanan,Brownwood,59.87,79.38,45.36,90.72,215.46,Single-ply,SBD,F,
Girls,60.1,DQ,Rylie Guerrero,Bangs,56.61,,,,,Single-ply,SBD,F,
Girls,60.1,DQ,Halley Miller,Bangs,59.78,,,,,Single-ply,SBD,F,
Girls,67.36,1,Lindsay Campos,Bangs,61.6,113.4,52.16,108.86,274.42,Single-ply,SBD,F,
Girls,67.36,2,Mackenzie Welch,Brownwood,67.13,97.52,52.16,97.52,247.21,Single-ply,SBD,F,
Girls,67.36,3,Ashton Thompson,Brownwood,64.41,79.38,58.97,83.91,222.26,Single-ply,SBD,F,
Girls,67.36,DQ,Cloie Montague,Bangs,61.78,,,,,Single-ply,SBD,F,
Girls,75.07,1,Jaslin Jones,Brownwood,73.94,102.06,58.97,111.13,272.16,Single-ply,SBD,F,
Girls,75.07,2,Audrey McKeehan,Coleman,69.76,81.65,63.5,113.4,258.55,Single-ply,SBD,F,
Girls,82.33,1,Mia Watson,Coleman,77.93,92.99,56.7,108.86,258.55,Single-ply,SBD,F,
Girls,82.33,2,Hannah Jefferson,Coleman,78.47,95.25,58.97,104.33,258.55,Single-ply,SBD,F,
Girls,82.33,DQ,Maggie Calaway,Bangs,81.56,,,,,Single-ply,SBD,F,
Girls,117.71,1,Angela Amos,Bangs,112.76,179.17,99.79,154.22,433.18,Single-ply,SBD,F,
Girls,117.71,2,Shumara Finley,Bangs,103.24,131.54,74.84,140.61,347,Single-ply,SBD,F,
Girls,117.71,3,Ashlyn Harris,Brownwood,104.14,129.27,68.04,102.06,299.37,Single-ply,SBD,F,
Girls,117.71,DQ,Alisha Parks,Coleman,116.85,181.44,81.65,,,Single-ply,SBD,F,
Girls,,NS,Alexa Arrieola,Brownwood,,,,,,Single-ply,SBD,F,
