Division,WeightClassKg,Place,Name,Team,BodyweightKg,Best3SquatKg,Best3BenchKg,Best3DeadliftKg,TotalKg,Equipment,Event,Sex,BirthDate
Boys,55.79,1,Trey Orsini,Strawn,54.16,102.06,56.7,129.27,288.03,Single-ply,SBD,M,
Boys,55.79,2,Jaxson Rucker,Sidney,53.61,124.74,,136.08,260.82,Single-ply,SD,M,
Boys,59.87,1,Alonso Caso,Lometa,58.6,117.93,61.23,127.01,306.17,Single-ply,SBD,M,
Boys,59.87,2,Leo DeLatorre,Strawn,59.87,102.06,54.43,113.4,269.89,Single-ply,SBD,M,
Boys,67.13,1,Anthony Seider,Lometa,65.41,165.56,95.25,192.78,453.59,Single-ply,SBD,M,
Boys,67.13,2,Colton Depoy,Hillsboro,65.5,136.08,102.06,158.76,396.89,Single-ply,SBD,M,
Boys,67.13,3,Dylan Mickler,Coleman,66.22,145.15,90.72,158.76,394.63,Single-ply,SBD,M,
Boys,67.13,4,Leonardo Lopez,Hillsboro,61.05,158.76,79.38,142.88,381.02,Single-ply,SBD,M,
Boys,67.13,5,Trenton Sizemore,Strawn,61.87,136.08,77.11,136.08,349.27,Single-ply,SBD,M,
Boys,67.13,6,Sam Ward,Baird,61.87,113.4,63.5,117.93,294.84,Single-ply,SBD,M,
Boys,67.13,7,Cesar Torres,Hillsboro,65.14,113.4,61.23,102.06,276.69,Single-ply,SBD,M,
Boys,67.13,8,Joshua Rucker,Sidney,62.14,,58.97,136.08,195.04,Single-ply,BD,M,
Boys,74.84,1,Josh Kinnard,Sidney,73.21,142.88,95.25,176.9,415.04,Single-ply,SBD,M,
Boys,74.84,2,Jett Millsop,Strawn,73.21,154.22,97.52,158.76,410.5,Single-ply,SBD,M,
Boys,74.84,3,Marcus Gonzalez,Hillsboro,73.84,142.88,90.72,158.76,392.36,Single-ply,SBD,M,
Boys,74.84,4,Oscar Torres,Hillsboro,68.4,127.01,61.23,131.54,319.78,Single-ply,SBD,M,
Boys,74.84,5,Cory Scantling,Sidney,68.04,,102.06,158.76,260.82,Single-ply,BD,M,
Boys,74.84,6,Cordell Mitchell,Ranger,67.68,106.59,,106.59,213.19,Single-ply,SD,M,
Boys,82.1,1,Colby Henry,Lometa,79.02,181.44,131.54,183.7,496.68,Single-ply,SBD,M,
Boys,82.1,2,Gage Sikes,Coleman,81.28,183.7,102.06,188.24,474,Single-ply,SBD,M,
Boys,82.1,3,Micheal Lewis,Ranger,76.84,142.88,83.91,192.78,419.57,Single-ply,SBD,M,
Boys,82.1,4,Issac Reyes,Lometa,77.75,151.95,95.25,145.15,392.36,Single-ply,SBD,M,
Boys,82.1,5,John Fraga,Strawn,76.11,113.4,74.84,127.01,315.25,Single-ply,SBD,M,
Boys,82.1,6,Alan Betran,Hillsboro,78.2,97.52,68.04,108.86,274.42,Single-ply,SBD,M,
Boys,89.81,1,Lorenzo Garcia,Strawn,89.81,215.46,124.74,181.44,521.63,Single-ply,SBD,M,
Boys,99.79,1,Justice Baker,Strawn,92.71,167.83,111.13,161.03,439.98,Single-ply,SBD,M,
Boys,99.79,2,Cam'ron Spells,Sidney,95.25,181.44,97.52,161.03,439.98,Single-ply,SBD,M,
Boys,99.79,3,A. Jorge,Ranger,95.62,124.74,74.84,142.88,342.46,Single-ply,SBD,M,
Boys,109.77,1,Austin Atkins,Baird,106.5,229.06,149.69,226.8,605.55,Single-ply,SBD,M,
Boys,109.77,2,Cameron McDowell,Hillsboro,103.51,124.74,70.31,113.4,308.44,Single-ply,SBD,M,
Boys,124.74,1,Ismael Lopez,Hillsboro,112.49,215.46,140.61,158.76,514.83,Single-ply,SBD,M,
Boys,124.74,2,Max Hopkins,Strawn,112.04,165.56,92.99,163.29,421.84,Single-ply,SBD,M,
Boys,124.74,3,Fabian Silvas,Hillsboro,116.03,174.63,102.06,136.08,412.77,Single-ply,SBD,M,
Boys,124.74+,1,Seth Bynum-Graham,Hillsboro,165.11,247.21,151.95,210.92,610.08,Single-ply,SBD,M,
Boys,124.74+,2,Josh Ward,Baird,165.56,229.06,113.4,188.24,530.7,Single-ply,SBD,M,
Boys,124.74+,3,Trent Tidwell,Hillsboro,132.54,204.12,149.69,165.56,519.36,Single-ply,SBD,M,
Boys,124.74+,4,Jeryd Fain,Coleman,133.99,226.8,115.67,174.63,517.1,Single-ply,SBD,M,
