Division,WeightClassKg,Place,Name,Team,BodyweightKg,Best3SquatKg,Best3BenchKg,Best3DeadliftKg,TotalKg,Equipment,Event,Sex,BirthDate
Girls,44.23,1,Briana Beltran,Riesel,39.28,52.16,34.02,68.04,154.22,Single-ply,SBD,F,
Girls,47.85,1,Baylee Hall,West,47.81,95.25,45.36,90.72,231.33,Single-ply,SBD,F,
Girls,47.85,2,Ally Albro,Troy,47.26,74.84,40.82,95.25,210.92,Single-ply,SBD,F,
Girls,51.94,1,Chloe Polansky,West,49.35,88.45,31.75,92.99,213.19,Single-ply,SBD,F,
Girls,51.94,2,Kailey Smith,Troy,51.07,70.31,43.09,83.91,197.31,Single-ply,SBD,F,
Girls,51.94,3,Madisyn Questelle,China Spring,50.62,70.31,36.29,81.65,188.24,Single-ply,SBD,F,
Girls,56.02,1,Kaitlyn Harris,Lorena,55.34,115.67,56.7,104.33,276.69,Single-ply,SBD,F,
Girls,56.02,2,Kalli Benton,Lorena,55.97,95.25,52.16,86.18,233.6,Single-ply,SBD,F,
Girls,56.02,3,Adreanna Ramirez,Troy,53.34,77.11,49.9,92.99,219.99,Single-ply,SBD,F,
Girls,56.02,4,Sarah Hand,China Spring,55.25,74.84,38.56,90.72,204.12,Single-ply,SBD,F,
Girls,60.1,1,Savannah Nejtek,Cameron Yoe,59.69,136.08,56.7,136.08,328.85,Single-ply,SBD,F,
Girls,60.1,2,Savannah Ramirez,Troy,59.78,115.67,65.77,102.06,283.5,Single-ply,SBD,F,
Girls,60.1,3,Dallie Jones,Lorena,59.42,97.52,45.36,102.06,244.94,Single-ply,SBD,F,
Girls,60.1,4,Kaitlyn Capps,China Spring,59.51,99.79,43.09,95.25,238.14,Single-ply,SBD,F,
Girls,60.1,5,Angel Rodríguez #13,Ranger,58.15,58.97,29.48,61.23,149.69,Single-ply,SBD,F,
Girls,67.36,1,Lillie Sligh,Lorena,62.96,99.79,58.97,102.06,260.82,Single-ply,SBD,F,
Girls,67.36,DQ,Kristen Stewart,Ranger,65.5,,,,,Single-ply,SBD,F,
Girls,75.07,1,Hannah Crawford,China Spring,73.84,102.06,58.97,102.06,263.08,Single-ply,SBD,F,
Girls,75.07,2,Hayley Mankin,Ranger,71.49,92.99,52.16,111.13,256.28,Single-ply,SBD,F,
Girls,75.07,3,Madilyn Terry,West,74.3,90.72,56.7,97.52,244.94,Single-ply,SBD,F,
Girls,75.07,4,Kiley Sunderman,Troy,73.21,86.18,40.82,102.06,229.06,Single-ply,SBD,F,
Girls,75.07,DQ,Daycee Garcia,Troy,73.66,90.72,,,,Single-ply,SBD,F,
Girls,82.33,1,Isela Perez,West,80.65,115.67,70.31,95.25,281.23,Single-ply,SBD,F,
Girls,90.04,1,Naeli Torres,Troy,89.99,127.01,83.91,129.27,340.19,Single-ply,SBD,F,
Girls,90.04,2,Jesleigh Norman,Lorena,87.72,142.88,70.31,122.47,335.66,Single-ply,SBD,F,
Girls,100.02,1,Lacy Masser,Troy,96.89,136.08,83.91,124.74,344.73,Single-ply,SBD,F,
Girls,100.02,2,Bailee Higgins,Lorena,97.07,136.08,70.31,117.93,324.32,Single-ply,SBD,F,
Girls,100.02,3,Neyda Vasquez,Riesel,97.25,54.43,38.56,70.31,163.29,Single-ply,SBD,F,
Girls,117.71,1,Bethany Chavaria,Troy,115.76,161.03,74.84,145.15,381.02,Single-ply,SBD,F,
Girls,117.71,2,Janessa Gallegos,West,104.78,138.35,70.31,108.86,317.51,Single-ply,SBD,F,
Girls,117.71,3,Avery Davis,West,100.88,108.86,88.45,117.93,315.25,Single-ply,SBD,F,
Girls,117.71,4,McKayla Bible,China Spring,107.05,102.06,61.23,95.25,258.55,Single-ply,SBD,F,
