Division,WeightClassKg,Place,Name,Team,BodyweightKg,Best3SquatKg,Best3BenchKg,Best3DeadliftKg,TotalKg,Equipment,Event,Sex,BirthDate
Boys,51.71,1,Jorge De Santiago,Andrews,51.07,92.99,58.97,115.67,267.62,Single-ply,SBD,M,
Boys,51.71,2,Caleb Lee,Monahans,48.08,90.72,47.63,92.99,231.33,Single-ply,SBD,M,
Boys,51.71,3,Alejandro Leyva,Kermit,50.53,77.11,52.16,102.06,231.33,Single-ply,SBD,M,
Boys,51.71,4,Adrian Valdez,Fort Stockton,48.08,72.57,40.82,90.72,204.12,Single-ply,SBD,M,
Boys,51.71,DQ,Daniel Renteria,Fort Stockton,50.8,72.57,,,,Single-ply,SBD,M,
Boys,55.79,1,Zaniel Florez,Kermit,54.98,154.22,81.65,156.49,392.36,Single-ply,SBD,M,
Boys,55.79,2,Ivan Zamora,Andrews,55.16,147.42,70.31,149.69,367.41,Single-ply,SBD,M,
Boys,55.79,3,Edrick Armendariz,Kermit,55.16,88.45,56.7,108.86,254.01,Single-ply,SBD,M,
Boys,55.79,4,Luis Chavez,Andrews,55.16,83.91,47.63,115.67,247.21,Single-ply,SBD,M,
Boys,55.79,DQ,Afredo Castillo,Andrews,53.07,127.01,65.77,,,Single-ply,SBD,M,
Boys,55.79,DQ,Cason Burrus,Fort Stockton,54.88,122.47,,,,Single-ply,SBD,M,
Boys,59.87,1,Cristian Garcia #5,Fort Stockton,58.97,136.08,65.77,158.76,360.61,Single-ply,SBD,M,
Boys,59.87,2,Andres Pando,Pecos,58.97,113.4,92.99,111.13,317.51,Single-ply,SBD,M,
Boys,67.13,1,Lucas Esparza,Andrews,66.68,192.78,104.33,192.78,489.88,Single-ply,SBD,M,
Boys,67.13,2,Bryan Lee Rivera,Fort Stockton,65.32,147.42,83.91,147.42,378.75,Single-ply,SBD,M,
Boys,67.13,3,Styer Bradley,McCamey,65.77,147.42,97.52,127.01,371.95,Single-ply,SBD,M,
Boys,67.13,4,Travis Handley,Andrews,63.41,136.08,88.45,138.35,362.87,Single-ply,SBD,M,
Boys,67.13,5,George Wagner,Andrews,66.22,124.74,79.38,158.76,362.87,Single-ply,SBD,M,
Boys,67.13,6,Ángel Sánchez #3,Pecos,63.96,111.13,79.38,117.93,308.44,Single-ply,SBD,M,
Boys,67.13,7,Tanner Jones,Monahans,67.13,106.59,63.5,124.74,294.84,Single-ply,SBD,M,
Boys,67.13,DQ,Jaylee Ibarra,Fort Stockton,63.5,58.97,,,,Single-ply,SBD,M,
Boys,74.84,1,Christian Valles,Andrews,70.49,201.85,115.67,231.33,548.85,Single-ply,SBD,M,
Boys,74.84,2,Raymond Flores,Andrews,74.03,206.38,117.93,204.12,528.44,Single-ply,SBD,M,
Boys,74.84,3,Gabriel Calzada,Fort Stockton,73.48,181.44,115.67,185.97,483.08,Single-ply,SBD,M,
Boys,74.84,4,Ronnie Romero,Fort Stockton,68.49,172.37,99.79,172.37,444.52,Single-ply,SBD,M,
Boys,74.84,5,Ryan Munoz,Kermit,72.03,151.95,70.31,161.03,383.29,Single-ply,SBD,M,
Boys,74.84,6,David Madrid,Pecos,73.94,111.13,81.65,133.81,326.59,Single-ply,SBD,M,
Boys,74.84,7,Anthony McDowel,Kermit,68.58,106.59,65.77,136.08,308.44,Single-ply,SBD,M,
Boys,74.84,8,Noah Powell,Monahans,71.21,102.06,65.77,111.13,278.96,Single-ply,SBD,M,
Boys,74.84,9,Christian Maledon,Pecos,69.4,81.65,56.7,113.4,251.74,Single-ply,SBD,M,
Boys,74.84,10,Marco Martínez,Alpine,70.76,83.91,45.36,61.23,190.51,Single-ply,SBD,M,
Boys,74.84,DQ,Matthew Valenzuela,Andrews,70.22,117.93,,,,Single-ply,SBD,M,
Boys,74.84,DQ,Xavier Urias,McCamey,68.04,120.2,90.72,,,Single-ply,SBD,M,
Boys,74.84,DQ,Jaydrien Ramirez,Fort Stockton,71.67,183.7,,,,Single-ply,SBD,M,
Boys,82.1,1,Clayton Foster,Fort Stockton,80.29,197.31,131.54,170.1,498.95,Single-ply,SBD,M,
Boys,82.1,2,Alex Natera,Alpine,78.47,161.03,108.86,174.63,444.52,Single-ply,SBD,M,
Boys,82.1,3,Michael Ortega,Fort Stockton,80.29,151.95,106.59,174.63,433.18,Single-ply,SBD,M,
Boys,82.1,4,Jay Lara,Kermit,81.47,145.15,102.06,151.95,399.16,Single-ply,SBD,M,
Boys,82.1,5,Jovany Hernandez,Fort Stockton,79.38,142.88,83.91,158.76,385.55,Single-ply,SBD,M,
Boys,82.1,DQ,Jose Hernandez #22,Fort Stockton,79.38,,,,,Single-ply,SBD,M,
Boys,82.1,DQ,Ryan Villlanueva,Pecos,79.38,,,,,Single-ply,SBD,M,
Boys,89.81,1,Nathan Flora,Andrews,84.64,138.35,90.72,174.63,403.7,Single-ply,SBD,M,
Boys,89.81,2,Lucas Ordonez,Monahans,89.81,156.49,83.91,147.42,387.82,Single-ply,SBD,M,
Boys,89.81,3,Oscar Carnero,Andrews,85.73,147.42,83.91,149.69,381.02,Single-ply,SBD,M,
Boys,89.81,4,Miguel Sanchez,McCamey,88.9,138.35,61.23,129.27,328.85,Single-ply,SBD,M,
Boys,89.81,5,Domingo Reyes,Kermit,89.36,115.67,92.99,120.2,328.85,Single-ply,SBD,M,
Boys,89.81,6,Joseph Vowles,Monahans,86.64,115.67,68.04,129.27,312.98,Single-ply,SBD,M,
Boys,89.81,DQ,Angelo Lopez,Kermit,85.73,176.9,,,,Single-ply,SBD,M,
Boys,89.81,DQ,Justin Sanchez,Fort Stockton,88.45,138.35,,,,Single-ply,SBD,M,
Boys,89.81,DQ,Roy Bislar,Fort Stockton,84.82,156.49,102.06,,,Single-ply,SBD,M,
Boys,99.79,1,Edgar Flores,Fort Stockton,99.79,206.38,129.27,210.92,546.58,Single-ply,SBD,M,
Boys,99.79,2,Mikial Burrola,Kermit,94.8,197.31,133.81,201.85,532.97,Single-ply,SBD,M,
Boys,99.79,3,Petronillo Bustamante,Andrews,91.26,195.04,115.67,204.12,514.83,Single-ply,SBD,M,
Boys,99.79,4,Ryan Gooch,Alpine,97.07,181.44,108.86,163.29,453.59,Single-ply,SBD,M,
Boys,99.79,5,Damien Herera,Monahans,97.07,115.67,95.25,183.7,394.63,Single-ply,SBD,M,
Boys,99.79,6,Gage Strain,Pecos,94.8,115.67,74.84,163.29,353.8,Single-ply,SBD,M,
Boys,109.77,1,Jayson Pagan,McCamey,109.77,235.87,124.74,206.38,566.99,Single-ply,SBD,M,
Boys,109.77,2,Everett McGhee,Pecos,106.14,215.46,142.88,185.97,544.31,Single-ply,SBD,M,
Boys,109.77,3,Donnie De La Cruz,Fort Stockton,100.7,210.92,127.01,188.24,526.17,Single-ply,SBD,M,
Boys,109.77,4,Cade Bayer,Fort Stockton,106.14,188.24,102.06,151.95,442.25,Single-ply,SBD,M,
Boys,109.77,5,Jacob Alston,Monahans,102.06,147.42,102.06,183.7,433.18,Single-ply,SBD,M,
Boys,109.77,6,Adrian Salcido,Andrews,105.32,147.42,115.67,140.61,403.7,Single-ply,SBD,M,
Boys,109.77,7,Antonio Garza,Andrews,102.6,167.83,88.45,140.61,396.89,Single-ply,SBD,M,
Boys,109.77,8,Eliseo Bonilla,Kermit,103.69,142.88,92.99,161.03,396.89,Single-ply,SBD,M,
Boys,109.77,9,Drew Coker,Monahans,102.06,158.76,86.18,147.42,392.36,Single-ply,SBD,M,
Boys,109.77,DQ,Kyle Coffey #1,Monahans,105.23,204.12,127.01,,,Single-ply,SBD,M,
Boys,124.74,1,Darius Pando,Kermit,114.31,233.6,136.08,217.72,587.4,Single-ply,SBD,M,
Boys,124.74,2,Gerry Salazar,McCamey,115.67,224.53,129.27,206.38,560.19,Single-ply,SBD,M,
Boys,124.74,3,Josiah Flores,Andrews,121.11,165.56,113.4,151.95,430.91,Single-ply,SBD,M,
Boys,124.74,4,Gilberto Martinez,Andrews,117.21,147.42,86.18,154.22,387.82,Single-ply,SBD,M,
Boys,124.74,5,Jose Ramirez #15,Fort Stockton,113.4,147.42,92.99,136.08,376.48,Single-ply,SBD,M,
Boys,124.74,6,Moises Rodriguez,Monahans,112.04,129.27,88.45,151.95,369.68,Single-ply,SBD,M,
Boys,124.74,DQ,Daniel Perea,Pecos,112.04,181.44,124.74,,,Single-ply,SBD,M,
Boys,124.74+,1,Albert Aguilar,Pecos,182.8,272.16,185.97,204.12,662.24,Single-ply,SBD,M,
Boys,124.74+,2,Jt Gomez,Fort Stockton,144.24,233.6,136.08,210.92,580.6,Single-ply,SBD,M,
Boys,124.74+,3,Luis Mendoza,Fort Stockton,126.55,204.12,104.33,151.95,460.4,Single-ply,SBD,M,
Boys,124.74+,4,Miguel Jauregui,Monahans,182.8,129.27,83.91,136.08,349.27,Single-ply,SBD,M,
