Division,WeightClassKg,Place,Name,Team,BodyweightKg,Best3SquatKg,Best3BenchKg,Best3DeadliftKg,TotalKg,Equipment,Event,Sex,BirthDate
Girls,44.23,1,Skylar Kamp,Kerens,42.37,90.72,31.75,77.11,199.58,Single-ply,SBD,F,
Girls,47.85,1,Marissa Eppes,Fairfield,46.72,65.77,43.09,65.77,174.63,Single-ply,SBD,F,
Girls,51.94,1,Katelyn McCoy,Malakoff,49.44,90.72,49.9,99.79,240.4,Single-ply,SBD,F,
Girls,51.94,2,Emma Jo Smith,Fairfield,50.8,97.52,52.16,83.91,233.6,Single-ply,SBD,F,
Girls,51.94,DQ,Lindsey Cockerell,Fairfield,50.8,83.91,40.82,,,Single-ply,SBD,F,
Girls,56.02,1,Laura Williams,Kerens,53.07,102.06,40.82,106.59,249.48,Single-ply,SBD,F,
Girls,56.02,2,Katie Grounds,Fairfield,54.88,72.57,45.36,83.91,201.85,Single-ply,SBD,F,
Girls,60.1,1,Esmeralda Almaguer,Kerens,58.42,108.86,70.31,127.01,306.17,Single-ply,SBD,F,
Girls,60.1,2,Ellie Grissett,Fairfield,57.61,102.06,52.16,86.18,240.4,Single-ply,SBD,F,
Girls,67.36,1,Kie Burns,Malakoff,65.77,113.4,49.9,99.79,263.08,Single-ply,SBD,F,
Girls,67.36,2,Gracie Meador,Malakoff,63.68,102.06,45.36,113.4,260.82,Single-ply,SBD,F,
Girls,67.36,3,Reagan Smith #1,Malakoff,61.42,92.99,49.9,113.4,256.28,Single-ply,SBD,F,
Girls,67.36,4,Calla Childers,Fairfield,66.22,95.25,45.36,104.33,244.94,Single-ply,SBD,F,
Girls,75.07,1,Kyrah Chambers,Malakoff,70.94,122.47,49.9,120.2,292.57,Single-ply,SBD,F,
Girls,75.07,2,Alexia Roman,Malakoff,71.12,102.06,43.09,104.33,249.48,Single-ply,SBD,F,
Girls,75.07,3,Bailey Bailey,Fairfield,70.31,68.04,38.56,83.91,190.51,Single-ply,SBD,F,
Girls,82.33,1,Kianna Williams,Malakoff,79.83,142.88,61.23,115.67,319.78,Single-ply,SBD,F,
Girls,82.33,2,Jasmine Harris,Malakoff,76.57,104.33,49.9,108.86,263.08,Single-ply,SBD,F,
Girls,82.33,3,Josie Draper,Fairfield,78.47,61.23,45.36,86.18,192.78,Single-ply,SBD,F,
Girls,90.04,1,Tiara Bailey,Kerens,83.91,120.2,63.5,136.08,319.78,Single-ply,SBD,F,
Girls,90.04,2,Emma Combs,Kerens,86.55,115.67,72.57,122.47,310.71,Single-ply,SBD,F,
Girls,90.04,3,Jaquala Carr,Malakoff,85.64,102.06,47.63,122.47,272.16,Single-ply,SBD,F,
Girls,100.02,1,Madison Brumit,Kerens,99.79,124.74,61.23,136.08,322.05,Single-ply,SBD,F,
Girls,100.02,2,Jordan Maciel,Fairfield,99.79,136.08,68.04,113.4,317.51,Single-ply,SBD,F,
Girls,100.02,3,Aubrey Griffith,Malakoff,91.72,111.13,47.63,113.4,272.16,Single-ply,SBD,F,
Girls,117.71,1,Alice Billingsley,Kerens,114.12,140.61,81.65,142.88,365.14,Single-ply,SBD,F,
