Division,WeightClassKg,Place,Name,Team,BodyweightKg,Best3SquatKg,Best3BenchKg,Best3DeadliftKg,TotalKg,Equipment,Event,Sex,BirthDate
Boys,51.71,1,Eli Saunders,Burton,49.08,129.27,65.77,129.27,324.32,Single-ply,SBD,M,
Boys,51.71,2,Cade Janecek,East Bernard,51.57,120.2,58.97,129.27,308.44,Single-ply,SBD,M,
Boys,51.71,3,Juan Perez,Sealy,51.21,113.4,61.23,129.27,303.91,Single-ply,SBD,M,
Boys,51.71,4,Brandon Ford,Altair Rice,51.71,72.57,34.02,70.31,176.9,Single-ply,SBD,M,
Boys,51.71,DQ,Kyle Sanchez,Boling,46.27,120.2,52.16,,,Single-ply,SBD,M,
Boys,51.71,DQ,Matthew Garza,La Grange,49.21,,,,,Single-ply,SBD,M,
Boys,55.79,1,Rudy Becerra,Boling,55.79,167.83,90.72,145.15,403.7,Single-ply,SBD,M,
Boys,55.79,2,Dalton Oppermann,Columbus,54.98,138.35,95.25,149.69,383.29,Single-ply,SBD,M,
Boys,55.79,3,Enrique DeLeon,Kenedy,55.79,142.88,92.99,147.42,383.29,Single-ply,SBD,M,
Boys,55.79,4,Jose Miranda #2,Kenedy,53.98,129.27,70.31,136.08,335.66,Single-ply,SBD,M,
Boys,55.79,5,Waylon Schimcek,Weimar,55.11,120.2,61.23,142.88,324.32,Single-ply,SBD,M,
Boys,55.79,6,Tyler Shaver,Gonzales,54.79,120.2,77.11,117.93,315.25,Single-ply,SBD,M,
Boys,55.79,7,Tucker Ensinger,Bastrop,54.79,113.4,72.57,124.74,310.71,Single-ply,SBD,M,
Boys,55.79,8,Kejun Wilson,Altair Rice,53.07,113.4,56.7,122.47,292.57,Single-ply,SBD,M,
Boys,55.79,9,Dio Zeferino,Sealy,53.43,92.99,52.16,133.81,278.96,Single-ply,SBD,M,
Boys,55.79,10,Bryan Maldonado,Wallis Brazos,52.62,108.86,65.77,102.06,276.69,Single-ply,SBD,M,
Boys,55.79,11,Karson Van Pelt,Vanderbilt Industrial,55.2,99.79,56.7,120.2,276.69,Single-ply,SBD,M,
Boys,55.79,12,Emmanuel Alvarado,Bastrop,55.29,104.33,49.9,104.33,258.55,Single-ply,SBD,M,
Boys,55.79,13,David Hernandez,Smithville,52.53,106.59,47.63,102.06,256.28,Single-ply,SBD,M,
Boys,55.79,DQ,Branndon Lomas,Wharton,54.93,,,,,Single-ply,SBD,M,
Boys,59.87,1,Dylan Crye,Hallettsville,59.06,163.29,88.45,165.56,417.3,Single-ply,SBD,M,
Boys,59.87,2,Nicholas Nguyen,Bastrop,57.7,142.88,88.45,167.83,399.16,Single-ply,SBD,M,
Boys,59.87,3,Weslee Novosod,Sealy,59.51,156.49,74.84,163.29,394.63,Single-ply,SBD,M,
Boys,59.87,4,Drey Rosas,Weimar,59.42,149.69,68.04,165.56,383.29,Single-ply,SBD,M,
Boys,59.87,5,Daniel Hughston,Cuero,57.56,147.42,83.91,142.88,374.21,Single-ply,SBD,M,
Boys,59.87,6,Ean Chreene,Vanderbilt Industrial,57.61,113.4,81.65,142.88,337.93,Single-ply,SBD,M,
Boys,59.87,7,Sam Peacock,Altair Rice,59.24,124.74,65.77,133.81,324.32,Single-ply,SBD,M,
Boys,59.87,8,Charles Boetcher,East Bernard,57.56,108.86,72.57,122.47,303.91,Single-ply,SBD,M,
Boys,59.87,DQ,Ryan Garcia,Cuero,58.33,204.12,115.67,,,Single-ply,SBD,M,
Boys,59.87,DQ,Alerique Medrano,Boling,56.7,133.81,,,,Single-ply,SBD,M,
Boys,67.13,1,Jacob Reece,Bastrop,65.73,197.31,115.67,201.85,514.83,Single-ply,SBD,M,
Boys,67.13,2,Xaiver Cerna,Gonzales,66,201.85,115.67,192.78,510.29,Single-ply,SBD,M,
Boys,67.13,3,Alex Sanchez,Kenedy,65.91,197.31,92.99,199.58,489.88,Single-ply,SBD,M,
Boys,67.13,4,Diego Hernandez,Gonzales,66.04,185.97,97.52,197.31,480.81,Single-ply,SBD,M,
Boys,67.13,5,Trent Mendez,Schulenburg,67.13,174.63,106.59,181.44,462.66,Single-ply,SBD,M,
Boys,67.13,6,Reagan Villareal,Kenedy,60.01,183.7,88.45,183.7,455.86,Single-ply,SBD,M,
Boys,67.13,7,Miles DeLeon,Wharton,65.86,158.76,113.4,183.7,455.86,Single-ply,SBD,M,
Boys,67.13,8,Carlos Olmedo,Boling,66.68,181.44,92.99,170.1,444.52,Single-ply,SBD,M,
Boys,67.13,9,Rider Reid,La Grange,63.28,170.1,90.72,172.37,433.18,Single-ply,SBD,M,
Boys,67.13,10,Andrew Dirba,East Bernard,62.14,163.29,90.72,167.83,421.84,Single-ply,SBD,M,
Boys,67.13,11,Logan Stratiou,Boling,65.77,161.03,86.18,154.22,401.43,Single-ply,SBD,M,
Boys,67.13,12,Brody Reinecke,East Bernard,64.59,161.03,77.11,158.76,396.89,Single-ply,SBD,M,
Boys,67.13,13,Garret Lero,Snook,64,149.69,90.72,145.15,385.55,Single-ply,SBD,M,
Boys,67.13,14,Gavin Anglin,Caldwell,65.5,138.35,95.25,142.88,376.48,Single-ply,SBD,M,
Boys,67.13,15,Stephen Migura,Cuero,65.77,147.42,88.45,136.08,371.95,Single-ply,SBD,M,
Boys,67.13,16,Gene Montgomery,Altair Rice,64.18,138.35,81.65,149.69,369.68,Single-ply,SBD,M,
Boys,67.13,17,Kaldon Roensch,Columbus,61.33,129.27,104.33,120.2,353.8,Single-ply,SBD,M,
Boys,67.13,18,Armando Ibarra,Brookshire Royal,61.51,129.27,72.57,147.42,349.27,Single-ply,SBD,M,
Boys,67.13,19,Josh Henry,Victoria St. Joseph,63.09,120.2,88.45,127.01,335.66,Single-ply,SBD,M,
Boys,67.13,20,Felipe Olmos,Flatonia,60.69,113.4,77.11,117.93,308.44,Single-ply,SBD,M,
Boys,67.13,21,Joshua Gauez,Wharton,66.22,111.13,72.57,120.2,303.91,Single-ply,SBD,M,
Boys,67.13,22,Rafael Herrera,Altair Rice,63.28,108.86,61.23,129.27,299.37,Single-ply,SBD,M,
Boys,67.13,23,Leo Dominguez,Bastrop,62.19,102.06,61.23,108.86,272.16,Single-ply,SBD,M,
Boys,67.13,DQ,Ross Hough,Boling,65.09,117.93,,,,Single-ply,SBD,M,
Boys,67.13,DQ,Adam Woodard,Altair Rice,63.05,,,,,Single-ply,SBD,M,
Boys,74.84,1,Alvin Amador,Kenedy,73.84,199.58,106.59,217.72,523.9,Single-ply,SBD,M,
Boys,74.84,2,Nico Leza,Smithville,69.54,201.85,104.33,208.65,514.83,Single-ply,SBD,M,
Boys,74.84,3,Joseph Townsend,Wallis Brazos,71.94,197.31,108.86,197.31,503.49,Single-ply,SBD,M,
Boys,74.84,4,Cesar Matamoros,Gonzales,73.39,204.12,113.4,183.7,501.22,Single-ply,SBD,M,
Boys,74.84,5,Niklas Schatz,East Bernard,70.81,199.58,106.59,192.78,498.95,Single-ply,SBD,M,
Boys,74.84,6,Joseph Valdez,Kenedy,71.4,197.31,102.06,199.58,498.95,Single-ply,SBD,M,
Boys,74.84,7,Erick Guterrez,Altair Rice,69.85,195.04,106.59,192.78,494.42,Single-ply,SBD,M,
Boys,74.84,8,Javen Mendiola,Cuero,70.17,183.7,108.86,185.97,478.54,Single-ply,SBD,M,
Boys,74.84,9,Daniel Torres,Caldwell,72.8,179.17,111.13,181.44,471.74,Single-ply,SBD,M,
Boys,74.84,10,Orlando Adame,Schulenburg,73.48,192.78,72.57,192.78,458.13,Single-ply,SBD,M,
Boys,74.84,11,Corey Riley,Sealy,74.75,165.56,102.06,183.7,451.32,Single-ply,SBD,M,
Boys,74.84,12,Hunter Kohleffel,Columbus,73.89,190.51,92.99,165.56,449.06,Single-ply,SBD,M,
Boys,74.84,13,Jeraan Arguellez,Vanderbilt Industrial,69.85,161.03,104.33,163.29,428.64,Single-ply,SBD,M,
Boys,74.84,14,Camron Alamilla,Hallettsville,74.03,167.83,90.72,161.03,419.57,Single-ply,SBD,M,
Boys,74.84,15,Jonothan Monterroza,Sealy,74.3,167.83,90.72,158.76,417.3,Single-ply,SBD,M,
Boys,74.84,16,Ricardo Olivares,Flatonia,72.03,151.95,92.99,170.1,415.04,Single-ply,SBD,M,
Boys,74.84,17,Jesse Cornish,Vanderbilt Industrial,73.57,170.1,90.72,154.22,415.04,Single-ply,SBD,M,
Boys,74.84,18,Cory Lewis,Columbus,69.17,147.42,77.11,172.37,396.89,Single-ply,SBD,M,
Boys,74.84,19,Kolby Rivera,East Bernard,69.08,163.29,77.11,142.88,383.29,Single-ply,SBD,M,
Boys,74.84,20,Johnangelo Harvey,Wallis Brazos,73.16,129.27,72.57,165.56,367.41,Single-ply,SBD,M,
Boys,74.84,21,Edson Villegas,Brookshire Royal,68.08,129.27,83.91,147.42,360.61,Single-ply,SBD,M,
Boys,74.84,22,Hector Gonzales,Smithville,68.54,120.2,79.38,149.69,349.27,Single-ply,SBD,M,
Boys,74.84,23,Austin Stech,Weimar,67.59,120.2,74.84,149.69,344.73,Single-ply,SBD,M,
Boys,74.84,24,Luke Jakubik,Snook,70.72,122.47,68.04,120.2,310.71,Single-ply,SBD,M,
Boys,74.84,25,Gabe Weaver,Victoria St. Joseph,73.39,83.91,56.7,136.08,276.69,Single-ply,SBD,M,
Boys,74.84,DQ,Brandon James,Altair Rice,70.26,145.15,83.91,,,Single-ply,SBD,M,
Boys,74.84,DQ,Antonio Cano,Boling,70.31,149.69,,,,Single-ply,SBD,M,
Boys,74.84,DQ,Deondre Cotton,Altair Rice,70.35,,,,,Single-ply,SBD,M,
Boys,74.84,DQ,Tre Stovall,Altair Rice,70.49,,,,,Single-ply,SBD,M,
Boys,82.1,1,Wayne Rinn,Bellville,81.19,238.14,136.08,215.46,589.67,Single-ply,SBD,M,
Boys,82.1,2,Jacob Bandera,Smithville,82.1,244.94,111.13,213.19,569.26,Single-ply,SBD,M,
Boys,82.1,3,Weston Warschak,Columbus,82.05,213.19,122.47,210.92,546.58,Single-ply,SBD,M,
Boys,82.1,4,George De Los Santos,Kenedy,81.51,226.8,113.4,204.12,544.31,Single-ply,SBD,M,
Boys,82.1,5,Blake Jedlicka,East Bernard,77.84,204.12,106.59,213.19,523.9,Single-ply,SBD,M,
Boys,82.1,6,Landon Rodriguez,Altair Rice,82.1,217.72,111.13,195.04,523.9,Single-ply,SBD,M,
Boys,82.1,7,Tanner Coleman,Victoria St. Joseph,80.78,208.65,113.4,199.58,521.63,Single-ply,SBD,M,
Boys,82.1,8,DJ Taylor,La Grange,80.29,215.46,104.33,195.04,514.83,Single-ply,SBD,M,
Boys,82.1,9,Gabriel Ramos,Giddings,77.11,204.12,113.4,183.7,501.22,Single-ply,SBD,M,
Boys,82.1,10,Jackson Osborne,Sealy,79.24,190.51,117.93,188.24,496.68,Single-ply,SBD,M,
Boys,82.1,11,Dustin Armstrong,Smithville,80.42,183.7,104.33,192.78,480.81,Single-ply,SBD,M,
Boys,82.1,12,Hector Granados #2,Giddings,78.11,188.24,113.4,167.83,469.47,Single-ply,SBD,M,
Boys,82.1,13,Jesse Arrington,Boling,79.38,179.17,104.33,156.49,439.98,Single-ply,SBD,M,
Boys,82.1,14,Colbie Pullin,Gonzales,78.7,185.97,95.25,151.95,433.18,Single-ply,SBD,M,
Boys,82.1,15,Dylan Baird,East Bernard,80.2,170.1,102.06,145.15,417.3,Single-ply,SBD,M,
Boys,82.1,16,Michael Flores #8,Altair Rice,80.47,147.42,86.18,183.7,417.3,Single-ply,SBD,M,
Boys,82.1,17,Nerick Villanueva,Brookshire Royal,81.28,156.49,83.91,165.56,405.97,Single-ply,SBD,M,
Boys,82.1,18,Clayton Macha,Wallis Brazos,78.56,154.22,88.45,161.03,403.7,Single-ply,SBD,M,
Boys,82.1,19,Thomas Lopez,Victoria St. Joseph,77.47,142.88,77.11,181.44,401.43,Single-ply,SBD,M,
Boys,82.1,20,Luis Reyes,Altair Rice,78.61,154.22,97.52,145.15,396.89,Single-ply,SBD,M,
Boys,82.1,21,Aldahir Mendoza,Brookshire Royal,79.65,133.81,88.45,156.49,378.75,Single-ply,SBD,M,
Boys,82.1,22,Landon Little,La Grange,80.47,142.88,83.91,151.95,378.75,Single-ply,SBD,M,
Boys,82.1,23,Jonoah Fonseca,Wallis Brazos,79.97,127.01,81.65,154.22,362.87,Single-ply,SBD,M,
Boys,82.1,24,Damontae Levi,Altair Rice,77.38,120.2,70.31,163.29,353.8,Single-ply,SBD,M,
Boys,82.1,25,Garrett Harris,La Grange,76.79,122.47,70.31,147.42,340.19,Single-ply,SBD,M,
Boys,82.1,DQ,Josh McDonald,Brookshire Royal,80.69,111.13,,,,Single-ply,SBD,M,
Boys,82.1,DQ,Adrian Flores,Kenedy,81.83,201.85,,,,Single-ply,SBD,M,
Boys,82.1,DQ,Brayden Duarte,Schulenburg,76.2,176.9,95.25,,,Single-ply,SBD,M,
Boys,82.1,DQ,Kason Brown,Altair Rice,81.42,,,,,Single-ply,SBD,M,
Boys,82.1,DQ,Jj Hurd,Altair Rice,80.15,,,,,Single-ply,SBD,M,
Boys,89.81,1,Alex Marek,Bellville,89.04,238.14,129.27,238.14,605.55,Single-ply,SBD,M,
Boys,89.81,2,Christian Lopez #9,Bastrop,85.68,226.8,154.22,222.26,603.28,Single-ply,SBD,M,
Boys,89.81,3,J Galvan,East Bernard,85.09,213.19,124.74,215.46,553.38,Single-ply,SBD,M,
Boys,89.81,4,Logan Gaskey,Bastrop,88.5,201.85,136.08,215.46,553.38,Single-ply,SBD,M,
Boys,89.81,5,Jose Navarro,Brookshire Royal,87.09,208.65,115.67,210.92,535.24,Single-ply,SBD,M,
Boys,89.81,6,Justin High,Bellville,89.63,217.72,142.88,158.76,519.36,Single-ply,SBD,M,
Boys,89.81,7,Anthony Sandoval,Caldwell,82.28,201.85,113.4,183.7,498.95,Single-ply,SBD,M,
Boys,89.81,8,Luis Ceballos,Altair Rice,86.77,197.31,92.99,192.78,483.08,Single-ply,SBD,M,
Boys,89.81,9,Reese Niesner,Columbus,89.36,170.1,97.52,181.44,449.06,Single-ply,SBD,M,
Boys,89.81,10,Cullen Dees,Giddings,82.74,179.17,92.99,172.37,444.52,Single-ply,SBD,M,
Boys,89.81,11,Billy Tischler,Bastrop,84.05,174.63,90.72,172.37,437.72,Single-ply,SBD,M,
Boys,89.81,12,Jose Arriaga,Sealy,87.09,163.29,88.45,165.56,417.3,Single-ply,SBD,M,
Boys,89.81,13,Kendrick Richardson,Bastrop,87.32,158.76,79.38,158.76,396.89,Single-ply,SBD,M,
Boys,89.81,14,Dillon Arteaga,Wallis Brazos,83.42,127.01,97.52,142.88,367.41,Single-ply,SBD,M,
Boys,89.81,15,Josh Martin,Flatonia,84.78,136.08,92.99,122.47,351.53,Single-ply,SBD,M,
Boys,89.81,16,Aaron Gomez,Wharton,85.73,122.47,83.91,131.54,337.93,Single-ply,SBD,M,
Boys,89.81,17,Nathan Frazer,Hallettsville,84.05,86.18,61.23,108.86,256.28,Single-ply,SBD,M,
Boys,89.81,DQ,James Cotton,Altair Rice,86.91,,,,,Single-ply,SBD,M,
Boys,89.81,DQ,Juan Herrera,Altair Rice,89.13,,,,,Single-ply,SBD,M,
Boys,99.79,1,Jackson Roensch,Columbus,96.3,240.4,181.44,238.14,659.98,Single-ply,SBD,M,
Boys,99.79,2,Vincente Cabrera,Weimar,95.75,219.99,147.42,226.8,594.21,Single-ply,SBD,M,
Boys,99.79,3,Caleb Smith,Cuero,98.88,238.14,140.61,204.12,582.87,Single-ply,SBD,M,
Boys,99.79,4,Coby Smith,Giddings,94.39,226.8,120.2,213.19,560.19,Single-ply,SBD,M,
Boys,99.79,5,Easton Kylberg,Giddings,96.07,215.46,122.47,188.24,526.17,Single-ply,SBD,M,
Boys,99.79,6,Margarito Calderon,Brookshire Royal,98.11,188.24,122.47,204.12,514.83,Single-ply,SBD,M,
Boys,99.79,7,Eric Burns,Sealy,96.52,201.85,113.4,197.31,512.56,Single-ply,SBD,M,
Boys,99.79,8,Clayton Sherman,Bastrop,95.89,188.24,117.93,197.31,503.49,Single-ply,SBD,M,
Boys,99.79,9,Aziel Gonzalez,Altair Rice,96.93,195.04,106.59,190.51,492.15,Single-ply,SBD,M,
Boys,99.79,10,Alex Gonsalez,Kenedy,97.75,204.12,104.33,183.7,492.15,Single-ply,SBD,M,
Boys,99.79,11,Layne Thiele,Gonzales,92.99,190.51,102.06,183.7,476.27,Single-ply,SBD,M,
Boys,99.79,12,Cole Powell,Bellville,90.04,183.7,113.4,165.56,462.66,Single-ply,SBD,M,
Boys,99.79,13,Fernando Vargas,Kenedy,93.89,199.58,90.72,172.37,462.66,Single-ply,SBD,M,
Boys,99.79,14,Hayden Land,Victoria St. Joseph,98.29,163.29,99.79,181.44,444.52,Single-ply,SBD,M,
Boys,99.79,15,Jordan Garcia #1,Columbus,99.06,167.83,99.79,165.56,433.18,Single-ply,SBD,M,
Boys,99.79,16,Oscar Ramirez,Columbus,93.89,158.76,97.52,170.1,426.38,Single-ply,SBD,M,
Boys,99.79,17,Trevor Beyer,Schulenburg,90.72,181.44,86.18,154.22,421.84,Single-ply,SBD,M,
Boys,99.79,18,Cody Parnell,Smithville,94.94,158.76,79.38,149.69,387.82,Single-ply,SBD,M,
Boys,99.79,19,Nick Pavlicek,Columbus,92.99,149.69,86.18,149.69,385.55,Single-ply,SBD,M,
Boys,99.79,20,Favian Gutierrez,La Grange,99.02,147.42,74.84,149.69,371.95,Single-ply,SBD,M,
Boys,99.79,21,Sean Sims,Altair Rice,94.3,111.13,79.38,122.47,312.98,Single-ply,SBD,M,
Boys,99.79,22,Bradley Crabb,Sealy,99.56,115.67,56.7,136.08,308.44,Single-ply,SBD,M,
Boys,99.79,DQ,Matthew Jordan #3,Snook,90.81,192.78,,,,Single-ply,SBD,M,
Boys,99.79,DQ,Kyle Weghorst,Cuero,95.75,217.72,,,,Single-ply,SBD,M,
Boys,99.79,DQ,Everado Esquivel,Altair Rice,97.48,,,,,Single-ply,SBD,M,
Boys,109.77,1,Samual Segura,Giddings,100.43,310.71,190.51,258.55,759.77,Single-ply,SBD,M,
Boys,109.77,2,Tristan Bermea,Vanderbilt Industrial,109.41,260.82,172.37,231.33,664.51,Single-ply,SBD,M,
Boys,109.77,3,Christian Almaguer,Gonzales,107.5,215.46,145.15,215.46,576.06,Single-ply,SBD,M,
Boys,109.77,4,Andrew Rodriguez,Giddings,102.06,217.72,136.08,199.58,553.38,Single-ply,SBD,M,
Boys,109.77,5,Mark Glover,East Bernard,104.33,213.19,106.59,226.8,546.58,Single-ply,SBD,M,
Boys,109.77,6,Landon Sluka,Hallettsville,100.43,204.12,127.01,213.19,544.31,Single-ply,SBD,M,
Boys,109.77,7,Jerry Richards,Boling,107.5,215.46,120.2,204.12,539.77,Single-ply,SBD,M,
Boys,109.77,8,Yahir Alvarez,Sealy,102.15,190.51,120.2,195.04,505.76,Single-ply,SBD,M,
Boys,109.77,9,Patrick Washington,Sealy,102.42,197.31,115.67,183.7,496.68,Single-ply,SBD,M,
Boys,109.77,10,Kion Hurd,Columbus,102.19,197.31,102.06,192.78,492.15,Single-ply,SBD,M,
Boys,109.77,11,David Schoenemann,Caldwell,106.59,185.97,102.06,188.24,476.27,Single-ply,SBD,M,
Boys,109.77,12,Jace Kitchens,Vanderbilt Industrial,109.5,190.51,113.4,170.1,474,Single-ply,SBD,M,
Boys,109.77,13,Augustin Muniz,Wharton,106.59,154.22,106.59,145.15,405.97,Single-ply,SBD,M,
Boys,124.74,1,Ryan Gomez,Gonzales,123.83,249.48,154.22,249.48,653.17,Single-ply,SBD,M,
Boys,124.74,2,Nate Beck,Victoria St. Joseph,112.17,233.6,151.95,229.06,614.62,Single-ply,SBD,M,
Boys,124.74,3,Esequiel Flores,Caldwell,122.24,235.87,129.27,226.8,591.94,Single-ply,SBD,M,
Boys,124.74,4,Joseph Luna,Kenedy,117.93,217.72,113.4,231.33,562.45,Single-ply,SBD,M,
Boys,124.74,5,Brendan Rodriguez,Gonzales,121.38,233.6,142.88,185.97,562.45,Single-ply,SBD,M,
Boys,124.74,6,Robert Gregg,Smithville,123.88,226.8,145.15,188.24,560.19,Single-ply,SBD,M,
Boys,124.74,7,Raul Tavares,East Bernard,120.66,240.4,140.61,176.9,557.92,Single-ply,SBD,M,
Boys,124.74,8,Deionte Cooper,Sealy,116.62,197.31,122.47,215.46,535.24,Single-ply,SBD,M,
Boys,124.74,9,Bryce Moore,Giddings,111.72,213.19,108.86,210.92,532.97,Single-ply,SBD,M,
Boys,124.74,10,Casen Ivy,East Bernard,115.3,195.04,120.2,210.92,526.17,Single-ply,SBD,M,
Boys,124.74,11,Juan Cortez,Boling,114.31,210.92,129.27,179.17,519.36,Single-ply,SBD,M,
Boys,124.74,12,Ryan Broaddus,Caldwell,115.17,199.58,117.93,183.7,501.22,Single-ply,SBD,M,
Boys,124.74,13,Cody Noriega,Snook,113.04,188.24,108.86,190.51,487.61,Single-ply,SBD,M,
Boys,124.74,14,Isaiah Adams,Schulenburg,123.74,185.97,92.99,172.37,451.32,Single-ply,SBD,M,
Boys,124.74,15,Gabe Medina,Victoria St. Joseph,119.16,165.56,97.52,181.44,444.52,Single-ply,SBD,M,
Boys,124.74,16,Tay'Shaun Toliver,Columbus,120.84,181.44,102.06,158.76,442.25,Single-ply,SBD,M,
Boys,124.74,DQ,Cayden Scott,Bastrop,119.75,201.85,129.27,,,Single-ply,SBD,M,
Boys,124.74,DQ,Brandon Lara,Schulenburg,121.47,235.87,,,,Single-ply,SBD,M,
Boys,124.74,DQ,Thomas Meador,Cuero,118.75,,,,,Single-ply,SBD,M,
Boys,124.74+,1,Chris Sifuentes,Giddings,146.42,317.51,158.76,258.55,734.82,Single-ply,SBD,M,
Boys,124.74+,2,JR Schauer,East Bernard,133.9,247.21,167.83,229.06,644.1,Single-ply,SBD,M,
Boys,124.74+,3,Dylan Ramirez,Altair Rice,136.12,272.16,140.61,210.92,623.69,Single-ply,SBD,M,
Boys,124.74+,4,Jusiah Sampelton,Giddings,128.28,249.48,142.88,208.65,601.01,Single-ply,SBD,M,
Boys,124.74+,5,Cody Robert,Hallettsville,141.66,238.14,142.88,215.46,596.47,Single-ply,SBD,M,
Boys,124.74+,6,Brett Jahns,Gonzales,140.8,226.8,154.22,210.92,591.94,Single-ply,SBD,M,
Boys,124.74+,7,Eduardo Arteaga,Brookshire Royal,128.37,231.33,127.01,217.72,576.06,Single-ply,SBD,M,
Boys,124.74+,8,Antonio Marquez,Altair Rice,132.04,210.92,129.27,217.72,557.92,Single-ply,SBD,M,
Boys,124.74+,9,Taden Avarado,Flatonia,144.83,229.06,113.4,195.04,537.51,Single-ply,SBD,M,
Boys,124.74+,10,Brayden Bittick,Smithville,136.08,192.78,115.67,197.31,505.76,Single-ply,SBD,M,
Boys,124.74+,11,Jacob Smith,Vanderbilt Industrial,141.88,226.8,113.4,163.29,503.49,Single-ply,SBD,M,
Boys,124.74+,DQ,Jonas DeLeon,Cuero,147.6,240.4,,,,Single-ply,SBD,M,
Boys,124.74+,DQ,Francisco Garcia,Boling,132.9,213.19,,,,Single-ply,SBD,M,
Boys,124.74+,DQ,Eduardo Pichardo,Brookshire Royal,189.1,,,,,Single-ply,SBD,M,
Boys,124.74+,DQ,Taj Fields,Altair Rice,153.77,,,,,Single-ply,SBD,M,
Boys,,NS,Curtis Burleson,Smithville,,,,,,Single-ply,SBD,M,
Boys,,NS,Connor Campbell,Victoria St. Joseph,,,,,,Single-ply,SBD,M,
Boys,,NS,Apolo Ramos,Smithville,,,,,,Single-ply,SBD,M,
Boys,,NS,Michael Konecny,Hallettsville,,,,,,Single-ply,SBD,M,
Boys,,NS,Dakota Ford,Weimar,,,,,,Single-ply,SBD,M,
Boys,,NS,Cooper Brown,Columbus,,,,,,Single-ply,SBD,M,
Boys,,NS,Mason Diaz,Kenedy,,,,,,Single-ply,SBD,M,
Boys,,NS,Javier Martinez,Schulenburg,,,,,,Single-ply,SBD,M,
Boys,,NS,Colby Guzman,Schulenburg,,,,,,Single-ply,SBD,M,
Boys,,NS,Will Hooper,Schulenburg,,,,,,Single-ply,SBD,M,
Boys,,NS,Dylan Thaxton,Sealy,,,,,,Single-ply,SBD,M,
Boys,,NS,Leo Casique,Sealy,,,,,,Single-ply,SBD,M,
Boys,,NS,Coby Pruett,Gonzales,,,,,,Single-ply,SBD,M,
Boys,,NS,Chase Parr,Wallis Brazos,,,,,,Single-ply,SBD,M,
Boys,,NS,Bishop Whitt,Cuero,,,,,,Single-ply,SBD,M,
Boys,,NS,Brandon Maldonado,Wallis Brazos,,,,,,Single-ply,SBD,M,
Boys,,NS,Woodrow Beltran,Giddings,,,,,,Single-ply,SBD,M,
Boys,,NS,Charles Derouen,Cuero,,,,,,Single-ply,SBD,M,
Boys,,NS,Kalen Malandrakis,Cuero,,,,,,Single-ply,SBD,M,
