Division,WeightClassKg,Place,Name,Team,BodyweightKg,Best3SquatKg,Best3BenchKg,Best3DeadliftKg,TotalKg,Equipment,Event,Sex
Boys,51.71,1,Johnny Adair,Sealy,49.26,147.42,79.38,165.56,392.36,Single-ply,SBD,M
Boys,51.71,2,Joey Adair,Sealy,49.53,149.69,79.38,163.29,392.36,Single-ply,SBD,M
Boys,51.71,3,D'Montre Brown,Cameron Yoe,50.17,131.54,68.04,156.49,356.07,Single-ply,SBD,M
Boys,51.71,4,Doug McCoy,Giddings,51.44,127.01,70.31,138.35,335.66,Single-ply,SBD,M
Boys,55.79,5,Lane Fikes,Robinson,51.89,122.47,61.23,145.15,328.85,Single-ply,SBD,M
Boys,55.79,6,Ivan Marez,Mexia,51.89,122.47,68.04,131.54,322.05,Single-ply,SBD,M
Boys,51.71,7,Jonah Salazar,Robinson,51.26,117.93,58.97,129.27,306.17,Single-ply,SBD,M
Boys,51.71,8,Guillermo Olvera,Alvarado,51.44,102.06,61.23,138.35,301.64,Single-ply,SBD,M
Boys,55.79,9,Tanner Blackwell,Gatesville,51.8,108.86,58.97,106.59,274.42,Single-ply,SBD,M
Boys,55.79,1,Andrew Knight,Robinson,55.43,181.44,81.65,176.9,439.98,Single-ply,SBD,M
Boys,55.79,2,Michael McIntire,Taylor,54.88,172.37,90.72,158.76,421.84,Single-ply,SBD,M
Boys,55.79,3,Kolby Castillo,Navasota,55.79,151.95,90.72,161.03,403.7,Single-ply,SBD,M
Boys,55.79,4,Brian Vizuet,Navasota,55.34,142.88,88.45,165.56,396.89,Single-ply,SBD,M
Boys,55.79,5,Josh McCraw,Gatesville,54.98,161.03,77.11,149.69,387.82,Single-ply,SBD,M
Boys,55.79,6,Tommy Alford,West,55.07,142.88,90.72,154.22,387.82,Single-ply,SBD,M
Boys,55.79,7,Ignacio Alvarado,Alvarado,55.16,136.08,72.57,154.22,362.87,Single-ply,SBD,M
Boys,55.79,8,Micah Thompson,Gatesville,55.61,147.42,58.97,149.69,356.07,Single-ply,SBD,M
Boys,59.87,9,Codie Hall,Taylor,55.88,136.08,83.91,124.74,344.73,Single-ply,SBD,M
Boys,59.87,1,Alex Leos,Robinson,59.87,190.51,95.25,190.51,476.27,Single-ply,SBD,M
Boys,59.87,2,Brandon Corn,Liberty Hill,58.79,192.78,106.59,172.37,471.74,Single-ply,SBD,M
Boys,59.87,3,Victor Aguilar,Caldwell,56.88,183.7,111.13,161.03,455.86,Single-ply,SBD,M
Boys,59.87,4,Rene Rivas,Venus,59.6,161.03,81.65,158.76,401.43,Single-ply,SBD,M
Boys,59.87,5,Luis Sandoval,Glen Rose,59.78,151.95,83.91,165.56,401.43,Single-ply,SBD,M
Boys,59.87,6,John Acosta,Navasota,59.6,129.27,83.91,181.44,394.63,Single-ply,SBD,M
Boys,59.87,7,Cody Wisdom,Llano,58.97,145.15,65.77,167.83,378.75,Single-ply,SBD,M
Boys,59.87,8,Diego Padron,Waco Connally,58.24,138.35,77.11,158.76,374.21,Single-ply,SBD,M
Boys,67.13,1,Tyrell Irby,Waco La Vega,66.68,240.4,136.08,233.6,610.08,Single-ply,SBD,M
Boys,67.13,2,Kyree Norman,Waco La Vega,66.32,240.4,115.67,240.4,596.47,Single-ply,SBD,M
Boys,74.84,3,Kendrick Armstead,Navasota,67.22,217.72,108.86,204.12,530.7,Single-ply,SBD,M
Boys,67.13,4,Nathan Kalil,China Spring,66.41,181.44,108.86,188.24,478.54,Single-ply,SBD,M
Boys,74.84,5,Drew Perry,Robinson,67.31,145.15,113.4,165.56,424.11,Single-ply,SBD,M
Boys,67.13,DQ,Chris Sosebee,Whitney,65.23,172.37,104.33,,,Single-ply,SBD,M
Boys,67.13,DQ,Greg Chelf,Rockdale,66.95,,,,,Single-ply,SBD,M
Boys,74.84,1,Simon Martinez,Taylor,74.3,224.53,142.88,208.65,576.06,Single-ply,SBD,M
Boys,74.84,2,Jordan Taylor #1,Waco La Vega,73.66,195.04,136.08,226.8,557.92,Single-ply,SBD,M
Boys,74.84,3,Julio Rodriguez,Venus,74.03,208.65,140.61,183.7,532.97,Single-ply,SBD,M
Boys,74.84,4,Damian Kozak,Groesbeck,72.39,199.58,120.2,199.58,519.36,Single-ply,SBD,M
Boys,74.84,5,Harley Patterson,Gatesville,70.4,204.12,104.33,204.12,512.56,Single-ply,SBD,M
Boys,74.84,6,Jose Hernandez #20,China Spring,71.76,167.83,122.47,204.12,494.42,Single-ply,SBD,M
Boys,74.84,7,Xavier Franklin,Navasota,73.39,165.56,104.33,208.65,478.54,Single-ply,SBD,M
Boys,74.84,DQ,Pedro Lopez,Hillsboro,70.94,,,,,Single-ply,SBD,M
Boys,74.84,DQ,Collin Cresson,Lorena,72.57,,,,,Single-ply,SBD,M
Boys,82.1,1,Nelson Scott,Caldwell,79.65,226.8,136.08,233.6,596.47,Single-ply,SBD,M
Boys,82.1,2,Jathan Craig,Burnet,79.92,215.46,163.29,215.46,594.21,Single-ply,SBD,M
Boys,82.1,3,Tyler McCoy,Giddings,77.75,224.53,145.15,217.72,587.4,Single-ply,SBD,M
Boys,82.1,4,Michael Armstrong,China Spring,80.92,226.8,138.35,222.26,587.4,Single-ply,SBD,M
Boys,82.1,5,Dillon Ferguson,Burnet,76.84,226.8,140.61,195.04,562.45,Single-ply,SBD,M
Boys,82.1,6,Ty Caruso,Robinson,80.83,199.58,149.69,188.24,537.51,Single-ply,SBD,M
Boys,82.1,7,Barron Montgomery,Hillsboro,81.37,208.65,131.54,195.04,535.24,Single-ply,SBD,M
Boys,82.1,8,Martin Balderas,Groesbeck,81.56,213.19,117.93,201.85,532.97,Single-ply,SBD,M
Boys,82.1,9,Chandler Snodgrass,Lorena,79.11,215.46,113.4,197.31,526.17,Single-ply,SBD,M
Boys,89.81,1,Colby Wollin,Giddings,86.36,283.5,167.83,276.69,728.02,Single-ply,SBD,M
Boys,89.81,2,Chris McFarlin,Taylor,85.82,265.35,170.1,242.67,678.12,Single-ply,SBD,M
Boys,89.81,3,Daniel Johnston,Alvarado,88.27,238.14,156.49,240.4,635.03,Single-ply,SBD,M
Boys,99.79,4,Trent Meckel,Caldwell,89.99,249.48,147.42,215.46,612.35,Single-ply,SBD,M
Boys,89.81,5,Michael Martin,China Spring,87.72,215.46,136.08,235.87,587.4,Single-ply,SBD,M
Boys,89.81,6,Ricardo Aguilar,Navasota,87.45,238.14,127.01,219.99,585.13,Single-ply,SBD,M
Boys,89.81,7,Juan Nunez,Navasota,85.46,222.26,140.61,185.97,548.85,Single-ply,SBD,M
Boys,89.81,8,Matt Perkins,Waco Connally,85.91,219.99,111.13,215.46,546.58,Single-ply,SBD,M
Boys,89.81,9,Sean Willis,Glen Rose,87.82,185.97,124.74,233.6,544.31,Single-ply,SBD,M
Boys,99.79,1,Kelbie Stifflemire,Taylor,95.53,278.96,165.56,244.94,689.46,Single-ply,SBD,M
Boys,99.79,2,Edward Barrera,Taylor,98.25,308.44,142.88,217.72,669.05,Single-ply,SBD,M
Boys,99.79,3,Rodney Brown,Navasota,95.07,258.55,158.76,249.48,666.78,Single-ply,SBD,M
Boys,99.79,4,Jimmy Johnson,Glen Rose,97.89,249.48,154.22,215.46,619.15,Single-ply,SBD,M
Boys,99.79,5,Nathan Mallard,Navasota,93.98,238.14,113.4,226.8,578.33,Single-ply,SBD,M
Boys,99.79,6,Matt Meador,Gatesville,93.44,208.65,127.01,226.8,562.45,Single-ply,SBD,M
Boys,99.79,7,Parker Hamm,China Spring,92.26,192.78,147.42,208.65,548.85,Single-ply,SBD,M
Boys,99.79,8,Patrick Martin,China Spring,95.89,206.38,138.35,199.58,544.31,Single-ply,SBD,M
Boys,99.79,DQ,Jacorey Lincoln,Smithville,95.62,251.74,158.76,,,Single-ply,SBD,M
Boys,99.79,DQ,Justin Crow,Waco Connally,91.44,,,,,Single-ply,SBD,M
Boys,109.77,1,Morgan Hohle,Giddings,104.96,267.62,161.03,235.87,664.51,Single-ply,SBD,M
Boys,109.77,2,Zack Kelly,Caldwell,108.59,254.01,158.76,238.14,650.91,Single-ply,SBD,M
Boys,109.77,3,Alex Wallace,Burnet,108.05,249.48,129.27,254.01,632.76,Single-ply,SBD,M
Boys,124.74,4,Andres Lara,Mexia,109.86,267.62,133.81,208.65,610.08,Single-ply,SBD,M
Boys,109.77,5,Autra Maxey,Navasota,106.41,258.55,108.86,226.8,594.21,Single-ply,SBD,M
Boys,109.77,6,Cruz Rodríguez,Navasota,100.97,226.8,120.2,226.8,573.79,Single-ply,SBD,M
Boys,124.74,7,Austin Pierce,Waco Connally,109.86,251.74,129.27,192.78,573.79,Single-ply,SBD,M
Boys,109.77,8,Richard Ginsberg,Burnet,105.14,215.46,136.08,192.78,544.31,Single-ply,SBD,M
Boys,109.77,9,Nick Mackay,Gatesville,100.97,217.72,136.08,188.24,542.04,Single-ply,SBD,M
Boys,109.77,DQ,Josh Smitherman,Cameron Yoe,100.24,199.58,120.2,,,Single-ply,SBD,M
Boys,109.77,DQ,Dylan Alligood,West,100.7,215.46,138.35,,,Single-ply,SBD,M
Boys,124.74,1,Brieon Brown,Smithville,119.02,310.71,183.7,276.69,771.11,Single-ply,SBD,M
Boys,124.74,2,Josh Holt,Lorena,122.65,292.57,161.03,278.96,732.55,Single-ply,SBD,M
Boys,124.74,3,Tyler Klander,West,115.48,292.57,151.95,258.55,703.07,Single-ply,SBD,M
Boys,124.74,4,Scott McDuffie,Navasota,123.56,247.21,136.08,226.8,610.08,Single-ply,SBD,M
Boys,124.74,5,John Burgan,Gatesville,118.21,229.06,142.88,231.33,603.28,Single-ply,SBD,M
Boys,124.74,6,Jake Glasscock,Alvarado,111.31,238.14,142.88,217.72,598.74,Single-ply,SBD,M
Boys,124.74,7,Joseph Holder,West,117.3,240.4,149.69,201.85,591.94,Single-ply,SBD,M
Boys,124.74,8,Khiry Hart,Waco La Vega,117.21,210.92,138.35,217.72,566.99,Single-ply,SBD,M
Boys,124.74,9,Zac Perez,Glen Rose,116.12,244.94,131.54,170.1,546.58,Single-ply,SBD,M
Boys,124.74,DQ,Tony Barraza,Groesbeck,117.93,242.67,120.2,,,Single-ply,SBD,M
Boys,124.74+,1,Ed Jones,Waco La Vega,142.7,294.84,201.85,272.16,768.84,Single-ply,SBD,M
Boys,124.74+,2,Dewon Davis,Navasota,126.01,299.37,167.83,269.89,737.09,Single-ply,SBD,M
Boys,124.74+,3,Cedric Collins,Navasota,131,294.84,176.9,217.72,689.46,Single-ply,SBD,M
Boys,124.74+,4,Jacob Bohannon,Navasota,126.46,254.01,154.22,226.8,635.03,Single-ply,SBD,M
Boys,124.74+,5,Lance Adkins,West,139.43,238.14,149.69,242.67,630.49,Single-ply,SBD,M
Boys,124.74+,6,Garrett Boyd,China Spring,147.24,233.6,156.49,215.46,605.55,Single-ply,SBD,M
Boys,124.74+,7,Jonathon Mendoza,Cameron Yoe,143.88,238.14,136.08,199.58,573.79,Single-ply,SBD,M
Boys,124.74+,DQ,Josh Kapchinski,Bryan Rudder,164.65,272.16,145.15,,,Single-ply,SBD,M
Boys,124.74+,DQ,Brandon Allen #2,Mexia,145.51,272.16,140.61,,,Single-ply,SBD,M
