Division,WeightClassKg,Place,Name,Team,BodyweightKg,Best3SquatKg,Best3BenchKg,Best3DeadliftKg,TotalKg,Equipment,Event,Sex,BirthDate
Girls,44.23,1,Sadey Paniagua,Crawford,42.55,90.72,38.56,92.99,222.26,Single-ply,SBD,F,
Girls,44.23,2,Carli Evans,McGregor,43.36,70.31,31.75,31.75,133.81,Single-ply,SBD,F,
Girls,47.85,1,Kealey Witt,Crawford,47.81,131.54,79.38,106.59,317.51,Single-ply,SBD,F,
Girls,47.85,2,Katelyn Hunt,Clifton,47.17,90.72,40.82,113.4,244.94,Single-ply,SBD,F,
Girls,47.85,3,Sarah Slater,Clifton,47.81,79.38,36.29,95.25,210.92,Single-ply,SBD,F,
Girls,47.85,4,Baylee Hall,West,47.81,79.38,40.82,83.91,204.12,Single-ply,SBD,F,
Girls,47.85,5,Kennadi Witt,Crawford,45,79.38,34.02,68.04,181.44,Single-ply,SBD,F,
Girls,51.94,1,Kylee Schroeder-Howard,West,50.35,129.27,63.5,120.2,312.98,Single-ply,SBD,F,
Girls,51.94,2,Reece Griffin,West,51.35,124.74,56.7,131.54,312.98,Single-ply,SBD,F,
Girls,51.94,3,Chloe Polansky,West,50.35,88.45,38.56,88.45,215.46,Single-ply,SBD,F,
Girls,51.94,4,Sally Love,Crawford,51.8,77.11,49.9,86.18,213.19,Single-ply,SBD,F,
Girls,51.94,5,Nelimar Melean,Crawford,48.53,65.77,34.02,74.84,174.63,Single-ply,SBD,F,
Girls,51.94,6,Hannah Olson,Bosqueville,49.9,54.43,40.82,65.77,161.03,Single-ply,SBD,F,
Girls,51.94,7,Josie Aviles,McGregor,50.98,61.23,36.29,61.23,158.76,Single-ply,SBD,F,
Girls,56.02,1,Elizabeth Schiller,Rogers,54.07,86.18,49.9,108.86,244.94,Single-ply,SBD,F,
Girls,56.02,2,Kambrie Kettler,Clifton,54.52,79.38,45.36,108.86,233.6,Single-ply,SBD,F,
Girls,56.02,3,Paige Franks,McGregor,54.16,86.18,45.36,92.99,224.53,Single-ply,SBD,F,
Girls,56.02,4,Caroline Janek,West,55.07,77.11,45.36,86.18,208.65,Single-ply,SBD,F,
Girls,56.02,5,Alyna Figueroa,Crawford,54.43,74.84,36.29,77.11,188.24,Single-ply,SBD,F,
Girls,56.02,6,Briseila O'Campo,McGregor,52.44,77.11,34.02,72.57,183.7,Single-ply,SBD,F,
Girls,56.02,7,Trinity Vidrine,West,54.34,,56.7,120.2,176.9,Single-ply,BD,F,
Girls,56.02,8,Abigail Salinas,Itasca,55.16,70.31,34.02,,104.33,Single-ply,SB,F,
Girls,60.1,1,Sutton Finney,Clifton,59.51,124.74,74.84,127.01,326.59,Single-ply,SBD,F,
Girls,60.1,2,Regan Brooks,Clifton,59.51,102.06,40.82,106.59,249.48,Single-ply,SBD,F,
Girls,60.1,3,Annabelle Kuehl,Bosqueville,60.1,61.23,45.36,72.57,179.17,Single-ply,SBD,F,
Girls,60.1,4,Vanessa Molnar,Itasca,56.25,79.38,,95.25,174.63,Single-ply,SD,F,
Girls,60.1,5,Katie Miller,McGregor,56.88,63.5,29.48,72.57,165.56,Single-ply,SBD,F,
Girls,60.1,6,Ella Ralston,Bosqueville,60.06,,29.48,,29.48,Single-ply,B,F,
Girls,67.36,1,Hunter Klish,West,66.95,149.69,83.91,129.27,362.87,Single-ply,SBD,F,
Girls,67.36,2,Maddie Burk,Clifton,65.41,113.4,52.16,136.08,301.64,Single-ply,SBD,F,
Girls,67.36,3,Chloe Kaluza,West,62.41,108.86,58.97,113.4,281.23,Single-ply,SBD,F,
Girls,67.36,4,Regan Roscher,Bosqueville,62.32,97.52,70.31,102.06,269.89,Single-ply,SBD,F,
Girls,67.36,5,Hannah Boettcher,Waco Reicher Catholic,64.77,79.38,65.77,102.06,247.21,Single-ply,SBD,F,
Girls,67.36,6,Riley Valles,Bosqueville,65.14,74.84,63.5,104.33,242.67,Single-ply,SBD,F,
Girls,67.36,7,Beatrice Lanci,McGregor,62.51,86.18,52.16,92.99,231.33,Single-ply,SBD,F,
Girls,67.36,8,Alyssa Botello,Itasca,67.04,81.65,38.56,99.79,219.99,Single-ply,SBD,F,
Girls,67.36,9,Ilani Benitez,McGregor,63.59,70.31,29.48,81.65,181.44,Single-ply,SBD,F,
Girls,67.36,10,Kasidy Hood,Bosqueville,66.77,83.91,,83.91,167.83,Single-ply,SD,F,
Girls,75.07,1,Caieleigh D'Angelo,Crawford,68.22,151.95,72.57,136.08,360.61,Single-ply,SBD,F,
Girls,75.07,2,Grace Countryman,Clifton,70.4,131.54,61.23,138.35,331.12,Single-ply,SBD,F,
Girls,75.07,3,Trinati Montes,West,71.67,122.47,58.97,122.47,303.91,Single-ply,SBD,F,
Girls,75.07,4,Jozelyn Esquivel,West,68.58,106.59,56.7,117.93,281.23,Single-ply,SBD,F,
Girls,75.07,5,Hannah Hlavenka,West,73.3,102.06,61.23,115.67,278.96,Single-ply,SBD,F,
Girls,75.07,6,Kynli Bearden,Clifton,74.93,92.99,52.16,106.59,251.74,Single-ply,SBD,F,
Girls,75.07,7,Daniela Chavez,Itasca,70.76,81.65,40.82,102.06,224.53,Single-ply,SBD,F,
Girls,75.07,8,Britt McElyea,Waco Reicher Catholic,70.03,74.84,43.09,90.72,208.65,Single-ply,SBD,F,
Girls,75.07,9,Emma Robertson,Bosqueville,67.68,74.84,47.63,83.91,206.38,Single-ply,SBD,F,
Girls,82.33,1,Kamryn Kettler,Clifton,82.01,154.22,61.23,170.1,385.55,Single-ply,SBD,F,
Girls,82.33,2,Jenna Maler,West,78.2,142.88,81.65,117.93,342.46,Single-ply,SBD,F,
Girls,82.33,3,Estrella Campos,Rogers,79.92,131.54,68.04,131.54,331.12,Single-ply,SBD,F,
Girls,82.33,4,Destany Serrato,Bosqueville,77.2,90.72,63.5,99.79,254.01,Single-ply,SBD,F,
Girls,82.33,5,Josephine Burke,Clifton,79.02,92.99,47.63,108.86,249.48,Single-ply,SBD,F,
Girls,82.33,6,Maci Smelscer,Bosqueville,79.47,95.25,47.63,99.79,242.67,Single-ply,SBD,F,
Girls,82.33,7,Micah Robertson,McGregor,78.93,83.91,,106.59,190.51,Single-ply,SD,F,
Girls,90.04,1,Shelby Bruggman,Rogers,84.64,131.54,88.45,138.35,358.34,Single-ply,SBD,F,
Girls,90.04,2,Beth Ann McMillan,Clifton,88.9,113.4,63.5,122.47,299.37,Single-ply,SBD,F,
Girls,90.04,3,Erica Ivey,Crawford,88.81,108.86,74.84,102.06,285.76,Single-ply,SBD,F,
Girls,90.04,4,Liz Fowler,Bosqueville,86.82,95.25,52.16,99.79,247.21,Single-ply,SBD,F,
Girls,90.04,5,Hannah Abel,Clifton,82.92,92.99,40.82,92.99,226.8,Single-ply,SBD,F,
Girls,90.04,6,Laila Bermudez,Crawford,83.73,,61.23,124.74,185.97,Single-ply,BD,F,
Girls,90.04,7,Adi Poston,Valley Mills,86.73,52.16,49.9,83.91,185.97,Single-ply,SBD,F,
Girls,100.02,1,Cheyenne McDonald,McGregor,92.99,106.59,74.84,120.2,301.64,Single-ply,SBD,F,
Girls,100.02,2,Leslie Alvarez,McGregor,97.25,111.13,56.7,120.2,288.03,Single-ply,SBD,F,
Girls,100.02,3,Bri Hapenney,Waco Reicher Catholic,97.43,90.72,49.9,115.67,256.28,Single-ply,SBD,F,
Girls,117.71,1,Jessica Aleman,Valley Mills,103.51,88.45,52.16,95.25,235.87,Single-ply,SBD,F,
Girls,117.71,2,AvaGrace Warner,Valley Mills,112.04,61.23,43.09,88.45,192.78,Single-ply,SBD,F,
Girls,117.71+,1,Aubry Carr,Rogers,138.8,206.38,113.4,158.76,478.54,Single-ply,SBD,F,
Girls,117.71+,2,Madison Walker,Bosqueville,141.52,113.4,61.23,104.33,278.96,Single-ply,SBD,F,
