Division,WeightClassKg,Place,Name,Team,BodyweightKg,Best3SquatKg,Best3BenchKg,Best3DeadliftKg,TotalKg,Equipment,Event,Sex,BirthDate
Boys,51.71,1,Kirkland Cobb,White Oak,51.53,145.15,74.84,136.08,356.07,Single-ply,SBD,M,
Boys,55.79,1,Kyler Snell,Grapeland,53.98,113.4,65.77,113.4,292.57,Single-ply,SBD,M,
Boys,55.79,2,Zane Decker,Longview Spring Hill,54.34,95.25,52.16,102.06,249.48,Single-ply,SBD,M,
Boys,59.87,1,Omar Saenz,Winona,56.88,151.95,88.45,165.56,405.97,Single-ply,SBD,M,
Boys,59.87,2,Quentin Harmon,Tatum,56.61,147.42,81.65,124.74,353.8,Single-ply,SBD,M,
Boys,59.87,3,Jayden Williams,Tatum,57.7,127.01,77.11,147.42,351.53,Single-ply,SBD,M,
Boys,67.13,1,Jesse Pratt,White Oak,65.77,165.56,86.18,158.76,410.5,Single-ply,SBD,M,
Boys,67.13,2,Walker Soop,Winona,62.6,147.42,92.99,147.42,387.82,Single-ply,SBD,M,
Boys,67.13,3,Hayden Dyess,Rusk,65.41,138.35,74.84,147.42,360.61,Single-ply,SBD,M,
Boys,67.13,4,Rene Flores,Tatum,65.32,113.4,74.84,142.88,331.12,Single-ply,SBD,M,
Boys,67.13,DQ,Ben Chesley,Winona,63.59,138.35,72.57,,,Single-ply,SBD,M,
Boys,74.84,1,Camdon Hudnal,Rusk,73.75,172.37,108.86,192.78,474,Single-ply,SBD,M,
Boys,74.84,2,Holden Hodges,White Oak,73.94,176.9,90.72,181.44,449.06,Single-ply,SBD,M,
Boys,74.84,3,Elijah Bergin,Winona,68.76,158.76,81.65,179.17,419.57,Single-ply,SBD,M,
Boys,74.84,4,Moody Files,Grapeland,69.04,149.69,86.18,158.76,394.63,Single-ply,SBD,M,
Boys,74.84,5,Abraham Rosales,Rusk,72.67,142.88,97.52,138.35,378.75,Single-ply,SBD,M,
Boys,74.84,6,Jimmy Booth,Longview Spring Hill,70.13,136.08,74.84,147.42,358.34,Single-ply,SBD,M,
Boys,74.84,7,Cj Kimble,Winona,70.94,133.81,63.5,145.15,342.46,Single-ply,SBD,M,
Boys,74.84,8,Trinity Miller,Grapeland,71.4,113.4,63.5,142.88,319.78,Single-ply,SBD,M,
Boys,74.84,9,Logan Mills,Longview Spring Hill,71.76,90.72,56.7,136.08,283.5,Single-ply,SBD,M,
Boys,74.84,DQ,Carson Levee,Winona,70.49,183.7,,,,Single-ply,SBD,M,
Boys,82.1,1,Colton Goettle,Longview Spring Hill,77.02,190.51,122.47,192.78,505.76,Single-ply,SBD,M,
Boys,82.1,2,Rylan Freeman,Tatum,80.65,181.44,113.4,181.44,476.27,Single-ply,SBD,M,
Boys,82.1,3,Nick Calhoun,Tatum,75.66,174.63,106.59,176.9,458.13,Single-ply,SBD,M,
Boys,82.1,4,Logan Smith,White Oak,81.83,158.76,124.74,142.88,426.38,Single-ply,SBD,M,
Boys,82.1,5,Joshua Arredondo,Rusk,79.74,158.76,95.25,165.56,419.57,Single-ply,SBD,M,
Boys,82.1,6,Kade Holder,Tatum,75.02,151.95,90.72,165.56,408.23,Single-ply,SBD,M,
Boys,82.1,7,Nic Rea,Grapeland,78.38,154.22,74.84,154.22,383.29,Single-ply,SBD,M,
Boys,82.1,8,John Kwak,Rusk,77.66,147.42,86.18,147.42,381.02,Single-ply,SBD,M,
Boys,82.1,9,Wyatt Lewis,Grapeland,77.93,136.08,68.04,172.37,376.48,Single-ply,SBD,M,
Boys,89.81,1,Esteban Munoz,Winona,86.45,215.46,131.54,206.38,553.38,Single-ply,SBD,M,
Boys,89.81,2,Bayne Brinkman,Longview Spring Hill,89.81,172.37,106.59,199.58,478.54,Single-ply,SBD,M,
Boys,89.81,3,David Kennedy,Rusk,87.18,167.83,99.79,183.7,451.32,Single-ply,SBD,M,
Boys,89.81,4,Preston Arnold,Rusk,82.37,158.76,90.72,192.78,442.25,Single-ply,SBD,M,
Boys,89.81,5,Xavier Cook,Tatum,83.91,136.08,83.91,145.15,365.14,Single-ply,SBD,M,
Boys,89.81,6,Joseph Simpson,Longview Spring Hill,84.19,92.99,47.63,120.2,260.82,Single-ply,SBD,M,
Boys,99.79,1,Manny Garcia,Winona,92.08,181.44,108.86,204.12,494.42,Single-ply,SBD,M,
Boys,99.79,2,Brandon Krenek,Longview Spring Hill,91.81,204.12,117.93,170.1,492.15,Single-ply,SBD,M,
Boys,99.79,3,Demarquay Ford,Winona,90.72,185.97,117.93,185.97,489.88,Single-ply,SBD,M,
Boys,99.79,4,Camron Feliiciano,Longview Spring Hill,93.53,199.58,108.86,181.44,489.88,Single-ply,SBD,M,
Boys,99.79,5,Jesus Revoloso,Tatum,95.62,161.03,97.52,170.1,428.64,Single-ply,SBD,M,
Boys,99.79,6,Gabe Martinez,Grapeland,94.98,176.9,77.11,151.95,405.97,Single-ply,SBD,M,
Boys,99.79,7,Clint Jones,Tatum,94.62,158.76,88.45,142.88,390.09,Single-ply,SBD,M,
Boys,99.79,8,Sam Bell,Rusk,97.25,145.15,79.38,151.95,376.48,Single-ply,SBD,M,
Boys,99.79,9,Gabe Rangel,Grapeland,98.52,136.08,52.16,124.74,312.98,Single-ply,SBD,M,
Boys,109.77,1,Leo Garcia,Grapeland,101.15,197.31,83.91,181.44,462.66,Single-ply,SBD,M,
Boys,109.77,2,Joseph Barrera,Winona,105.51,163.29,92.99,170.1,426.38,Single-ply,SBD,M,
Boys,109.77,3,Kaden Ramo,Longview Spring Hill,100.33,158.76,88.45,170.1,417.3,Single-ply,SBD,M,
Boys,109.77,4,Ethan Whyte,Longview Spring Hill,103.96,163.29,86.18,149.69,399.16,Single-ply,SBD,M,
Boys,109.77,5,Cameron Taylor,Grapeland,102.42,149.69,79.38,158.76,387.82,Single-ply,SBD,M,
Boys,124.74,1,Jacob Kimbrough,Longview Spring Hill,118.93,263.08,145.15,226.8,635.03,Single-ply,SBD,M,
Boys,124.74,2,Jj Barrera,Winona,122.11,226.8,115.67,208.65,551.11,Single-ply,SBD,M,
Boys,124.74,3,Tony Natera,Longview Spring Hill,116.21,204.12,104.33,204.12,512.56,Single-ply,SBD,M,
Boys,124.74,4,Colton Wilson,Omaha Pewitt,114.58,181.44,97.52,158.76,437.72,Single-ply,SBD,M,
Boys,124.74,5,Rane McCullom,Omaha Pewitt,124.1,170.1,83.91,181.44,435.45,Single-ply,SBD,M,
Boys,124.74,6,Ryan Owens,White Oak,110.77,147.42,90.72,163.29,401.43,Single-ply,SBD,M,
Boys,124.74,7,Michael Buckley,Longview Spring Hill,111.67,142.88,68.04,142.88,353.8,Single-ply,SBD,M,
Boys,139.71,1,Jason DeCluette,Grapeland,138.16,201.85,113.4,190.51,505.76,Single-ply,SBD,M,
Boys,139.71,2,Brayden Brawner,Rusk,137.62,190.51,106.59,172.37,469.47,Single-ply,SBD,M,
Boys,139.71+,1,Fernando Rodriguez,Winona,142.88,181.44,106.59,181.44,469.47,Single-ply,SBD,M,
Boys,,NS,Colby Long,Winona,,,,,,Single-ply,SBD,M,
Boys,,NS,Rylie Redden,White Oak,,,,,,Single-ply,SBD,M,
Boys,,NS,Dalton Morgan,White Oak,,,,,,Single-ply,SBD,M,
Boys,,NS,Jeremiah Lawson,Tatum,,,,,,Single-ply,SBD,M,
Boys,,NS,Cj Fite,Tatum,,,,,,Single-ply,SBD,M,
Boys,,NS,Jesse Pratl,White Oak,,,,,,Single-ply,SBD,M,
Boys,,NS,Chris Lawson,Rusk,,,,,,Single-ply,SBD,M,
Boys,,NS,Quay Avenger,Omaha Pewitt,,,,,,Single-ply,SBD,M,
Boys,,NS,Orion Green,Grapeland,,,,,,Single-ply,SBD,M,
