Division,WeightClassKg,Place,Name,Team,BodyweightKg,Best3SquatKg,Best3BenchKg,Best3DeadliftKg,TotalKg,Equipment,Event,Sex,BirthDate
Girls,44.23,1,Hannah Smith,Quitman,44,40.82,29.48,45.36,115.67,Single-ply,SBD,F,
Girls,47.85,1,Katie Garner,Winnsboro,47.36,83.91,40.82,102.06,226.8,Single-ply,SBD,F,
Girls,51.94,1,Skylar Flores,Quitman,51.26,83.91,43.09,83.91,210.92,Single-ply,SBD,F,
Girls,51.94,2,Cristal Plata,Quitman,50.35,79.38,34.02,90.72,204.12,Single-ply,SBD,F,
Girls,51.94,3,Rhiana Bradshaw,Quitman,50.35,70.31,34.02,83.91,188.24,Single-ply,SBD,F,
Girls,56.02,1,Haven Benge,Ore City,55.79,115.67,54.43,117.93,288.03,Single-ply,SBD,F,
Girls,56.02,2,Jaylee Bennett,Winnsboro,55.97,102.06,61.23,111.13,274.42,Single-ply,SBD,F,
Girls,56.02,3,Brandi Stuckey,Ore City,54.16,90.72,40.82,92.99,224.53,Single-ply,SBD,F,
Girls,56.02,4,Caitlyn Elliott,Quitman,54.88,70.31,31.75,95.25,197.31,Single-ply,SBD,F,
Girls,60.1,1,Angel Barton,Winnsboro,59.96,97.52,58.97,102.06,258.55,Single-ply,SBD,F,
Girls,60.1,2,Haley Benge,Ore City,59.33,99.79,40.82,102.06,242.67,Single-ply,SBD,F,
Girls,60.1,3,Helena Bautista-Mathias,Quitman,59.42,61.23,49.9,88.45,199.58,Single-ply,SBD,F,
Girls,60.1,DQ,Meagon Fritz,Winnsboro,59.69,83.91,,,,Single-ply,SBD,F,
Girls,67.36,1,Gyselle Santoy,Winnsboro,62.6,124.74,74.84,136.08,335.66,Single-ply,SBD,F,
Girls,67.36,2,Raeleigh Ruleson,Winnsboro,63.14,106.59,56.7,102.06,265.35,Single-ply,SBD,F,
Girls,75.07,DQ,Nicole Engebos,Winnsboro,68.04,92.99,,,,Single-ply,SBD,F,
Girls,82.33,1,Bailey Hughes,Quitman,80.29,145.15,79.38,140.61,365.14,Single-ply,SBD,F,
Girls,82.33,2,Sofia Tannebaum,Quitman,78.47,88.45,38.56,102.06,229.06,Single-ply,SBD,F,
Girls,82.33,3,Mia Hoon,Winnsboro,80.51,83.91,43.09,97.52,224.53,Single-ply,SBD,F,
Girls,82.33,4,Haley Robbins,Winnsboro,81.65,83.91,40.82,88.45,213.19,Single-ply,SBD,F,
Girls,90.04,1,Skylar DeLa Rosa,Winnsboro,85.28,124.74,47.63,129.27,301.64,Single-ply,SBD,F,
Girls,90.04,2,Imelda Cervantes,Winnsboro,83.23,88.45,40.82,90.72,219.99,Single-ply,SBD,F,
Girls,117.71+,DQ,Haleigh Herrington,Winnsboro,124.56,156.49,,,,Single-ply,SBD,F,
