Division,WeightClassKg,Place,Name,Team,BodyweightKg,Best3SquatKg,Best3BenchKg,Best3DeadliftKg,TotalKg,Equipment,Event,Sex,BirthDate
Girls,67.36,DQ,Alejandra Rodriguez,Brownsville Rivera,63.5,,,,,Single-ply,SBD,F,
Girls,90.04,1,Alexis Rodriguez,Brownsville Porter,88.99,158.76,79.38,142.88,381.02,Single-ply,SBD,F,
Girls,100.02,1,Allyson Gil,Brownsville Porter,99.06,133.81,79.38,122.47,335.66,Single-ply,SBD,F,
Girls,117.71,DQ,Ruth Curly,Brownsville Rivera,114.58,,,,,Single-ply,SBD,F,
Girls,117.71+,1,Aaliyah Prater,Brownsville Porter,125.55,179.17,83.91,147.42,410.5,Single-ply,SBD,F,
Girls,117.71+,2,Ginger Curely,Brownsville Rivera,121.02,142.88,72.57,129.27,344.73,Single-ply,SBD,F,
