Division,WeightClassKg,Place,Name,Team,BodyweightKg,Best3SquatKg,Best3BenchKg,Best3DeadliftKg,TotalKg,Equipment,Event,Sex
Boys,51.71,1,Jd Nino,West,51.57,142.88,74.84,129.27,347,Single-ply,SBD,M
Boys,51.71,2,Jonah Salazar,Robinson,51.71,115.67,61.23,124.74,301.64,Single-ply,SBD,M
Boys,51.71,3,Dustin Richardson,Lake Worth,51.53,111.13,49.9,136.08,297.1,Single-ply,SBD,M
Boys,51.71,4,Chris Fehlman,McGregor,47.17,108.86,54.43,120.2,283.5,Single-ply,SBD,M
Boys,51.71,5,Jonathan Lira,Meridian,48.81,102.06,54.43,117.93,274.42,Single-ply,SBD,M
Boys,51.71,6,Jermey Alaniz,Riesel,51.07,104.33,58.97,102.06,265.35,Single-ply,SBD,M
Boys,51.71,7,Joey Leavelle,Robinson,51.35,111.13,45.36,108.86,265.35,Single-ply,SBD,M
Boys,51.71,8,Austin Mueller,China Spring,47.26,86.18,43.09,111.13,240.4,Single-ply,SBD,M
Boys,51.71,9,Morgan Hudson,China Spring,51.26,74.84,40.82,95.25,210.92,Single-ply,SBD,M
Boys,51.71,10,Lucas Price,Moody,42.37,68.04,31.75,83.91,183.7,Single-ply,SBD,M
Boys,51.71,11,Sam McKever,Groesbeck,51.71,61.23,36.29,72.57,170.1,Single-ply,SBD,M
Boys,55.79,1,Andrew Knight,Robinson,55.61,172.37,86.18,170.1,428.64,Single-ply,SBD,M
Boys,55.79,2,Tommy Alford,West,54.98,156.49,88.45,154.22,399.16,Single-ply,SBD,M
Boys,55.79,3,David Marez,Mexia,55.52,149.69,70.31,156.49,376.48,Single-ply,SBD,M
Boys,55.79,4,Marcus Mendoza,Salado,55.61,142.88,83.91,142.88,369.68,Single-ply,SBD,M
Boys,55.79,5,Dakota Thomas,Clifton,55.16,115.67,65.77,140.61,322.05,Single-ply,SBD,M
Boys,55.79,6,Ivan Marez,Mexia,53.52,120.2,65.77,131.54,317.51,Single-ply,SBD,M
Boys,55.79,7,Aron Fraire,Salado,54.7,129.27,63.5,124.74,317.51,Single-ply,SBD,M
Boys,59.87,8,Bill Neabors,Waco La Vega,55.97,111.13,65.77,133.81,310.71,Single-ply,SBD,M
Boys,55.79,9,Steven Foster,Riesel,54.34,124.74,63.5,117.93,306.17,Single-ply,SBD,M
Boys,55.79,10,Jose Rodriguez,Lake Worth,55.34,108.86,65.77,129.27,303.91,Single-ply,SBD,M
Boys,55.79,11,Chris Sheffield,China Spring,55.34,104.33,54.43,115.67,274.42,Single-ply,SBD,M
Boys,59.87,1,Pedro Lozano,Bosqueville,59.06,213.19,108.86,188.24,510.29,Single-ply,SBD,M
Boys,67.13,2,Dustin Gray,Lake Worth,60.06,183.7,74.84,208.65,467.2,Single-ply,SBD,M
Boys,67.13,3,Jesus Jaimes,Riesel,60.06,195.04,111.13,154.22,460.4,Single-ply,SBD,M
Boys,59.87,4,Alex Leos,Robinson,59.69,170.1,95.25,181.44,446.79,Single-ply,SBD,M
Boys,59.87,5,Steven McElyea,Meridian,59.87,147.42,79.38,154.22,381.02,Single-ply,SBD,M
Boys,67.13,6,Tyler Kaminski,Riesel,60.06,142.88,92.99,138.35,374.21,Single-ply,SBD,M
Boys,59.87,7,Lenny Rodriguez,West,58.79,151.95,70.31,140.61,362.87,Single-ply,SBD,M
Boys,67.13,8,Brandon Boron,Clifton,60.06,113.4,79.38,158.76,351.53,Single-ply,SBD,M
Boys,59.87,9,Josh Eoff,Meridian,57.61,140.61,68.04,136.08,344.73,Single-ply,SBD,M
Boys,59.87,10,Kylynn Martinez,Mexia,57.97,131.54,61.23,138.35,331.12,Single-ply,SBD,M
Boys,67.13,1,Tyrell Irby,Waco La Vega,66.41,235.87,131.54,251.74,619.15,Single-ply,SBD,M
Boys,67.13,2,Kyree Norman,Waco La Vega,65.95,235.87,111.13,235.87,582.87,Single-ply,SBD,M
Boys,67.13,3,Eric Wallace,Riesel,65.77,204.12,108.86,204.12,517.1,Single-ply,SBD,M
Boys,74.84,4,Edgar Vergara,Meridian,67.31,181.44,106.59,192.78,480.81,Single-ply,SBD,M
Boys,67.13,5,Nathan Kalil,China Spring,66.13,181.44,108.86,183.7,474,Single-ply,SBD,M
Boys,67.13,6,Jeremy Seay,Meridian,66.13,181.44,111.13,174.63,467.2,Single-ply,SBD,M
Boys,67.13,7,Chris Sosebee,Whitney,66.04,176.9,99.79,185.97,462.66,Single-ply,SBD,M
Boys,74.84,8,Drew Perry,Robinson,67.31,158.76,108.86,183.7,451.32,Single-ply,SBD,M
Boys,67.13,9,Steven Mitchell,Robinson,64.77,176.9,86.18,183.7,446.79,Single-ply,SBD,M
Boys,67.13,10,Joel Bennett,Lake Worth,65.5,163.29,86.18,192.78,442.25,Single-ply,SBD,M
Boys,67.13,11,Mark New,Clifton,63.96,172.37,86.18,179.17,437.72,Single-ply,SBD,M
Boys,67.13,12,Hai Vuong,Mexia,64.05,142.88,81.65,172.37,396.89,Single-ply,SBD,M
Boys,67.13,13,Rick Webb,Clifton,65.86,147.42,77.11,158.76,383.29,Single-ply,SBD,M
Boys,67.13,14,Ethan Smith,West,65.91,154.22,90.72,136.08,381.02,Single-ply,SBD,M
Boys,67.13,15,Garrett Harvey,Whitney,62.23,136.08,79.38,145.15,360.61,Single-ply,SBD,M
Boys,67.13,16,Jacob Fedler,McGregor,66.86,133.81,65.77,154.22,353.8,Single-ply,SBD,M
Boys,67.13,17,Cole Anderson,West,66.95,142.88,70.31,136.08,349.27,Single-ply,SBD,M
Boys,67.13,18,Caleb Hollingsworth,Grandview,66.13,136.08,68.04,136.08,340.19,Single-ply,SBD,M
Boys,74.84,1,Trent Stiles,Riesel,74.21,249.48,183.7,199.58,632.76,Single-ply,SBD,M
Boys,74.84,2,Jordan Taylor #1,Waco La Vega,74.57,208.65,136.08,229.06,573.79,Single-ply,SBD,M
Boys,74.84,3,Joel Rockmore,Lake Worth,74.57,208.65,120.2,204.12,532.97,Single-ply,SBD,M
Boys,74.84,4,Jermell Garrett,Whitney,67.68,201.85,104.33,213.19,519.36,Single-ply,SBD,M
Boys,74.84,5,Damian Kozak,Groesbeck,71.94,204.12,113.4,197.31,514.83,Single-ply,SBD,M
Boys,74.84,6,Jose Hernandez #20,China Spring,70.22,181.44,117.93,204.12,503.49,Single-ply,SBD,M
Boys,74.84,7,Corey Schroeder,Riesel,70.31,154.22,83.91,181.44,419.57,Single-ply,SBD,M
Boys,74.84,8,Zack Evans,Lake Worth,71.3,154.22,95.25,156.49,405.97,Single-ply,SBD,M
Boys,74.84,9,Colton McCoy,Groesbeck,74.3,158.76,90.72,149.69,399.16,Single-ply,SBD,M
Boys,82.1,10,Cole Goodrum,Salado,75.02,145.15,88.45,158.76,392.36,Single-ply,SBD,M
Boys,74.84,11,Zach Meador,West,74.71,145.15,90.72,154.22,390.09,Single-ply,SBD,M
Boys,74.84,12,Kyle Dean,Moody,72.94,138.35,79.38,161.03,378.75,Single-ply,SBD,M
Boys,74.84,13,Kelly Jimenez,Salado,68.4,142.88,83.91,136.08,362.87,Single-ply,SBD,M
Boys,74.84,14,Robert Woods,Bosqueville,68.04,127.01,65.77,136.08,328.85,Single-ply,SBD,M
Boys,74.84,DQ,Justin Harris #4,Meridian,73.21,117.93,,,,Single-ply,SBD,M
Boys,74.84,DQ,Chris Kunkel,West,74.53,,,,,Single-ply,SBD,M
Boys,82.1,1,Kevin Anderson,Meridian,78.29,226.8,124.74,238.14,589.67,Single-ply,SBD,M
Boys,89.81,2,Ali Cervantez,Riesel,82.28,224.53,127.01,199.58,551.11,Single-ply,SBD,M
Boys,82.1,3,Ty Caruso,Robinson,81.74,213.19,145.15,185.97,544.31,Single-ply,SBD,M
Boys,82.1,4,Martin Balderas,Groesbeck,80.1,201.85,111.13,197.31,510.29,Single-ply,SBD,M
Boys,82.1,5,Chris Garland,West,81.92,215.46,104.33,185.97,505.76,Single-ply,SBD,M
Boys,82.1,6,Jared McNamara,Moody,81.1,188.24,108.86,188.24,485.34,Single-ply,SBD,M
Boys,82.1,7,Felipe Gallegos,Lake Worth,77.11,167.83,99.79,185.97,453.59,Single-ply,SBD,M
Boys,82.1,8,John Pegues,Salado,80.2,170.1,104.33,167.83,442.25,Single-ply,SBD,M
Boys,82.1,9,Malik Hampton,Waco La Vega,78.47,154.22,79.38,158.76,392.36,Single-ply,SBD,M
Boys,82.1,10,Anthony Manolakis,West,81.47,147.42,79.38,158.76,385.55,Single-ply,SBD,M
Boys,82.1,11,John Almanza,Bosqueville,80.47,165.56,68.04,142.88,376.48,Single-ply,SBD,M
Boys,82.1,DQ,Bo Jackson,West,78.47,136.08,,,,Single-ply,SBD,M
Boys,89.81,1,Tyler Fadel,Riesel,89.36,226.8,147.42,204.12,578.33,Single-ply,SBD,M
Boys,89.81,2,Roy Rodriguez,Clifton,88.27,231.33,122.47,217.72,571.53,Single-ply,SBD,M
Boys,99.79,3,Spencer Heflin,Lake Worth,89.99,217.72,124.74,229.06,571.53,Single-ply,SBD,M
Boys,89.81,4,Broc Clay,Mart,87.09,215.46,113.4,204.12,532.97,Single-ply,SBD,M
Boys,89.81,5,Michael Sellers,Salado,88.63,210.92,131.54,190.51,532.97,Single-ply,SBD,M
Boys,89.81,6,Russel Neal,Groesbeck,84.37,192.78,117.93,204.12,514.83,Single-ply,SBD,M
Boys,89.81,7,Taylor Fox,McGregor,85.46,195.04,102.06,176.9,474,Single-ply,SBD,M
Boys,89.81,8,Trevon Hudson,Mexia,88.27,188.24,92.99,188.24,469.47,Single-ply,SBD,M
Boys,89.81,9,Brad Morrow,Clifton,88.18,167.83,88.45,208.65,464.93,Single-ply,SBD,M
Boys,89.81,10,Brandon Castillo,West,85.41,190.51,99.79,167.83,458.13,Single-ply,SBD,M
Boys,89.81,11,Stephen Boyle,Clifton,83.01,167.83,102.06,183.7,453.59,Single-ply,SBD,M
Boys,89.81,12,Dustin Shilling,McGregor,87.72,156.49,88.45,183.7,428.64,Single-ply,SBD,M
Boys,89.81,13,Eddie Botello,West,89.09,147.42,72.57,151.95,371.95,Single-ply,SBD,M
Boys,89.81,14,Clayton Orman,West,89.77,111.13,63.5,113.4,288.03,Single-ply,SBD,M
Boys,89.81,DQ,Casey Baugh,West,82.6,176.9,106.59,,,Single-ply,SBD,M
Boys,89.81,DQ,Diontre Oliver,Mexia,88.27,192.78,99.79,,,Single-ply,SBD,M
Boys,89.81,DQ,Dakota Park,Bosqueville,89.81,208.65,,,,Single-ply,SBD,M
Boys,99.79,1,Josh Montgomery,Bosqueville,99.16,301.64,145.15,256.28,703.07,Single-ply,SBD,M
Boys,99.79,2,Dalton Bynum,Clifton,94.8,204.12,154.22,231.33,589.67,Single-ply,SBD,M
Boys,99.79,3,Jacob McNamara,Moody,98.25,249.48,136.08,195.04,580.6,Single-ply,SBD,M
Boys,99.79,4,Parker Hamm,China Spring,94.44,201.85,147.42,206.38,555.65,Single-ply,SBD,M
Boys,99.79,5,Patrick Martin,China Spring,96.98,213.19,138.35,195.04,546.58,Single-ply,SBD,M
Boys,99.79,6,Garret Uptmore,West,95.07,190.51,145.15,192.78,528.44,Single-ply,SBD,M
Boys,99.79,7,Justin Stocks,Robinson,97.89,204.12,138.35,185.97,528.44,Single-ply,SBD,M
Boys,99.79,8,Chris Dimas,Lake Worth,98.61,188.24,127.01,213.19,528.44,Single-ply,SBD,M
Boys,99.79,9,Austin Brewer,Clifton,98.07,190.51,120.2,215.46,526.17,Single-ply,SBD,M
Boys,99.79,10,Jessie Barraza,Groesbeck,94.53,215.46,99.79,199.58,514.83,Single-ply,SBD,M
Boys,99.79,11,Dustin Westerfield,Waco La Vega,91.99,215.46,122.47,170.1,508.02,Single-ply,SBD,M
Boys,99.79,12,Mike Robinson,McGregor,99.25,210.92,115.67,181.44,508.02,Single-ply,SBD,M
Boys,99.79,13,Andrew Hill,McGregor,91.53,192.78,122.47,181.44,496.68,Single-ply,SBD,M
Boys,99.79,14,Hayden Houpt,Whitney,95.35,181.44,102.06,204.12,487.61,Single-ply,SBD,M
Boys,99.79,15,Billy Golding,Salado,97.43,181.44,115.67,181.44,478.54,Single-ply,SBD,M
Boys,99.79,16,Josh Carroll,Waco La Vega,91.99,183.7,102.06,190.51,476.27,Single-ply,SBD,M
Boys,99.79,17,Louis Melvin,West,95.25,113.4,70.31,113.4,297.1,Single-ply,SBD,M
Boys,99.79,DQ,Caleb Little,Salado,99.61,183.7,,,,Single-ply,SBD,M
Boys,109.77,1,Brett Blackburn,McGregor,100.24,263.08,163.29,260.82,687.19,Single-ply,SBD,M
Boys,109.77,2,Riley Hubert,Clifton,105.05,265.35,140.61,229.06,635.03,Single-ply,SBD,M
Boys,109.77,3,Scotty Allen,Meridian,105.51,226.8,145.15,226.8,598.74,Single-ply,SBD,M
Boys,109.77,4,Trevor Gardner,Lake Worth,106.78,238.14,142.88,217.72,598.74,Single-ply,SBD,M
Boys,124.74,5,Andres Lara,Mexia,109.95,260.82,127.01,204.12,591.94,Single-ply,SBD,M
Boys,109.77,6,Dylan Alligood,West,101.56,229.06,127.01,217.72,573.79,Single-ply,SBD,M
Boys,109.77,7,Casey Stripling,Riesel,109.41,217.72,147.42,192.78,557.92,Single-ply,SBD,M
Boys,109.77,8,Kolton Koch,West,101.6,208.65,102.06,206.38,517.1,Single-ply,SBD,M
Boys,109.77,9,Jacob Lockhart,China Spring,107.32,190.51,122.47,188.24,501.22,Single-ply,SBD,M
Boys,109.77,10,Bobby Golding,Salado,101.42,181.44,102.06,174.63,458.13,Single-ply,SBD,M
Boys,109.77,11,William Willis,Grandview,109.13,174.63,102.06,154.22,430.91,Single-ply,SBD,M
Boys,109.77,12,Cortlund Rice,Mexia,100.97,163.29,113.4,149.69,426.38,Single-ply,SBD,M
Boys,124.74,1,Jonathan Dimas,Lake Worth,121.2,285.76,174.63,249.48,709.87,Single-ply,SBD,M
Boys,124.74,2,Tyler Klander,West,113.9,299.37,145.15,254.01,698.53,Single-ply,SBD,M
Boys,124.74,3,Will Dreyer,Clifton,116.39,265.35,183.7,244.94,694,Single-ply,SBD,M
Boys,124.74,4,Ethan Langdell,Riesel,118.93,281.23,151.95,254.01,687.19,Single-ply,SBD,M
Boys,124.74,5,Caleb Hayslip,Salado,112.13,226.8,151.95,256.28,635.03,Single-ply,SBD,M
Boys,124.74,6,Tony Barraza,Groesbeck,117.39,251.74,115.67,215.46,582.87,Single-ply,SBD,M
Boys,124.74,7,Joseph Holder,West,112.94,240.4,136.08,199.58,576.06,Single-ply,SBD,M
Boys,124.74,8,Khiry Hart,Waco La Vega,123.1,231.33,133.81,201.85,566.99,Single-ply,SBD,M
Boys,124.74,9,Scott York #2,Robinson,124.1,217.72,147.42,192.78,557.92,Single-ply,SBD,M
Boys,124.74,10,Micheal Miller,Whitney,124.28,222.26,120.2,197.31,539.77,Single-ply,SBD,M
Boys,124.74,11,Treston Clark,Waco La Vega,119.2,213.19,117.93,199.58,530.7,Single-ply,SBD,M
Boys,124.74,12,Augie Hinojosa,Whitney,123.92,204.12,111.13,215.46,530.7,Single-ply,SBD,M
Boys,124.74,13,Brian Pullen,China Spring,124.74,206.38,108.86,192.78,508.02,Single-ply,SBD,M
Boys,124.74,14,David Scarborough,Grandview,121.47,192.78,120.2,192.78,505.76,Single-ply,SBD,M
Boys,124.74,15,David Romero,Whitney,119.57,172.37,95.25,158.76,426.38,Single-ply,SBD,M
Boys,124.74,16,Micheal Stevenson,Bosqueville,117.93,142.88,70.31,149.69,362.87,Single-ply,SBD,M
Boys,124.74,DQ,Brandon Heller,Salado,115.21,,,,,Single-ply,SBD,M
Boys,124.74,DQ,Andy McNew,Robinson,117.48,183.7,106.59,,,Single-ply,SBD,M
Boys,124.74+,1,Ed Jones,Waco La Vega,159.66,353.8,208.65,263.08,825.54,Single-ply,SBD,M
Boys,124.74+,2,Jesus Pinon,Meridian,125.46,263.08,185.97,254.01,703.07,Single-ply,SBD,M
Boys,124.74+,3,Lance Adkins,West,139.43,251.74,140.61,235.87,628.23,Single-ply,SBD,M
Boys,124.74+,4,Micheal Lesly,Whitney,141.88,263.08,108.86,217.72,589.67,Single-ply,SBD,M
Boys,124.74+,5,Garrett Boyd,China Spring,146.06,226.8,154.22,208.65,589.67,Single-ply,SBD,M
Boys,124.74+,6,Matt Bruce,China Spring,138.89,226.8,138.35,204.12,569.26,Single-ply,SBD,M
Boys,124.74+,7,Shane Murphy,Robinson,147.05,233.6,136.08,190.51,560.19,Single-ply,SBD,M
