Division,WeightClassKg,Place,Name,Team,BodyweightKg,Best3SquatKg,Best3BenchKg,Best3DeadliftKg,TotalKg,Equipment,Event,Sex,BirthDate
Boys,51.71,1,Eric Sanchez,Everman,51.17,102.06,70.31,138.35,310.71,Single-ply,SBD,M,
Boys,55.79,1,Angel Cabanas-Hung,Everman,54.07,136.08,77.11,136.08,349.27,Single-ply,SBD,M,
Boys,59.87,1,Dj Williams,Everman,58.69,190.51,97.52,188.24,476.27,Single-ply,SBD,M,
Boys,59.87,2,Jose Jimenez,Everman,58.51,142.88,83.91,147.42,374.21,Single-ply,SBD,M,
Boys,59.87,3,Ricky Perez,Fort Worth Diamond Hill-Jarvis,59.33,142.88,79.38,142.88,365.14,Single-ply,SBD,M,
Boys,59.87,4,Ralen Allen,Everman,59.06,102.06,74.84,142.88,319.78,Single-ply,SBD,M,
Boys,67.13,1,Luis Jaimes,Fort Worth Diamond Hill-Jarvis,66.68,142.88,92.99,151.95,387.82,Single-ply,SBD,M,
Boys,67.13,2,Enrique Carillo,Everman,64.05,92.99,70.31,106.59,269.89,Single-ply,SBD,M,
Boys,67.13,DQ,Dylan Dominguez,Everman,65.86,79.38,,,,Single-ply,SBD,M,
Boys,74.84,1,Kevin Jarvis,Everman,74.03,226.8,113.4,206.38,546.58,Single-ply,SBD,M,
Boys,74.84,2,Lucas Quinonez,Everman,72.12,102.06,61.23,124.74,288.03,Single-ply,SBD,M,
Boys,89.81,1,Diego Cortez,Everman,89.09,260.82,136.08,238.14,635.03,Single-ply,SBD,M,
Boys,89.81,2,Edgar Rivera,Fort Worth Diamond Hill-Jarvis,89.81,192.78,117.93,188.24,498.95,Single-ply,SBD,M,
Boys,99.79,1,Christopher Gonzalez,Fort Worth Diamond Hill-Jarvis,94.62,138.35,90.72,161.03,390.09,Single-ply,SBD,M,
Boys,99.79,2,Anthony Gonzalez,Fort Worth Diamond Hill-Jarvis,99.61,106.59,61.23,111.13,278.96,Single-ply,SBD,M,
Boys,109.77,1,Jaciel Gonzalez,Fort Worth Diamond Hill-Jarvis,108.77,206.38,151.95,206.38,564.72,Single-ply,SBD,M,
Boys,124.74,1,Seth Martin,Everman,122.65,238.14,151.95,272.16,662.24,Single-ply,SBD,M,
Boys,124.74,2,Adrian Anderson,Everman,119.93,272.16,161.03,226.8,659.98,Single-ply,SBD,M,
Boys,124.74,3,Bryan Resendiz,Everman,119.11,226.8,117.93,183.7,528.44,Single-ply,SBD,M,
Boys,139.71,1,Kevin Allen,Everman,126.55,233.6,142.88,217.72,594.21,Single-ply,SBD,M,
