Division,WeightClassKg,Place,Name,Team,BodyweightKg,Best3SquatKg,Best3BenchKg,Best3DeadliftKg,TotalKg,Equipment,Event,Sex,BirthDate
Boys,51.71,1,Austin McCain,Sulphur Springs,51.71,90.72,56.7,86.18,233.6,Single-ply,SBD,M,
Boys,51.71,2,Jordan Barlagna,Leonard,49.67,90.72,56.7,83.91,231.33,Single-ply,SBD,M,
Boys,55.79,1,Jakovi Dabbs,Paris,55.79,163.29,97.52,174.63,435.45,Single-ply,SBD,M,
Boys,55.79,2,Randy Slaughter,Leonard,55.79,120.2,72.57,142.88,335.66,Single-ply,SBD,M,
Boys,59.87,1,Juan Hernandez,Sulphur Springs,58.74,192.78,83.91,199.58,476.27,Single-ply,SBD,M,
Boys,59.87,2,Luke Elrod,Paris North Lamar,58.74,142.88,83.91,147.42,374.21,Single-ply,SBD,M,
Boys,67.13,1,Chance Cruz,Argyle,67.13,219.99,106.59,210.92,537.51,Single-ply,SBD,M,
Boys,67.13,2,Brayden McCormack,Paris North Lamar,66.22,158.76,81.65,156.49,396.89,Single-ply,SBD,M,
Boys,67.13,3,Ryan Bell,Paris North Lamar,62.82,129.27,79.38,136.08,344.73,Single-ply,SBD,M,
Boys,67.13,4,Nicholas Cates,Mount Pleasant,62.37,142.88,72.57,120.2,335.66,Single-ply,SBD,M,
Boys,67.13,5,Jonathan Tolentino,Mount Pleasant,60.78,124.74,61.23,129.27,315.25,Single-ply,SBD,M,
Boys,74.84,1,Hayden Justice,Paris North Lamar,70.76,217.72,124.74,176.9,519.36,Single-ply,SBD,M,
Boys,74.84,2,Corbin Martin,Paris,74.84,183.7,115.67,206.38,505.76,Single-ply,SBD,M,
Boys,74.84,3,Kadyn McDonald,Paris,74.39,179.17,102.06,188.24,469.47,Single-ply,SBD,M,
Boys,74.84,4,Brenden Fink,Sulphur Springs,74.62,170.1,106.59,181.44,458.13,Single-ply,SBD,M,
Boys,74.84,5,Buddy Posey,Paris North Lamar,73.94,158.76,92.99,163.29,415.04,Single-ply,SBD,M,
Boys,74.84,6,Maliki Tillery,Paris North Lamar,68.04,158.76,90.72,156.49,405.97,Single-ply,SBD,M,
Boys,74.84,7,Mike Herring,Paris,74.84,149.69,81.65,172.37,403.7,Single-ply,SBD,M,
Boys,74.84,8,Esteban Trejo,Mount Pleasant,68.49,158.76,65.77,142.88,367.41,Single-ply,SBD,M,
Boys,74.84,9,Oscar Otero,Mount Pleasant,71.89,102.06,61.23,131.54,294.84,Single-ply,SBD,M,
Boys,74.84,10,Avery Rodrigues,Commerce,73.94,88.45,68.04,111.13,267.62,Single-ply,SBD,M,
Boys,74.84,DQ,Cross Elizardo,Argyle,72.12,,,,,Single-ply,SBD,M,
Boys,82.1,1,Matthew Mitchell,Sulphur Springs,82.1,226.8,129.27,213.19,569.26,Single-ply,SBD,M,
Boys,82.1,2,Elias Elizondo,Mount Pleasant,82.1,204.12,92.99,213.19,510.29,Single-ply,SBD,M,
Boys,82.1,3,Reggie Ellis,Paris,78.47,183.7,102.06,185.97,471.74,Single-ply,SBD,M,
Boys,82.1,4,Lyric Tredwell,Paris,75.3,176.9,104.33,185.97,467.2,Single-ply,SBD,M,
Boys,82.1,5,Caden Yates,Argyle,80.74,183.7,88.45,185.97,458.13,Single-ply,SBD,M,
Boys,82.1,6,Jacory Bush,Leonard,79.38,181.44,113.4,161.03,455.86,Single-ply,SBD,M,
Boys,82.1,7,Campbell Owen,Argyle,82.1,167.83,97.52,167.83,433.18,Single-ply,SBD,M,
Boys,82.1,8,Marc Marcos,Commerce,78.93,142.88,65.77,142.88,351.53,Single-ply,SBD,M,
Boys,82.1,9,Cannon Kent,Paris North Lamar,81.19,124.74,81.65,145.15,351.53,Single-ply,SBD,M,
Boys,89.81,1,Keshawn Wallace,Paris,88.22,244.94,151.95,235.87,632.76,Single-ply,SBD,M,
Boys,89.81,2,Ryan Carrillo,Sulphur Springs,82.78,210.92,145.15,204.12,560.19,Single-ply,SBD,M,
Boys,89.81,3,Patrick Roland,Paris,87.32,204.12,124.74,204.12,532.97,Single-ply,SBD,M,
Boys,89.81,4,Kendrick Greer,Commerce,88.45,204.12,111.13,195.04,510.29,Single-ply,SBD,M,
Boys,89.81,5,Dalton Doyle,Leonard,85.05,183.7,122.47,192.78,498.95,Single-ply,SBD,M,
Boys,89.81,6,Connor West,Sulphur Springs,85.28,181.44,90.72,183.7,455.86,Single-ply,SBD,M,
Boys,89.81,7,Clayton Boykin,Sulphur Springs,83.46,158.76,99.79,151.95,410.5,Single-ply,SBD,M,
Boys,89.81,8,Jack Nichols,Commerce,88.9,149.69,88.45,156.49,394.63,Single-ply,SBD,M,
Boys,89.81,9,Brandon Hardwood,Omaha Pewitt,89.81,149.69,70.31,142.88,362.87,Single-ply,SBD,M,
Boys,99.79,1,Chase Bunnell,Argyle,99.34,238.14,136.08,249.48,623.69,Single-ply,SBD,M,
Boys,99.79,2,Jailen Franklin,Paris,98.88,222.26,127.01,240.4,589.67,Single-ply,SBD,M,
Boys,99.79,3,Chandler Sikes,Paris,95.03,226.8,127.01,226.8,580.6,Single-ply,SBD,M,
Boys,99.79,4,Omahri Davis,Commerce,96.62,204.12,124.74,238.14,566.99,Single-ply,SBD,M,
Boys,99.79,5,Trent Tennon,Paris,99.11,204.12,113.4,240.4,557.92,Single-ply,SBD,M,
Boys,99.79,6,Tanor Mines,Omaha Pewitt,94.12,226.8,124.74,204.12,555.65,Single-ply,SBD,M,
Boys,99.79,7,Richard Jackson,Commerce,99.79,210.92,120.2,197.31,528.44,Single-ply,SBD,M,
Boys,99.79,8,Brayden Harris,Leonard,97.52,226.8,117.93,181.44,526.17,Single-ply,SBD,M,
Boys,99.79,9,Astin Ledbetter,Mount Pleasant,96.62,179.17,127.01,213.19,519.36,Single-ply,SBD,M,
Boys,99.79,10,Maverick Brown,Paris North Lamar,98.88,181.44,108.86,181.44,471.74,Single-ply,SBD,M,
Boys,99.79,11,Brazos Brown,Mount Pleasant,91.63,183.7,95.25,183.7,462.66,Single-ply,SBD,M,
Boys,99.79,12,Remington Brown,Paris North Lamar,93.67,172.37,97.52,170.1,439.98,Single-ply,SBD,M,
Boys,99.79,13,Roy Gaffney,Commerce,97.07,151.95,83.91,165.56,401.43,Single-ply,SBD,M,
Boys,109.77,1,Kamron Rogers,Leonard,109.09,267.62,156.49,231.33,655.44,Single-ply,SBD,M,
Boys,109.77,2,Corjohnta Dunbar,Commerce,107.5,233.6,163.29,249.48,646.37,Single-ply,SBD,M,
Boys,109.77,3,Chad Maynard,Sulphur Springs,101.15,272.16,138.35,204.12,614.62,Single-ply,SBD,M,
Boys,109.77,4,Carter Renfro,Paris North Lamar,105.46,254.01,136.08,215.46,605.55,Single-ply,SBD,M,
Boys,109.77,5,Alfredo Olivide,Sulphur Springs,107.73,183.7,97.52,208.65,489.88,Single-ply,SBD,M,
Boys,109.77,6,Isaac Lopez,Mount Pleasant,102.97,201.85,88.45,197.31,487.61,Single-ply,SBD,M,
Boys,109.77,7,Josh Sutton,Sulphur Springs,107.5,185.97,106.59,167.83,460.4,Single-ply,SBD,M,
Boys,109.77,8,Clayton Miller,Mount Pleasant,109.77,195.04,83.91,172.37,451.32,Single-ply,SBD,M,
Boys,124.74,1,Austin Criswell,Argyle,119.98,288.03,124.74,229.06,641.83,Single-ply,SBD,M,
Boys,124.74,2,Devin Moten,Paris,124.74,233.6,154.22,249.48,637.3,Single-ply,SBD,M,
Boys,124.74,3,Sean Dial,Sulphur Springs,122.92,226.8,117.93,217.72,562.45,Single-ply,SBD,M,
Boys,124.74,4,Austin Rusk,Argyle,116.57,226.8,117.93,206.38,551.11,Single-ply,SBD,M,
Boys,124.74,5,Jesus Gonzalez,Mount Pleasant,119.52,226.8,120.2,204.12,551.11,Single-ply,SBD,M,
Boys,124.74,6,Collin Mills,Leonard,117.71,181.44,124.74,167.83,474,Single-ply,SBD,M,
Boys,124.74,7,Randy Good,Argyle,118.16,174.63,104.33,179.17,458.13,Single-ply,SBD,M,
Boys,124.74,8,Jason Perigrina,Paris North Lamar,117.48,179.17,104.33,142.88,426.38,Single-ply,SBD,M,
Boys,124.74,9,Colton Wilson,Omaha Pewitt,115.44,170.1,97.52,149.69,417.3,Single-ply,SBD,M,
Boys,124.74,10,Seth Riddle,Commerce,124.74,145.15,79.38,165.56,390.09,Single-ply,SBD,M,
Boys,139.71,1,Noah Howell,Commerce,132.45,235.87,145.15,235.87,616.89,Single-ply,SBD,M,
Boys,139.71,2,Everett Stapleton,Commerce,125.65,247.21,129.27,215.46,591.94,Single-ply,SBD,M,
Boys,139.71,3,Braeden Wilkins,Paris North Lamar,135.85,231.33,145.15,199.58,576.06,Single-ply,SBD,M,
Boys,139.71,4,Jakobe Yarbrough,Sulphur Springs,135.62,226.8,99.79,217.72,544.31,Single-ply,SBD,M,
Boys,139.71,5,Dylan Brewster,Argyle,139.71,190.51,108.86,176.9,476.27,Single-ply,SBD,M,
Boys,139.71+,1,Jayston Jones,Commerce,144.92,219.99,190.51,195.04,605.55,Single-ply,SBD,M,
Boys,139.71+,2,Bill Overton,Argyle,158.76,229.06,133.81,195.04,557.92,Single-ply,SBD,M,
Boys,139.71+,3,Tyler Welborn,Mount Pleasant,151.95,206.38,104.33,188.24,498.95,Single-ply,SBD,M,
