Division,WeightClassKg,Place,Name,Team,BodyweightKg,Best3SquatKg,Best3BenchKg,Best3DeadliftKg,TotalKg,Equipment,Event,Sex,BirthDate
Boys,51.71,1,Julio Velasco,Brownsville Lopez,45.18,92.99,61.23,120.2,274.42,Single-ply,SBD,M,
Boys,55.79,1,Joseph Ramirez,Brownsville Veterans Memorial,55.79,136.08,79.38,154.22,369.68,Single-ply,SBD,M,
Boys,55.79,2,Matthew Mancias,Brownsville Hanna,54.79,127.01,83.91,127.01,337.93,Single-ply,SBD,M,
Boys,55.79,3,Brandon Minez,Brownsville Porter,55.79,106.59,70.31,149.69,326.59,Single-ply,SBD,M,
Boys,59.87,1,JR Rivera,Brownsville Rivera,58.06,192.78,99.79,185.97,478.54,Single-ply,SBD,M,
Boys,59.87,2,Isaiah Loya,Brownsville Hanna,58.42,136.08,72.57,151.95,360.61,Single-ply,SBD,M,
Boys,59.87,3,Logan Garcia #2,Brownsville Lopez,59.69,124.74,83.91,142.88,351.53,Single-ply,SBD,M,
Boys,67.13,1,Valient Rodriguez,Brownsville Pace,66.5,190.51,108.86,170.1,469.47,Single-ply,SBD,M,
Boys,67.13,2,Anthony Ayala,Brownsville Veterans Memorial,66.13,158.76,122.47,145.15,426.38,Single-ply,SBD,M,
Boys,67.13,3,Joemichael Reyna,Brownsville Veterans Memorial,66.86,145.15,83.91,147.42,376.48,Single-ply,SBD,M,
Boys,67.13,DQ,Robert Stone,Brownsville Veterans Memorial,66.04,,,,,Single-ply,SBD,M,
Boys,74.84,1,Guaberto Zarate,Brownsville Pace,74.71,195.04,120.2,183.7,498.95,Single-ply,SBD,M,
Boys,74.84,2,Jose E Hernandez,Brownsville Rivera,72.57,190.51,113.4,188.24,492.15,Single-ply,SBD,M,
Boys,74.84,DQ,Angel Valdez,Brownsville Lopez,69.31,176.9,106.59,,,Single-ply,SBD,M,
Boys,82.1,1,Martin Vargas,Brownsville Porter,81.92,233.6,115.67,192.78,542.04,Single-ply,SBD,M,
Boys,82.1,2,Andrew Rader,Brownsville Lopez,80.56,165.56,88.45,165.56,419.57,Single-ply,SBD,M,
Boys,82.1,3,Angel Escobedo,Brownsville Porter,80.1,147.42,108.86,147.42,403.7,Single-ply,SBD,M,
Boys,89.81,1,Josh Madrazo,Brownsville Veterans Memorial,88.72,258.55,147.42,235.87,641.83,Single-ply,SBD,M,
Boys,89.81,2,Guadalupe Salinas,Brownsville Rivera,88.54,215.46,113.4,219.99,548.85,Single-ply,SBD,M,
Boys,89.81,3,Juan Zavala,Brownsville Porter,83.46,176.9,113.4,185.97,476.27,Single-ply,SBD,M,
Boys,89.81,4,Omar Nava,Brownsville Pace,89.81,136.08,79.38,131.54,347,Single-ply,SBD,M,
Boys,99.79,1,Jesus Hernandez,Brownsville Rivera,98.7,285.76,147.42,231.33,664.51,Single-ply,SBD,M,
Boys,99.79,2,Mathew Garza,Brownsville Rivera,94.53,260.82,151.95,235.87,648.64,Single-ply,SBD,M,
Boys,99.79,3,Roli Gonzalez,Brownsville Hanna,99.7,260.82,142.88,235.87,639.57,Single-ply,SBD,M,
Boys,99.79,4,Santos Avalos,Brownsville Hanna,99.79,269.89,140.61,201.85,612.35,Single-ply,SBD,M,
Boys,99.79,5,John Davila,Brownsville Hanna,91.53,249.48,142.88,213.19,605.55,Single-ply,SBD,M,
Boys,99.79,6,Giovanny Ahumada,Brownsville Porter,94.35,229.06,131.54,199.58,560.19,Single-ply,SBD,M,
Boys,109.77,1,Hector Guerrero,Brownsville Rivera,109.41,233.6,140.61,199.58,573.79,Single-ply,SBD,M,
Boys,124.74,1,David De La Torre,Brownsville Pace,124.56,283.5,147.42,238.14,669.05,Single-ply,SBD,M,
Boys,124.74,2,Jesus Salas,Brownsville Rivera,111.22,204.12,122.47,188.24,514.83,Single-ply,SBD,M,
Boys,124.74,3,Arthur Emerson,Brownsville Pace,117.93,204.12,113.4,183.7,501.22,Single-ply,SBD,M,
Boys,124.74,4,Kaleb Loredo,Brownsville Pace,123.83,199.58,122.47,149.69,471.74,Single-ply,SBD,M,
Boys,139.71,1,Manuel Garcia,Brownsville Porter,128.09,272.16,156.49,208.65,637.3,Single-ply,SBD,M,
Boys,139.71,2,Victor Ramos,Brownsville Porter,131.18,210.92,163.29,233.6,607.81,Single-ply,SBD,M,
Boys,139.71,3,Ray Holloman,Brownsville Veterans Memorial,129.46,256.28,133.81,210.92,601.01,Single-ply,SBD,M,
Boys,139.71,4,Abraham Lozano,Brownsville Rivera,128.73,254.01,127.01,215.46,596.47,Single-ply,SBD,M,
Boys,139.71,5,Roman Alfaro,Brownsville Pace,126.01,249.48,151.95,188.24,589.67,Single-ply,SBD,M,
Boys,139.71,6,Luis Garza,Brownsville Lopez,125.37,213.19,113.4,201.85,528.44,Single-ply,SBD,M,
Boys,139.71,DQ,Diego Castillo,Brownsville Lopez,129.55,213.19,120.2,,,Single-ply,SBD,M,
Boys,139.71+,1,German Woo,Brownsville Hanna,144.61,285.76,165.56,226.8,678.12,Single-ply,SBD,M,
