Place,Sex,Name,Division,Age,WeightClassKg,Event,Equipment,Country,BodyweightKg,Squat1Kg,Squat2Kg,Squat3Kg,Best3SquatKg,Squat4Kg,Bench1Kg,Bench2Kg,Bench3Kg,Best3BenchKg,Bench4Kg,Deadlift1Kg,Deadlift2Kg,Deadlift3Kg,Best3DeadliftKg,Deadlift4Kg,TotalKg,Tested
1,M,Hideaki Inaba,Open,,52,SBD,Single-ply,Japan,51.8,,,230,230,232.5,,117.5,-120,117.5,,,,,220,,567.5,No
2,M,Chuck Dunbar,Open,,52,SBD,Single-ply,USA,51.2,,-230,230,230,-232.5,,,140,140,142.5,,170,-175,170,,540,No
3,M,Narendra Bhairo,Open,,52,SBD,Single-ply,UK,51.8,,,,210,,,,,117.5,,,200,-215,200,,527.5,No
4,M,Aimo Tuomisto,Open,,52,SBD,Single-ply,Finland,51.4,,,,185,,,,,107.5,,,,,192.5,,485,No
5,M,Geoff Cairns,Open,,52,SBD,Single-ply,New Zealand,52,,,,185,,,,,100,,,,,197.5,,482.5,No
6,M,Don MacVicar,Open,,52,SBD,Single-ply,Canada,51.6,,,,190,,,,,117.5,,,,,172.5,,480,No
7,M,Y. Tokutaka,Open,,52,SBD,Single-ply,Japan,51.4,,,,180,,,,,110,,,,,185,,475,No
8,M,Brij Bhushan,Open,,52,SBD,Single-ply,India,51.6,,,,170,,,,,110,,,,,175,,455,No
9,M,Jeff Madsen,Open,,52,SBD,Single-ply,New Zealand,51.6,,,,165,,,,,75,,,,,215,,455,No
10,M,Len Skeen,Open,,52,SBD,Single-ply,Australia,51.8,,,,152.5,,,,,100,,,,,200,,452.5,No
11,M,E. Massanet,Open,,52,SBD,Single-ply,Puerto Rico,52,,,,182.5,,,,,120,,,,,150,,452.5,No
1,M,Precious McKenzie,Open,44,56,SBD,Raw,New Zealand,55.6,,,232.5,232.5,,,,,125,,,,,230,,587.5,No
2,M,Juhani Niemi,Open,,56,SBD,Single-ply,Finland,55.8,,,,217.5,,,,,120,,,,,227.5,,565,No
3,M,Hiroyuki Isagawa,Open,,56,SBD,Single-ply,Japan,55.8,190,,,190,,,,142.5,142.5,145.5,,,,220,,552.5,No
4,M,Yrjö Haatanen,Open,,56,SBD,Single-ply,Finland,56,,,,190,,,,,122.5,,,,,215,,527.5,No
5,M,Stefano Finateri,Open,,56,SBD,Single-ply,Canada,55.8,,,,212.5,,,,,105,,,,,210,,527.5,No
6,M,Haruji Watanabe-Saikachi,Open,,56,SBD,Single-ply,Japan,55.6,,,,180,,,,,115,,,-235,-235,220,,515,No
7,M,Dan James,Open,,56,SBD,Single-ply,Canada,55.4,,,,197.5,,,,,107.5,,,,,202.5,,507.5,No
8,M,David Mannering #1,Open,,56,SBD,Single-ply,UK,55.6,,,,210,,,,,105,,,,,190,,505,No
9,M,PJ Joseph,Open,,56,SBD,Single-ply,India,55.6,,,,182.5,,,,,100,,,,,217.5,,500,No
10,M,Sudhakar Kamath,Open,,56,SBD,Single-ply,India,55,,,,175,,,,,110,,,,,180,,465,No
11,M,Aimo Bennett,Open,,56,SBD,Single-ply,Australia,56,,,,157.5,,,,,92.5,,,,,200,,450,No
1,M,Lamar Gant,Open,,60,SBD,Single-ply,USA,60,,,260,260,,,,160,160,,285,-310,,285,,705,No
2,M,Kullervo Lampela,Open,,60,SBD,Single-ply,Finland,59.6,,,,212.5,,,,,112.5,,,,,265,,590,No
3,M,Ray Verdonck,Open,,60,SBD,Single-ply,USA,59.8,,,,237.5,,,,,135,,,,217.5,217.5,,590,No
4,M,Tony Galvez #2,Open,,60,SBD,Single-ply,UK,59.8,,,,235,,,,,122.5,,,,,225,,582.5,No
5,M,Gordon Catterson,Open,,60,SBD,Single-ply,Canada,60,,,,220,,,,,132.5,,,,,222.5,,575,No
6,M,Charles Coleiro,Open,,60,SBD,Single-ply,Australia,59.6,,,,200,,,,,112.5,,,,,220,,532.5,No
7,M,Anthony Collins #1,Open,,60,SBD,Single-ply,Ireland,59.4,,,,195,,,,,110,,,,,212.5,,517.5,No
8,M,Fred McCarthy,Open,,60,SBD,Single-ply,Ireland,59.4,,,,205,,,,,92.5,,,,,212.5,,510,No
9,M,M. Kumar,Open,,60,SBD,Single-ply,India,59,,,,185,,,,,122.5,,,,,195,,502.5,No
10,M,P. Jayappa,Open,,60,SBD,Single-ply,India,59.8,,,,187.5,,,,,110,,,,,205,,502.5,No
G,M,Joe Bradley,Open,,60,SBD,Single-ply,USA,59.8,,,280,280,295,,-167.5,167.5,167.5,,,,,255,,702.5,No
1,M,Rickey Dale Crain,Open,,67.5,SBD,Single-ply,USA,67.4,275,285,-287.5,285,,-145,145,-150,145,,285,300,,300,,730,No
2,M,James Moir,Open,,67.5,SBD,Single-ply,Canada,67.4,260,275,-282.5,275,,,,,177.5,,-275,275,,275,,727.5,No
3,M,Thomas Sjöström,Open,,67.5,SBD,Single-ply,Sweden,67.4,,,,250,,,,,150,,,,,260,,660,No
4,M,Stefan Nentis,Open,,67.5,SBD,Single-ply,Sweden,67,,,,250,,,,,145,,,,,235,,630,No
5,M,Jerry Marentette,Open,,67.5,SBD,Single-ply,Canada,67,,,,232.5,,,,,135,,,,,245,,612.5,No
6,M,Bo Ahlroos,Open,,67.5,SBD,Single-ply,Finland,67,,,,210,,,,,135,,,,,267.5,,612.5,No
7,M,Thomas Ward,Open,,67.5,SBD,Single-ply,Ireland,67.4,,,,227.5,,,,,132.5,,,,,247.5,,607.5,No
8,M,Luigi Pedrazzi,Open,,67.5,SBD,Single-ply,Switzerland,67.5,,,,210,,,,,125,,,,,255,,590,No
9,M,Bernard Fennessey,Open,,67.5,SBD,Single-ply,Ireland,67.2,,,,220,,,,,125,,,,,242.5,,587.5,No
10,M,Oddvar Wiken,Open,,67.5,SBD,Single-ply,Norway,67.2,,,,220,,,,,127.5,,,,,232.5,,580,No
11,M,B. Das,Open,,67.5,SBD,Single-ply,India,67.2,,,,215,,,,,135,,,,,222.5,,572.5,No
12,M,Bill Keir,Open,40,67.5,SBD,Single-ply,Australia,67,,,,210,,,,,115,,,,,245,,570,No
13,M,Manfred Gros,Open,,67.5,SBD,Single-ply,West Germany,66.8,,,,180,,,,,132.5,,,,,237.5,,550,No
DQ,M,Eddy Pengelly,Open,,67.5,SBD,Single-ply,UK,67.4,-270,-270,270,270,,,,152.5,152.5,,-292.5,-292.5,-292.5,,,,No
DQ,M,M. Cruz,Open,,67.5,SBD,Single-ply,Puerto Rico,66,,,,,,,,,,,,,,,,,No
1,M,Rick Gaugler,Open,,75,SBD,Single-ply,USA,74.8,290,,,290,,190,,,190,,,,,307.5,315,787.5,No
2,M,Mauro Di Pasquale,Open,,75,SBD,Single-ply,Canada,74.8,,,,292.5,,,,,167.5,,,305,-327.5,305,,765,No
3,M,Lars Backlund,Open,,75,SBD,Single-ply,Sweden,75,,,,295,,,,-197.5,190,,,,,280,,765,No
4,M,William Martin,Open,,75,SBD,Single-ply,New Zealand,74.4,,,,245,,,,,140,,,,,275,,660,No
5,M,Jonny Mombert,Open,,75,SBD,Single-ply,Belgium,74.8,,,,255,,,,,130,,,,,272.5,,657.5,No
6,M,Masayuki Suzuki,Open,,75,SBD,Single-ply,Japan,74,,,,230,,,,,170,,,,,225,,625,No
7,M,Arne Ruuo,Open,,75,SBD,Single-ply,Norway,74.4,,,,230,,120,,,120,,,,,275,,625,No
8,M,Pol Wautermartens,Open,,75,SBD,Single-ply,Belgium,74.4,,,,230,,,,,122.5,,,,,250,,602.5,No
G,M,James Rouse,Open,,75,SBD,Single-ply,USA,75,,,,282.5,,,212.5,217.5,217.5,,,,,285,,785,No
1,M,Bill West #1,Open,,82.5,SBD,Single-ply,UK,82.4,,,,310,,,,,167.5,,,,,300,,777.5,No
2,M,Peter Fiore,Open,,82.5,SBD,Single-ply,UK,82,,,,300,,,,,195,,,,,280,,775,No
3,M,Jari Tähtinen,Open,,82.5,SBD,Single-ply,Finland,82.4,,,,285,,,,,180,,,,,305,,770,No
4,M,Max Stamm,Open,,82.5,SBD,Single-ply,West Germany,82.2,,,,285,,,,,172.5,,,,,295,,752.5,No
5,M,Charles Husty,Open,,82.5,SBD,Single-ply,Canada,81.6,,,,260,,,,,195,,,,,280,,735,No
6,M,Veli Kumpuniemi,Open,,82.5,SBD,Single-ply,Finland,82.4,,,,252.5,,,,,147.5,,,,,330,,730,No
7,M,Bruce Waddell,Open,,82.5,SBD,Single-ply,Australia,82,,,,285,,,,,172.5,,,,,265,,722.5,No
8,M,Vidar Tangen,Open,,82.5,SBD,Single-ply,Norway,82.5,,,,270,,,,,157.5,,,,,260,,687.5,No
9,M,Janos Nemeshazy,Open,,82.5,SBD,Single-ply,Switzerland,81.2,,,,240,,,,,175,,,,,250,,665,No
10,M,Louis Loncke,Open,,82.5,SBD,Single-ply,Belgium,80.6,,,,250,,,,,132.5,,,,,270,,652.5,No
11,M,R. Leopoldo,Open,,82.5,SBD,Single-ply,Brazil,80.6,,,,240,,,,,155,,,,,250,,645,No
12,M,Albert Mombert,Open,,82.5,SBD,Single-ply,Belgium,81.6,,,,230,,,,,150,,,,,262.5,,642.5,No
13,M,MK Jose,Open,,82.5,SBD,Single-ply,India,81,,,,205,,,,,125,,,,,240,,570,No
14,M,Manuel Montenegro,Open,,82.5,SBD,Single-ply,Argentina,80.2,,,,207.5,,,,,125,,,,,230,,562.5,No
DQ,M,Knut Johansen,Open,,82.5,SBD,Single-ply,Norway,79.6,,,,285,,,,,160,,,,,,,,No
DQ,M,Pierre Vauthey,Open,,82.5,SBD,Single-ply,Switzerland,81.9,,,,,,,,,,,,,,,,,No
DQ,M,J. Miranda,Open,,82.5,SBD,Single-ply,Puerto Rico,78.6,,,,,,,,,,,,,,,,,No
DQ,M,R. De La Cruz,Open,,82.5,SBD,Single-ply,Spain,80.6,,,,,,,,,,,,,,,,,No
G,M,Mike Bridges,Open,,82.5,SBD,Single-ply,USA,81.4,357.5,377.5,-385,377.5,,,227.5,-235,227.5,,,,,335,,940,No
G,M,Tony Carpino,Open,,82.5,SBD,Single-ply,USA,82.4,,315,-320,315,,,,,200,,,,,310,,825,No
1,M,Vince Anello,Open,,90,SBD,Single-ply,USA,89.8,-295,295,-310,295,,,,,205,,367.5,,,367.5,,867.5,No
2,M,Conny Nilsson,Open,,90,SBD,Single-ply,Sweden,89.8,,,,350,,,,190,190,,,,325,325,,865,No
3,M,Jerry Jones,Open,,90,SBD,Single-ply,USA,90,-345,345,,345,,,,,182.5,,,322.5,-340,322.5,,850,No
4,M,Gary Bunt,Open,,90,SBD,Single-ply,New Zealand,89.8,,,,300,,,,,157.5,,,,,305,,762.5,No
5,M,Sverre Nyhus,Open,,90,SBD,Single-ply,Norway,90,,,,277.5,,,,,172.5,,,,,300,,750,No
6,M,Hugo de Grauwe,Open,,90,SBD,Single-ply,Belgium,89.8,,,,282.5,,,,,162.5,,,,,300,,745,No
7,M,Vasco Bernasconi,Open,,90,SBD,Single-ply,Switzerland,87.4,,,,262.5,,,,,147.5,,,,,262.5,,672.5,No
8,M,L. Singh,Open,,90,SBD,Single-ply,India,89,,,,250,,,,,160,,,,,240,,650,No
9,M,C. Lopez,Open,,90,SBD,Single-ply,Puerto Rico,90,,,,240,,,,,127.5,,,,,257.5,,625,No
10,M,William Monaghan,Open,,90,SBD,Single-ply,Ireland,83.8,,,,245,,,,,135,,,,,237.5,,617.5,No
DQ,M,John Cappola,Open,,90,SBD,Single-ply,Australia,89.8,,,,320,,,,,180,,-310,-310,-310,,,,No
DQ,M,Kenneth Mattsson,Open,,90,SBD,Single-ply,Sweden,89,-345,-345,-345,,,,,,,,,,,,,,No
G,M,Fred Hatfield #1,Open,,90,SBD,Single-ply,USA,90,,,,375,,,,,195,,,307.5,-330,307.5,,877.5,No
G,M,Ernie Frantz,Open,,90,SBD,Single-ply,USA,89.8,,,,320,,,,,205,,,,,330,,855,No
1,M,Mark Dimiduk,Open,,100,SBD,Single-ply,USA,97.4,,357.5,-365,357.5,,,,,217.5,,,,,345,,920,No
2,M,Tony Stevens #1,Open,,100,SBD,Single-ply,UK,98.4,,,,340,,,,,205,,,,,340,,885,No
3,M,Reijo Kiviranta,Open,,100,SBD,Single-ply,Finland,99.6,,,,320,,,,,210,,,,,350,,880,No
4,M,Ray Yvander,Open,,100,SBD,Single-ply,Sweden,99.4,-350,-350,350,350,,,,,200,,,,,327.5,,877.5,No
5,M,Raymond Nobile,Open,,100,SBD,Single-ply,UK,98,,,,335,,,,,220,,,,,320,,875,No
6,M,Ralf Larsen,Open,,100,SBD,Single-ply,Norway,99.4,,,,332.5,,,,,192.5,,,,,307.5,,832.5,No
7,M,Peter Perry,Open,,100,SBD,Single-ply,Canada,99.2,,,-335,320,,,,,195,,,,,305,,820,No
8,M,Luis De Almeida,Open,,100,SBD,Wraps,Brazil,96.4,,,,300,,,,,160,,,,,290,,750,No
9,M,Klaus Fink,Open,,100,SBD,Single-ply,West Germany,99.2,,,,275,,,,,170,,,,,265,,710,No
10,M,Marcel Varé,Open,,100,SBD,Single-ply,Switzerland,99.2,,,,252.5,,,,,182.5,,,,,262.5,,697.5,No
11,M,J. Gonzalez,Open,,100,SBD,Single-ply,Puerto Rico,98.2,,,,255,,,,,165,,,,,255,,675,No
12,M,Susumu Yoshida,Open,,100,SBD,Single-ply,Japan,94.6,,,,240,,,,,180,,,,,240,,660,No
13,M,Heinz Vierthaler,Open,,100,SBD,Single-ply,West Germany,99.6,,,,225,,,,,150,,,,,270,,645,No
G,M,Chip McCain,Open,,100,SBD,Single-ply,USA,99.6,,,,367.5,,,,,200,,-357.5,357.5,,357.5,,925,No
1,M,John Kuc,Open,,110,SBD,Single-ply,USA,110,,,377.5,377.5,,,227.5,-230,227.5,,,,395,395,,1000,No
2,M,Hannu Saarelainen,Open,,110,SBD,Single-ply,Finland,109.8,,,,357.5,,,,,247.5,,,,,325,,930,No
3,M,Arthur White,Open,,110,SBD,Single-ply,UK,109,330,-405,,330,,,,,195,,,,,360,,885,No
4,M,Reidar Steen,Open,,110,SBD,Single-ply,Norway,109.4,,,,340,,,,,235,,,,,310,,885,No
5,M,Joe McGowan,Open,,110,SBD,Single-ply,Australia,101.8,,,,315,,,,,182.5,,,,,340,,837.5,No
6,M,Jan Kalleberg,Open,,110,SBD,Single-ply,Norway,109.2,,,,307.5,,,,,175,,,,,342.5,,825,No
7,M,John Darby,Open,,110,SBD,Single-ply,Australia,109.2,,,,310,,,,,185,,,,,320,,815,No
8,M,Terry Young,Open,,110,SBD,Single-ply,Canada,109.8,,,,312.5,,,,,165,,,,,327.5,,805,No
9,M,Jean-Pierre Brulois,Open,,110,SBD,Single-ply,France,,,,,280,,,,,180,,,,,290,,750,No
10,M,Jose-Carlos Vidal,Open,,110,SBD,Single-ply,Brazil,,,,,265,,,,,187.5,,,,,270,,722.5,No
11,M,Paramjit Singh,Open,,110,SBD,Single-ply,India,,,,,245,,,,,147.5,,,,,252.5,,645,No
12,M,Loknoth Bolar,Open,,110,SBD,Single-ply,India,109.2,,,,245,,,,,155,,,,,242.5,,642.5,No
DQ,M,Shoji Nakamura,Open,,110,SBD,Single-ply,Japan,110,,,,,,,,,,,,,,,,,No
G,M,Steve Wilson,Open,,110,SBD,Single-ply,USA,109,350,-367.5,-367.5,350,,,,-262.5,252.5,,340,,,340,,942.5,No
1,M,Doyle Kenady,Open,,110+,SBD,Single-ply,USA,136.8,372.5,-395,,372.5,,,245,,245,,382.5,-402.5,,382.5,,1000,No
2,M,Andy Kerr,Open,,110+,SBD,Single-ply,UK,133.6,,,,340,,,,,232.5,,,,,350,,922.5,No
3,M,Juhani Heinonen,Open,,110+,SBD,Single-ply,Finland,144.8,,,,340,,,,,210,,,,,332.5,,882.5,No
4,M,Thamer Chaim,Open,,110+,SBD,Single-ply,Brazil,126.4,,,,302.5,,,,,185,,,,,320,,807.5,No
5,M,Hans-Otto Whorle,Open,,110+,SBD,Single-ply,West Germany,110.6,,,,285,,,,,180,,,,,280,,745,No
DQ,M,Sverre Saxegaard,Open,,110+,SBD,Single-ply,Norway,110.8,,,,,,,,,,,,,,,,,No
G,M,Dave Waddington,Open,,110+,SBD,Single-ply,USA,144.2,417.5,-442.5,-445,417.5,,,,-272.5,262.5,,,,,335,,1015,No
