Division,WeightClassKg,Place,Name,Team,BodyweightKg,Best3SquatKg,Best3BenchKg,Best3DeadliftKg,TotalKg,Equipment,Event,Sex,BirthDate
Boys,55.79,1,Matthew Tobias,Kyle Lehman,55.7,24.95,24.95,34.02,83.91,Single-ply,SBD,M,
Boys,67.13,1,Jaret Martinez,Liberty Hill,66.32,163.29,106.59,156.49,426.38,Single-ply,SBD,M,
Boys,67.13,2,Dylan Navarrette,Kyle Lehman,67.13,136.08,79.38,172.37,387.82,Single-ply,SBD,M,
Boys,67.13,3,Mason Fitch,Liberty Hill,62.96,129.27,79.38,138.35,347,Single-ply,SBD,M,
Boys,74.84,1,Kevin Garza,Kyle Lehman,74.84,201.85,122.47,183.7,508.02,Single-ply,SBD,M,
Boys,74.84,2,Will Eckford,Liberty Hill,68.31,183.7,117.93,201.85,503.49,Single-ply,SBD,M,
Boys,74.84,3,Jacob Cullen,Buda Hays,72.57,151.95,113.4,158.76,424.11,Single-ply,SBD,M,
Boys,82.1,1,Caleb Esparza,Kyle Lehman,82.01,294.84,142.88,219.99,657.71,Single-ply,SBD,M,
Boys,82.1,2,Reid Bynum,Liberty Hill,82.1,219.99,142.88,208.65,571.53,Single-ply,SBD,M,
Boys,99.79,1,Marco Reyes,Kyle Lehman,99.06,235.87,147.42,199.58,582.87,Single-ply,SBD,M,
Boys,109.77,1,Rylin Moore,Kyle Lehman,105.32,102.06,68.04,117.93,288.03,Single-ply,SBD,M,
Boys,124.74,1,Jackson Harrison,Liberty Hill,123.29,274.42,142.88,222.26,639.57,Single-ply,SBD,M,
Boys,124.74,2,Jalen Miller,Kyle Lehman,122.02,231.33,122.47,235.87,589.67,Single-ply,SBD,M,
Boys,124.74,3,Joseph Leal,Buda Hays,114.58,192.78,113.4,183.7,489.88,Single-ply,SBD,M,
Boys,124.74,4,Francisco Quistian,Kyle Lehman,120.84,147.42,117.93,138.35,403.7,Single-ply,SBD,M,
