Division,WeightClassKg,Place,Name,Team,BodyweightKg,Best3SquatKg,Best3BenchKg,Best3DeadliftKg,TotalKg,Equipment,Event,Sex,BirthDate
Girls,44.23,1,Chloe Jacob,Orange Little Cypress-Mauriceville,44,79.38,52.16,88.45,219.99,Single-ply,SBD,F,
Girls,47.85,1,Linsey Tackett,Orangefield,46.72,113.4,70.31,115.67,299.37,Single-ply,SBD,F,
Girls,51.94,1,Lacey Tackett,Orangefield,49.9,136.08,79.38,140.61,356.07,Single-ply,SBD,F,
Girls,51.94,2,Jalynn Guillory,West Orange-Stark,49.44,72.57,31.75,79.38,183.7,Single-ply,SBD,F,
Girls,51.94,3,DaSasha Janice,West Orange-Stark,50.35,83.91,38.56,,122.47,Single-ply,SB,F,
Girls,56.02,1,Jayden Miller #4,West Orange-Stark,54.88,79.38,34.02,108.86,222.26,Single-ply,SBD,F,
Girls,60.1,1,Annie Bebee,Silsbee,57.15,136.08,56.7,145.15,337.93,Single-ply,SBD,F,
Girls,60.1,2,Azia Walker,West Orange-Stark,58.97,92.99,34.02,113.4,240.4,Single-ply,SBD,F,
Girls,60.1,3,Nakeylee Ross,West Orange-Stark,57.61,61.23,24.95,77.11,163.29,Single-ply,SBD,F,
Girls,67.36,1,Madison White,Silsbee,63.96,147.42,72.57,133.81,353.8,Single-ply,SBD,F,
Girls,67.36,2,Emma Smith,Silsbee,66.68,129.27,74.84,142.88,347,Single-ply,SBD,F,
Girls,67.36,3,Ariel Farris,West Orange-Stark,65.77,106.59,45.36,111.13,263.08,Single-ply,SBD,F,
Girls,67.36,4,T'Era Garrett,West Orange-Stark,66.22,104.33,43.09,106.59,254.01,Single-ply,SBD,F,
Girls,75.07,1,Kamille Queen,West Orange-Stark,70.31,108.86,49.9,142.88,301.64,Single-ply,SBD,F,
Girls,75.07,2,Kaydence Tatom,Silsbee,67.77,113.4,63.5,108.86,285.76,Single-ply,SBD,F,
Girls,75.07,3,D'Lanie Spoonemore,Silsbee,68.04,108.86,52.16,108.86,269.89,Single-ply,SBD,F,
Girls,75.07,4,Jaden Brown,Orange Little Cypress-Mauriceville,68.95,108.86,58.97,102.06,269.89,Single-ply,SBD,F,
Girls,75.07,5,Ryleigh Clarke,Orangefield,70.31,104.33,49.9,113.4,267.62,Single-ply,SBD,F,
Girls,75.07,6,Paris Overstreet,West Orange-Stark,68.04,106.59,43.09,113.4,263.08,Single-ply,SBD,F,
Girls,75.07,7,Abigail Broussard,Orangefield,74.39,83.91,54.43,102.06,240.4,Single-ply,SBD,F,
Girls,82.33,1,Cara Heisner,Silsbee,80.29,122.47,56.7,122.47,301.64,Single-ply,SBD,F,
Girls,82.33,2,Kylie Hartt,Silsbee,80.29,111.13,56.7,108.86,276.69,Single-ply,SBD,F,
Girls,82.33,3,Abbigail Hudnall,Orange Little Cypress-Mauriceville,80.74,99.79,45.36,115.67,260.82,Single-ply,SBD,F,
Girls,82.33,4,Makaylah Pete,Silsbee,81.65,102.06,43.09,115.67,260.82,Single-ply,SBD,F,
Girls,82.33,5,Katie Hogg,West Orange-Stark,81.19,88.45,43.09,115.67,247.21,Single-ply,SBD,F,
Girls,82.33,6,Makenna Meads,Orangefield,78.93,86.18,45.36,90.72,222.26,Single-ply,SBD,F,
Girls,90.04,1,Aris Batts,West Orange-Stark,86.18,142.88,54.43,156.49,353.8,Single-ply,SBD,F,
Girls,100.02,1,Jaida Smith,Orangefield,92.53,77.11,56.7,92.99,226.8,Single-ply,SBD,F,
Girls,100.02,2,Cassie Gordon,Orange Little Cypress-Mauriceville,94.35,56.7,27.22,102.06,185.97,Single-ply,SBD,F,
Girls,100.02,3,Kimberleigh Nix,Orangefield,95.71,79.38,,97.52,176.9,Single-ply,SD,F,
Girls,117.71,1,Evelyn Aldaco,Orange Little Cypress-Mauriceville,109.77,127.01,52.16,124.74,303.91,Single-ply,SBD,F,
Girls,117.71,2,Aliyah Padilla,Silsbee,103.42,113.4,47.63,122.47,283.5,Single-ply,SBD,F,
Girls,117.71,3,Haylee Lebouef,Orange Little Cypress-Mauriceville,102.06,102.06,47.63,113.4,263.08,Single-ply,SBD,F,
Girls,117.71,4,Hannah Sullivan,Orangefield,112.04,97.52,65.77,95.25,258.55,Single-ply,SBD,F,
Girls,117.71,5,Amiyah Davis,Silsbee,116.48,61.23,29.48,102.06,192.78,Single-ply,SBD,F,
Girls,117.71+,1,T'Shyia Evans,Silsbee,147.87,136.08,61.23,142.88,340.19,Single-ply,SBD,F,
Girls,117.71+,2,Nortazia McGhee,West Orange-Stark,129.27,120.2,47.63,149.69,317.51,Single-ply,SBD,F,
