Division,WeightClassKg,Place,Name,Team,BodyweightKg,Best3SquatKg,Best3BenchKg,Best3DeadliftKg,TotalKg,Equipment,Event,Sex,BirthDate
Boys,51.71,1,Isaac Rios,Killeen Ellison,50.35,133.81,83.91,124.74,342.46,Single-ply,SBD,M,
Boys,51.71,2,Amos Sizer,Lago Vista,49.62,97.52,61.23,102.06,260.82,Single-ply,SBD,M,
Boys,51.71,3,Daniel García,Gonzales,49.8,61.23,38.56,95.25,195.04,Single-ply,SBD,M,
Boys,55.79,1,Peyton Way,Lago Vista,55.52,117.93,63.5,129.27,310.71,Single-ply,SBD,M,
Boys,59.87,1,Jarian Green,Killeen Ellison,59.24,136.08,92.99,165.56,394.63,Single-ply,SBD,M,
Boys,59.87,2,Kaius Northcutt,Lago Vista,58.33,120.2,74.84,127.01,322.05,Single-ply,SBD,M,
Boys,59.87,3,Ryan Oliver,Lago Vista,59.87,95.25,47.63,95.25,238.14,Single-ply,SBD,M,
Boys,67.13,1,Bryce Flowers,Rockdale,65.14,183.7,102.06,204.12,489.88,Single-ply,SBD,M,
Boys,67.13,2,Gabe Vargas,Killeen Ellison,66.68,195.04,106.59,172.37,474,Single-ply,SBD,M,
Boys,67.13,3,Ladavon Springs-Hargrove,Waco,66.68,154.22,104.33,172.37,430.91,Single-ply,SBD,M,
Boys,74.84,1,Cesar Matamoros,Gonzales,73.75,217.72,120.2,204.12,542.04,Single-ply,SBD,M,
Boys,74.84,2,Joseph James,Killeen Ellison,74.84,192.78,127.01,195.04,514.83,Single-ply,SBD,M,
Boys,74.84,3,Rafeal Boyd,Killeen Ellison,72.8,163.29,97.52,222.26,483.08,Single-ply,SBD,M,
Boys,74.84,4,DeAndre Reed,Killeen Ellison,71.67,183.7,90.72,183.7,458.13,Single-ply,SBD,M,
Boys,74.84,5,Diego Hernandez,Gonzales,71.67,165.56,90.72,183.7,439.98,Single-ply,SBD,M,
Boys,74.84,6,Evan Coley,Lago Vista,71.49,115.67,65.77,133.81,315.25,Single-ply,SBD,M,
Boys,82.1,1,Konnor Peronto,Killeen Ellison,81.28,199.58,120.2,188.24,508.02,Single-ply,SBD,M,
Boys,82.1,2,Kolby Peronto,Killeen Ellison,81.28,188.24,106.59,195.04,489.88,Single-ply,SBD,M,
Boys,89.81,1,Daniel Gardiner,Rockdale,89.18,197.31,99.79,201.85,498.95,Single-ply,SBD,M,
Boys,89.81,2,Omarion Delao,Waco,87.09,172.37,104.33,172.37,449.06,Single-ply,SBD,M,
Boys,89.81,3,Aiden Hernandez,Gonzales,88.63,181.44,102.06,147.42,430.91,Single-ply,SBD,M,
Boys,89.81,4,Isaiah Bradley,Killeen Ellison,82.83,140.61,90.72,145.15,376.48,Single-ply,SBD,M,
Boys,89.81,DQ,Gabriel Goodman,Rockdale,89.81,74.84,63.5,70.31,,Single-ply,SBD,M,
Boys,99.79,1,Zeke Sheridan,Killeen Ellison,99.16,274.42,140.61,258.55,673.58,Single-ply,SBD,M,
Boys,99.79,2,Darren Paul,Waco,99.25,199.58,124.74,183.7,508.02,Single-ply,SBD,M,
Boys,99.79,3,Matthew Moore,Killeen Ellison,92.99,183.7,108.86,192.78,485.34,Single-ply,SBD,M,
Boys,99.79,4,Layne Thiele,Gonzales,97.61,199.58,122.47,158.76,480.81,Single-ply,SBD,M,
Boys,99.79,5,Terrel Prust,Killeen Ellison,99.79,183.7,117.93,158.76,460.4,Single-ply,SBD,M,
Boys,99.79,6,Tony Reyes,Lago Vista,99.79,165.56,90.72,165.56,421.84,Single-ply,SBD,M,
Boys,99.79,DQ,James Williams,Killeen Ellison,99.34,256.28,129.27,,,Single-ply,SBD,M,
Boys,109.77,1,Gavin Aguilar,Rockdale,108.41,226.8,161.03,192.78,580.6,Single-ply,SBD,M,
Boys,109.77,2,Armando Molina,Killeen Ellison,109.77,226.8,136.08,206.38,569.26,Single-ply,SBD,M,
Boys,109.77,3,Micah Moore,Waco,106.05,158.76,108.86,183.7,451.32,Single-ply,SBD,M,
Boys,109.77,4,Brennen Fuhrman,Lago Vista,109.32,161.03,97.52,179.17,437.72,Single-ply,SBD,M,
Boys,109.77,DQ,Amir Solimon,Killeen Ellison,100.15,226.8,,,,Single-ply,SBD,M,
Boys,124.74,1,Christian Almaguer,Gonzales,118.93,251.74,158.76,226.8,637.3,Single-ply,SBD,M,
Boys,124.74,2,Silvano Reyes,Gonzales,112.94,226.8,147.42,183.7,557.92,Single-ply,SBD,M,
Boys,124.74,3,Logan Itara,Lago Vista,112.4,208.65,111.13,206.38,526.17,Single-ply,SBD,M,
Boys,124.74,4,Rafael Medina,Lago Vista,122.29,199.58,136.08,176.9,512.56,Single-ply,SBD,M,
Boys,124.74,5,Austin Goodman,Rockdale,124.74,183.7,88.45,154.22,426.38,Single-ply,SBD,M,
Boys,124.74,6,Rashawn Conner,Waco,120.84,147.42,83.91,158.76,390.09,Single-ply,SBD,M,
Boys,124.74,7,Isaac Rivera,Waco,116.48,136.08,77.11,131.54,344.73,Single-ply,SBD,M,
Boys,124.74,8,Luke Grant,Waco,117.48,122.47,90.72,129.27,342.46,Single-ply,SBD,M,
Boys,124.74,9,Reginald Porcher,Killeen Ellison,117.03,204.12,120.2,,324.32,Single-ply,SB,M,
Boys,139.71,1,Ryan Gomez,Gonzales,131,265.35,181.44,229.06,675.85,Single-ply,SBD,M,
Boys,139.71,2,Kael Lopez,Gonzales,127.19,192.78,122.47,183.7,498.95,Single-ply,SBD,M,
Boys,139.71,3,Gerardo Garcia,Waco,128.19,149.69,70.31,142.88,362.87,Single-ply,SBD,M,
Boys,139.71+,1,Keanu Ramirez,Killeen Ellison,158.67,272.16,181.44,238.14,691.73,Single-ply,SBD,M,
Boys,139.71+,2,Brett Jahns,Gonzales,151.32,249.48,183.7,226.8,659.98,Single-ply,SBD,M,
Boys,139.71+,3,Jaxson Langford,Killeen Ellison,208.65,247.21,131.54,222.26,601.01,Single-ply,SBD,M,
Boys,,NS,Landon Holub,Gonzales,,,,,,Single-ply,SBD,M,
Boys,,NS,Blake Wright,Gonzales,,,,,,Single-ply,SBD,M,
Boys,,NS,Jessiah Barr,Gonzales,,,,,,Single-ply,SBD,M,
