Division,WeightClassKg,Place,Name,Team,BodyweightKg,Best3SquatKg,Best3BenchKg,Best3DeadliftKg,TotalKg,Equipment,Event,Sex
Girls,44.23,1,Paulina Melendez,Los Fresnos,44.18,99.79,49.9,111.13,260.82,Single-ply,SBD,F
Girls,44.23,2,Keila Griener,Los Fresnos,44.18,72.57,34.02,97.52,204.12,Single-ply,SBD,F
Girls,44.23,3,Destiny Torres,Brownsville Lopez,43.45,81.65,29.48,81.65,192.78,Single-ply,SBD,F
Girls,44.23,4,Estrella Rodriguez #2,Brownsville Lopez,44.23,68.04,20.41,70.31,158.76,Single-ply,SBD,F
Girls,44.23,DQ,Ana Sosa,Brownsville Lopez,41.28,,,,,Single-ply,SBD,F
Girls,44.23,DQ,Brianna De La Rosa,Los Fresnos,43.91,,,,,Single-ply,SBD,F
Girls,44.23,DQ,Charley Moreno,Rio Hondo,43.18,,,,,Single-ply,SBD,F
Girls,47.85,1,Genesis Nava,Edcouch-Elsa,47.85,131.54,56.7,131.54,319.78,Single-ply,SBD,F
Girls,47.85,2,Lorna Camarillo,Los Fresnos,47.67,117.93,61.23,129.27,308.44,Single-ply,SBD,F
Girls,47.85,3,Nadia Rodriguez,Hidalgo Early College,46.4,108.86,70.31,124.74,303.91,Single-ply,SBD,F
Girls,47.85,4,Lexi Davila,Brownsville Lopez,47.76,111.13,68.04,124.74,303.91,Single-ply,SBD,F
Girls,47.85,5,Taljia Borg,Los Fresnos,47.85,106.59,49.9,117.93,274.42,Single-ply,SBD,F
Girls,47.85,6,Salma Caballero,Brownsville Hanna,47.85,111.13,47.63,106.59,265.35,Single-ply,SBD,F
Girls,47.85,7,Anna Marie Rodriguez,Los Fresnos,47.67,92.99,43.09,108.86,244.94,Single-ply,SBD,F
Girls,47.85,8,Clarissa Rivera #1,La Feria,47.81,99.79,34.02,95.25,229.06,Single-ply,SBD,F
Girls,47.85,9,Alexandria Bermudez,Los Fresnos,47.4,86.18,34.02,90.72,210.92,Single-ply,SBD,F
Girls,47.85,10,Annalysa Martinez,Brownsville Pace,46.77,83.91,31.75,90.72,206.38,Single-ply,SBD,F
Girls,47.85,11,Jonissa Scarberry,Harlingen,45.63,74.84,29.48,83.91,188.24,Single-ply,SBD,F
Girls,51.94,1,Viviana Lopez,Port Isabel,50.76,138.35,58.97,129.27,326.59,Single-ply,SBD,F
Girls,51.94,2,Misty Garza,Rio Hondo,50.8,113.4,65.77,136.08,315.25,Single-ply,SBD,F
Girls,51.94,3,Devin Balderama,Los Fresnos,51.62,120.2,65.77,127.01,312.98,Single-ply,SBD,F
Girls,51.94,4,Alexandria Garcia,Los Fresnos,51.8,115.67,54.43,129.27,299.37,Single-ply,SBD,F
Girls,51.94,5,Paloma Lopez,Rio Hondo,50.35,120.2,58.97,102.06,281.23,Single-ply,SBD,F
Girls,51.94,6,Valerie Leija,Los Fresnos,51.57,113.4,45.36,97.52,256.28,Single-ply,SBD,F
Girls,51.94,7,Bianca Gutierrez,Brownsville Hanna,49.17,102.06,49.9,102.06,254.01,Single-ply,SBD,F
Girls,51.94,8,Mitzy Olvera,Brownsville Hanna,48.81,97.52,52.16,88.45,238.14,Single-ply,SBD,F
Girls,51.94,9,Hailey Kopp,Brownsville Hanna,50.58,92.99,52.16,79.38,224.53,Single-ply,SBD,F
Girls,51.94,10,Maya Perez,Los Fresnos,51.62,83.91,38.56,95.25,217.72,Single-ply,SBD,F
Girls,51.94,11,Kimberly Esparza,Edcouch-Elsa,51.26,83.91,38.56,79.38,201.85,Single-ply,SBD,F
Girls,51.94,12,Esthela Gueverra,Harlingen,50.76,65.77,29.48,68.04,163.29,Single-ply,SBD,F
Girls,51.94,13,Yaria Velez,Rio Hondo,50.21,124.74,,,124.74,Single-ply,S,F
Girls,51.94,14,Dana Rodriguez,Brownsville Pace,51.94,102.06,,,102.06,Single-ply,S,F
Girls,56.02,1,Norma Vega,Brownsville Lopez,55.7,181.44,88.45,158.76,428.64,Single-ply,SBD,F
Girls,56.02,2,Diamond Teran,Hidalgo Early College,53.21,142.88,81.65,136.08,360.61,Single-ply,SBD,F
Girls,56.02,3,Jackie Del Molino,Brownsville Veterans Memorial,55.88,124.74,56.7,131.54,312.98,Single-ply,SBD,F
Girls,56.02,4,Kimberly Galarza,Edcouch-Elsa,55.97,120.2,49.9,136.08,306.17,Single-ply,SBD,F
Girls,56.02,5,Julie del Bosque,Rio Hondo,55.34,122.47,61.23,115.67,299.37,Single-ply,SBD,F
Girls,56.02,6,Rosa Perales,Brownsville Hanna,54.52,113.4,56.7,124.74,294.84,Single-ply,SBD,F
Girls,56.02,7,Asia De Leon,Brownsville Pace,56.02,115.67,52.16,124.74,292.57,Single-ply,SBD,F
Girls,56.02,8,Jackie Perez,Port Isabel,54.52,117.93,49.9,117.93,285.76,Single-ply,SBD,F
Girls,56.02,9,Alexandra Davila,Brownsville Pace,54.43,111.13,47.63,113.4,272.16,Single-ply,SBD,F
Girls,56.02,10,EmmaLee Lopez,Raymondville,52.25,111.13,34.02,117.93,263.08,Single-ply,SBD,F
Girls,56.02,11,Leslie Barrera,Brownsville Jubilee,55.79,104.33,45.36,113.4,263.08,Single-ply,SBD,F
Girls,56.02,12,Kayla de la Fuente,La Feria,56.02,99.79,47.63,108.86,256.28,Single-ply,SBD,F
Girls,56.02,13,Clarissa Flores,Los Fresnos,55.93,102.06,43.09,86.18,231.33,Single-ply,SBD,F
Girls,56.02,14,Alexis Garcia #1,Los Fresnos,55.97,90.72,43.09,95.25,229.06,Single-ply,SBD,F
Girls,56.02,15,Leslie Losoya,La Feria,54.75,83.91,36.29,104.33,224.53,Single-ply,SBD,F
Girls,56.02,16,Zelica Avila,Brownsville Jubilee,53.71,61.23,29.48,79.38,170.1,Single-ply,SBD,F
Girls,56.02,17,Abigail Castellanos,Rio Hondo,53.89,122.47,43.09,,165.56,Single-ply,SB,F
Girls,56.02,18,Fabiola Estrada,Brownsville Lopez,55.84,111.13,52.16,,163.29,Single-ply,SB,F
Girls,56.02,19,Geraldina Campos,Edcouch-Elsa,53.3,92.99,,,92.99,Single-ply,S,F
Girls,56.02,20,Yareli Cordova,Los Fresnos,55.75,90.72,,,90.72,Single-ply,S,F
Girls,56.02,21,Nicole Rivera,Brownsville Pace,55.93,90.72,,,90.72,Single-ply,S,F
Girls,56.02,22,Evely Mendez,Brownsville Lopez,54.7,70.31,,,70.31,Single-ply,S,F
Girls,56.02,DQ,Karla Garcia,Brownsville Pace,53.12,,,,,Single-ply,SBD,F
Girls,60.1,1,Julianna Barrera,Port Isabel,57.83,183.7,79.38,158.76,421.84,Single-ply,SBD,F
Girls,60.1,2,Karen Ledezma,Brownsville Hanna,59.92,142.88,79.38,142.88,365.14,Single-ply,SBD,F
Girls,60.1,3,Caydence Castillo,Los Fresnos,60.06,133.81,65.77,136.08,335.66,Single-ply,SBD,F
Girls,60.1,4,Karina Chavez,Brownsville Hanna,60.1,120.2,52.16,111.13,283.5,Single-ply,SBD,F
Girls,60.1,5,Nyssa Hernandez,Los Fresnos,59.92,117.93,49.9,111.13,278.96,Single-ply,SBD,F
Girls,60.1,6,Alondra Razo,Edcouch-Elsa,58.15,108.86,54.43,113.4,276.69,Single-ply,SBD,F
Girls,60.1,7,Jocelyn Guzman,Brownsville Hanna,59.87,111.13,40.82,102.06,254.01,Single-ply,SBD,F
Girls,60.1,8,Pricilla Walle,Brownsville Lopez,60.06,102.06,24.95,120.2,247.21,Single-ply,SBD,F
Girls,60.1,9,Paulina Esquivel,Brownsville Pace,57.97,72.57,47.63,79.38,199.58,Single-ply,SBD,F
Girls,60.1,DQ,Itzel Payan,Brownsville Rivera,57.47,,,,,Single-ply,SBD,F
Girls,67.36,1,Yaritza Mar,Hidalgo Early College,66.09,167.83,88.45,149.69,405.97,Single-ply,SBD,F
Girls,67.36,2,Noemi Gallardo,Brownsville Lopez,63.59,165.56,83.91,129.27,378.75,Single-ply,SBD,F
Girls,67.36,3,Madelyn Galvan,Port Isabel,66.81,161.03,68.04,138.35,367.41,Single-ply,SBD,F
Girls,67.36,4,Sarah Morillion,Los Fresnos,67.13,149.69,68.04,138.35,356.07,Single-ply,SBD,F
Girls,67.36,5,Carolina Hernandez,Brownsville Hanna,66,138.35,70.31,142.88,351.53,Single-ply,SBD,F
Girls,67.36,6,Mikayla Rodriguez,Rio Hondo,64.68,129.27,68.04,149.69,347,Single-ply,SBD,F
Girls,67.36,7,Abby Atkinson,Los Fresnos,66.81,129.27,81.65,133.81,344.73,Single-ply,SBD,F
Girls,67.36,8,Brianna Garcia,Brownsville Pace,66.86,147.42,68.04,115.67,331.12,Single-ply,SBD,F
Girls,67.36,9,Alexa Garcia,Edinburg Vela,67.36,136.08,79.38,113.4,328.85,Single-ply,SBD,F
Girls,67.36,10,Oyuki Minez,Brownsville Porter,66.32,120.2,72.57,131.54,324.32,Single-ply,SBD,F
Girls,67.36,11,Franchesca Sanchez,Los Fresnos,65.73,120.2,63.5,136.08,319.78,Single-ply,SBD,F
Girls,67.36,12,Chantal Macias,Brownsville Hanna,62.32,115.67,68.04,131.54,315.25,Single-ply,SBD,F
Girls,67.36,13,Jocelyn Chavez,Hidalgo Early College,62.01,117.93,58.97,122.47,299.37,Single-ply,SBD,F
Girls,67.36,14,Silvia Gonzalez,Port Isabel,67.36,102.06,65.77,117.93,285.76,Single-ply,SBD,F
Girls,67.36,15,Celeste Rodriguez,Lyford,63.91,124.74,47.63,108.86,281.23,Single-ply,SBD,F
Girls,67.36,16,Yolanda Perez,Brownsville Jubilee,62.01,95.25,40.82,120.2,256.28,Single-ply,SBD,F
Girls,67.36,17,Idali Vasquez,Harlingen South,66.13,88.45,43.09,108.86,240.4,Single-ply,SBD,F
Girls,67.36,18,Jackie Medina,Los Fresnos,66.81,131.54,,,131.54,Single-ply,S,F
Girls,67.36,19,Karen Gonzalez,Brownsville Rivera,64.27,61.23,,,61.23,Single-ply,S,F
Girls,67.36,DQ,Rozee Lopez,Brownsville Lopez,62.6,,,,,Single-ply,SBD,F
Girls,75.07,1,Odalys Jeronimo,Hidalgo Early College,73.44,151.95,79.38,170.1,401.43,Single-ply,SBD,F
Girls,75.07,2,Audrey Waller,Edinburg Vela,68.86,156.49,79.38,149.69,385.55,Single-ply,SBD,F
Girls,75.07,3,Carla Bocanegra,Raymondville,73.62,165.56,72.57,145.15,383.29,Single-ply,SBD,F
Girls,75.07,4,Emily Rodriguez,Los Fresnos,74.89,172.37,56.7,136.08,365.14,Single-ply,SBD,F
Girls,75.07,5,Angela Jimenez,Brownsville Lopez,74.07,149.69,74.84,124.74,349.27,Single-ply,SBD,F
Girls,75.07,6,Saira Castillo,Los Fresnos,70.35,149.69,65.77,131.54,347,Single-ply,SBD,F
Girls,75.07,7,Victoria Alejandra,La Feria,73.16,140.61,54.43,133.81,328.85,Single-ply,SBD,F
Girls,75.07,8,Sydney Fraustro,La Feria,72.71,111.13,49.9,113.4,274.42,Single-ply,SBD,F
Girls,75.07,9,Stephanie Reyes,La Feria,74.48,113.4,56.7,104.33,274.42,Single-ply,SBD,F
Girls,75.07,10,Samantha Perez,Brownsville Hanna,68.27,102.06,63.5,102.06,267.62,Single-ply,SBD,F
Girls,75.07,11,Michelle Zapata,Harlingen,69.17,115.67,40.82,106.59,263.08,Single-ply,SBD,F
Girls,75.07,12,Zoe Contreras,Edcouch-Elsa,73.57,92.99,54.43,99.79,247.21,Single-ply,SBD,F
Girls,75.07,13,Alexa Sanchez,Harlingen,68.67,83.91,34.02,83.91,201.85,Single-ply,SBD,F
Girls,75.07,14,Eylen Ruiz,Brownsville Pace,73.62,188.24,,,188.24,Single-ply,S,F
Girls,75.07,15,Lizette Zuniga,Rio Hondo,71.71,129.27,,,129.27,Single-ply,S,F
Girls,75.07,DQ,Desiree Moncevaiz,Raymondville,72.71,,,,,Single-ply,SBD,F
Girls,75.07,DQ,Mckenzie Contreras,Edcouch-Elsa,74.71,,,,,Single-ply,SBD,F
Girls,75.07,DQ,Delhila Cantu,Edinburg Vela,73.26,,,,,Single-ply,SBD,F
Girls,75.07,DQ,Natalia Marinov,Port Isabel,70.4,,,,,Single-ply,SBD,F
Girls,82.33,1,Virginia Watkins,Edinburg Vela,80.56,172.37,83.91,167.83,424.11,Single-ply,SBD,F
Girls,82.33,2,Anyssa Barrientes,Rio Hondo,82.15,161.03,97.52,165.56,424.11,Single-ply,SBD,F
Girls,82.33,3,Carmen Lainez,Los Fresnos,79.51,183.7,95.25,142.88,421.84,Single-ply,SBD,F
Girls,82.33,4,Hillary Briceno,Brownsville Lopez,79.38,176.9,83.91,138.35,399.16,Single-ply,SBD,F
Girls,82.33,5,Lorely Galvan,Brownsville Pace,77.97,158.76,72.57,158.76,390.09,Single-ply,SBD,F
Girls,82.33,6,Natalie Rivera,Brownsville Pace,76.61,167.83,79.38,127.01,374.21,Single-ply,SBD,F
Girls,82.33,7,Nayeli Lopez,Brownsville Veterans Memorial,78.65,138.35,58.97,133.81,331.12,Single-ply,SBD,F
Girls,82.33,8,Angelina Cervantes,Brownsville Rivera,80.92,124.74,65.77,131.54,322.05,Single-ply,SBD,F
Girls,82.33,9,Angelina Lopez,La Feria,80.6,131.54,58.97,113.4,303.91,Single-ply,SBD,F
Girls,82.33,10,Adriana Cancino,Brownsville Hanna,79.74,124.74,61.23,102.06,288.03,Single-ply,SBD,F
Girls,82.33,11,Glady Castillo,Brownsville Porter,81.51,102.06,65.77,102.06,269.89,Single-ply,SBD,F
Girls,82.33,12,Perla Mercado,Brownsville Porter,80.74,108.86,52.16,104.33,265.35,Single-ply,SBD,F
Girls,82.33,13,Aliyah Torres,Harlingen,79.2,113.4,43.09,102.06,258.55,Single-ply,SBD,F
Girls,82.33,14,Maura Castillo,Brownsville Porter,80.74,106.59,34.02,113.4,254.01,Single-ply,SBD,F
Girls,82.33,15,Karla Mata,Brownsville Rivera,76.29,90.72,34.02,113.4,238.14,Single-ply,SBD,F
Girls,82.33,16,Melissa Lucio,La Feria,81.74,90.72,45.36,90.72,226.8,Single-ply,SBD,F
Girls,90.04,1,Cristina Cortez,Hidalgo Early College,84.37,188.24,83.91,185.97,458.13,Single-ply,SBD,F
Girls,90.04,2,Alyssa Ramirez,La Feria,86.55,188.24,61.23,179.17,428.64,Single-ply,SBD,F
Girls,90.04,3,Alejandra Garcia,Los Fresnos,89.18,163.29,86.18,147.42,396.89,Single-ply,SBD,F
Girls,90.04,4,Victoria Pena,Edcouch-Elsa,86.23,165.56,72.57,147.42,385.55,Single-ply,SBD,F
Girls,90.04,5,Atziry Payan,Brownsville Rivera,85.37,142.88,56.7,136.08,335.66,Single-ply,SBD,F
Girls,90.04,6,Mikaela Snyder,Port Isabel,87.14,145.15,56.7,131.54,333.39,Single-ply,SBD,F
Girls,90.04,7,Gabriella Alejandra,La Feria,82.78,158.76,52.16,117.93,328.85,Single-ply,SBD,F
Girls,90.04,8,Kimberly Luna,Brownsville Pace,88.04,113.4,65.77,136.08,315.25,Single-ply,SBD,F
Girls,90.04,9,Monseratt Aquino,Brownsville Jubilee,83.55,102.06,45.36,108.86,256.28,Single-ply,SBD,F
Girls,90.04,10,Emily Gonzalez,Brownsville Pace,89.72,124.74,,,124.74,Single-ply,S,F
Girls,90.04,DQ,Yadira Zapata,Brownsville Pace,85.14,,,,,Single-ply,SBD,F
Girls,100.02,1,Britney Ibarra,Hidalgo Early College,98.25,190.51,81.65,172.37,444.52,Single-ply,SBD,F
Girls,100.02,2,Krysti Lamas,Edinburg Vela,98.93,199.58,92.99,142.88,435.45,Single-ply,SBD,F
Girls,100.02,3,Irlanda Moreno,Brownsville Veterans Memorial,96.98,174.63,68.04,167.83,410.5,Single-ply,SBD,F
Girls,100.02,4,Kassandra Moreno,Brownsville Porter,97.98,145.15,77.11,154.22,376.48,Single-ply,SBD,F
Girls,100.02,5,Amor Sosa,Rio Hondo,96.43,151.95,61.23,147.42,360.61,Single-ply,SBD,F
Girls,100.02,6,Karina Medina,Brownsville Pace,96.66,145.15,65.77,142.88,353.8,Single-ply,SBD,F
Girls,100.02,7,Crystal Magana,Brownsville Hanna,90.63,149.69,65.77,129.27,344.73,Single-ply,SBD,F
Girls,100.02,8,Yvonne De La Fuente,Brownsville Veterans Memorial,99.52,124.74,47.63,145.15,317.51,Single-ply,SBD,F
Girls,100.02,9,Alexis Garcia #5,Brownsville Veterans Memorial,91.26,90.72,43.09,142.88,276.69,Single-ply,SBD,F
Girls,100.02,DQ,Marleen Salazar,Brownsville Lopez,99.65,,,,,Single-ply,SBD,F
Girls,117.71,1,Karina Martinez,Raymondville,103.65,254.01,117.93,183.7,555.65,Single-ply,SBD,F
Girls,117.71,2,Katya Alfaro,Brownsville Porter,104.33,185.97,86.18,147.42,419.57,Single-ply,SBD,F
Girls,117.71,3,Melani Flores,Hidalgo Early College,102.33,167.83,77.11,167.83,412.77,Single-ply,SBD,F
Girls,117.71,4,Karla Salinas,Edinburg Vela,105.41,174.63,74.84,154.22,403.7,Single-ply,SBD,F
Girls,117.71,5,Desiree Martinez,Raymondville,104.19,183.7,77.11,133.81,394.63,Single-ply,SBD,F
Girls,117.71,6,Casey Najar,Rio Hondo,107.46,145.15,88.45,145.15,378.75,Single-ply,SBD,F
Girls,117.71+,1,Aisha Garcia,Edcouch-Elsa,117.93,195.04,77.11,149.69,421.84,Single-ply,SBD,F
Girls,,NS,Jennifer Martinez #5,Edcouch-Elsa,,,,,,Single-ply,SBD,F
Girls,,NS,Brianda Alejandro,Edcouch-Elsa,,,,,,Single-ply,SBD,F
Girls,,NS,Iliana Gamez,Edinburg Vela,,,,,,Single-ply,SBD,F
Girls,,NS,Paula Guerrero,Brownsville Veterans Memorial,,,,,,Single-ply,SBD,F
Girls,,NS,Deena Flores,Edcouch-Elsa,,,,,,Single-ply,SBD,F
Girls,,NS,Arecelia Villalon,Brownsville Rivera,,,,,,Single-ply,SBD,F
Girls,,NS,Valerie Garcia,Brownsville Rivera,,,,,,Single-ply,SBD,F
Girls,,NS,Amanda Hernandez,Edinburg Vela,,,,,,Single-ply,SBD,F
Girls,,NS,Alexa Torres,Harlingen,,,,,,Single-ply,SBD,F
Girls,,NS,Jamileth Davila,Hidalgo Early College,,,,,,Single-ply,SBD,F
Girls,,NS,Dailyn Ricaldy,La Feria,,,,,,Single-ply,SBD,F
Girls,,NS,Corina Arizmendi,Brownsville Jubilee,,,,,,Single-ply,SBD,F
