Division,WeightClassKg,Place,Name,Team,BodyweightKg,Best3SquatKg,Best3BenchKg,Best3DeadliftKg,TotalKg,Equipment,Event,Sex,BirthDate
Girls,44.23,1,Maddie Crebbs,Tyler Legacy,43.32,92.99,43.09,102.06,238.14,Single-ply,SBD,F,
Girls,44.23,2,Mia Carr,Crandall,42.77,52.16,27.22,86.18,165.56,Single-ply,SBD,F,
Girls,44.23,3,Czhela Moya,Sulphur Springs,42.86,65.77,29.48,70.31,165.56,Single-ply,SBD,F,
Girls,44.23,4,Trinity Sickles,Sulphur Springs,43.95,43.09,24.95,77.11,145.15,Single-ply,SBD,F,
Girls,47.85,1,Miya Simmons,Royse City,47.17,111.13,54.43,122.47,288.03,Single-ply,SBD,F,
Girls,47.85,2,Sally Green,Greenville,46.18,111.13,36.29,102.06,249.48,Single-ply,SBD,F,
Girls,47.85,3,Danielle Calderon,Forney,47.13,79.38,43.09,102.06,224.53,Single-ply,SBD,F,
Girls,47.85,4,Ashley Allison,Greenville,45.45,79.38,29.48,79.38,188.24,Single-ply,SBD,F,
Girls,47.85,5,Sofia Underwood,Forney,47.31,70.31,43.09,70.31,183.7,Single-ply,SBD,F,
Girls,47.85,6,Grace Lopez,Midlothian,45.09,65.77,36.29,61.23,163.29,Single-ply,SBD,F,
Girls,47.85,7,Kaci Brannon,Royse City,46.13,38.56,24.95,70.31,133.81,Single-ply,SBD,F,
Girls,47.85,DQ,Nathaly Martinez,Jacksonville,45.31,,,,,Single-ply,SBD,F,
Girls,51.94,1,Halie Hanks,Whitehouse,51.35,113.4,70.31,120.2,303.91,Single-ply,SBD,F,
Girls,51.94,2,Trinity Hudgins,Whitehouse,51.48,102.06,79.38,108.86,290.3,Single-ply,SBD,F,
Girls,51.94,3,Mia Zuniga,Tyler Legacy,50.98,120.2,38.56,111.13,269.89,Single-ply,SBD,F,
Girls,51.94,4,Alaila Allen,Marshall,49.8,102.06,45.36,113.4,260.82,Single-ply,SBD,F,
Girls,51.94,5,Arlette DeJesus,Mount Pleasant,50.89,99.79,40.82,106.59,247.21,Single-ply,SBD,F,
Girls,51.94,6,Rachell Rodriguez,Whitehouse,49.12,86.18,54.43,90.72,231.33,Single-ply,SBD,F,
Girls,51.94,7,Joshlyn Paloblanco,Mount Pleasant,50.39,77.11,36.29,99.79,213.19,Single-ply,SBD,F,
Girls,51.94,8,Mia Johnston,Forney,50.12,77.11,36.29,77.11,190.51,Single-ply,SBD,F,
Girls,51.94,9,Abby Canada,Crandall,48.9,56.7,38.56,81.65,176.9,Single-ply,SBD,F,
Girls,51.94,DQ,Stephanie Caminos,Royse City,49.08,47.63,,,,Single-ply,SBD,F,
Girls,51.94,NS,Xitlaly Morales,Tyler,,,,,,Single-ply,SBD,F,
Girls,56.02,1,Reese Roberts,Whitehouse,54.43,129.27,81.65,127.01,337.93,Single-ply,SBD,F,
Girls,56.02,2,Tionna Lewis,Longview Pine Tree,54.98,120.2,61.23,133.81,315.25,Single-ply,SBD,F,
Girls,56.02,3,Beatriz Garcia,Waxahachie,54.02,129.27,70.31,108.86,308.44,Single-ply,SBD,F,
Girls,56.02,4,Kira Jimmerson,Whitehouse,55.47,111.13,61.23,111.13,283.5,Single-ply,SBD,F,
Girls,56.02,5,Katherine Henke,Huntsville,55.2,102.06,65.77,113.4,281.23,Single-ply,SBD,F,
Girls,56.02,6,Libby Flores,Lufkin,55.97,104.33,47.63,124.74,276.69,Single-ply,SBD,F,
Girls,56.02,7,Jaden Tanner,Forney,54.88,104.33,45.36,102.06,251.74,Single-ply,SBD,F,
Girls,56.02,8,Braylee Glasscock,Whitehouse,53.16,86.18,47.63,99.79,233.6,Single-ply,SBD,F,
Girls,56.02,9,Bonnie Bartlett,Midlothian,55.97,83.91,40.82,90.72,215.46,Single-ply,SBD,F,
Girls,56.02,10,Lacey Fudge,Forney,53.98,83.91,43.09,79.38,206.38,Single-ply,SBD,F,
Girls,56.02,11,Mackenzie Martin,Hallsville,55.38,83.91,38.56,83.91,206.38,Single-ply,SBD,F,
Girls,56.02,12,Addie Contreras,Tyler Legacy,56.02,77.11,29.48,86.18,192.78,Single-ply,SBD,F,
Girls,56.02,13,Kenia Herrera,Sulphur Springs,54.02,72.57,36.29,81.65,190.51,Single-ply,SBD,F,
Girls,56.02,DQ,Tinique Goudeau,Marshall,54.52,104.33,45.36,,,Single-ply,SBD,F,
Girls,60.1,1,Meredith Williams,Greenville,56.34,131.54,68.04,122.47,322.05,Single-ply,SBD,F,
Girls,60.1,2,Rylie Francis,Whitehouse,60.01,120.2,65.77,120.2,306.17,Single-ply,SBD,F,
Girls,60.1,3,Mariana Gonzalez,Mount Pleasant,60.06,117.93,52.16,129.27,299.37,Single-ply,SBD,F,
Girls,60.1,4,Are'anna Gill,Marshall,56.52,117.93,49.9,124.74,292.57,Single-ply,SBD,F,
Girls,60.1,5,Alexandra Martinez,Mount Pleasant,57.15,122.47,56.7,113.4,292.57,Single-ply,SBD,F,
Girls,60.1,6,Wendy Silva,Midlothian,57.42,108.86,56.7,117.93,283.5,Single-ply,SBD,F,
Girls,60.1,7,Brooklyn Hunter,Jacksonville,59.87,113.4,54.43,115.67,283.5,Single-ply,SBD,F,
Girls,60.1,8,Noelle Feiden,Whitehouse,57.83,113.4,43.09,120.2,276.69,Single-ply,SBD,F,
Girls,60.1,9,Madi Hammond,Tyler Legacy,60.06,102.06,52.16,113.4,267.62,Single-ply,SBD,F,
Girls,60.1,10,Bree Hodges,Lufkin,58.83,99.79,47.63,111.13,258.55,Single-ply,SBD,F,
Girls,60.1,11,Vanessa Cervantes,Corsicana,58.01,99.79,49.9,102.06,251.74,Single-ply,SBD,F,
Girls,60.1,DQ,Bailee Hubbard,Royse City,58.01,106.59,,,,Single-ply,SBD,F,
Girls,60.1,DQ,Addyson Lamb,Sulphur Springs,59.01,104.33,52.16,,,Single-ply,SBD,F,
Girls,67.36,1,Britany Westbrook,Jacksonville,61.42,113.4,88.45,136.08,337.93,Single-ply,SBD,F,
Girls,67.36,2,Ashlyn Brooks,Mount Pleasant,65.14,138.35,54.43,145.15,337.93,Single-ply,SBD,F,
Girls,67.36,3,Jaden Thrasher,Forney,67.31,140.61,70.31,120.2,331.12,Single-ply,SBD,F,
Girls,67.36,4,Madeline Hodges,Midlothian,61.87,113.4,56.7,136.08,306.17,Single-ply,SBD,F,
Girls,67.36,5,Ashley Watt,Longview Pine Tree,62.69,113.4,70.31,115.67,299.37,Single-ply,SBD,F,
Girls,67.36,6,Chadea Gipson,Longview Pine Tree,65.73,117.93,61.23,120.2,299.37,Single-ply,SBD,F,
Girls,67.36,7,Paige Purkey,Royse City,65.86,113.4,58.97,113.4,285.76,Single-ply,SBD,F,
Girls,67.36,8,Elizabeth Lockett,Mount Pleasant,66.27,115.67,43.09,117.93,276.69,Single-ply,SBD,F,
Girls,67.36,9,Jacklyn Wenzel,Royse City,60.83,108.86,45.36,113.4,267.62,Single-ply,SBD,F,
Girls,67.36,10,Erin Lamas,Whitehouse,66.27,113.4,56.7,95.25,265.35,Single-ply,SBD,F,
Girls,67.36,11,Samantha Mendoza,Corsicana,65.32,102.06,47.63,111.13,260.82,Single-ply,SBD,F,
Girls,67.36,12,Cassidy Londrum,Huntsville,65.95,97.52,52.16,102.06,251.74,Single-ply,SBD,F,
Girls,67.36,13,Rorie Young,Sulphur Springs,64.41,81.65,47.63,113.4,242.67,Single-ply,SBD,F,
Girls,67.36,14,Addie Jones,Tyler Legacy,64.18,90.72,36.29,95.25,222.26,Single-ply,SBD,F,
Girls,67.36,NS,Eniyah Watson,Tyler,,,,,,Single-ply,SBD,F,
Girls,75.07,1,Jalissa Alvarez,Mount Pleasant,70.31,142.88,56.7,145.15,344.73,Single-ply,SBD,F,
Girls,75.07,2,Kristen Gonzalez,Jacksonville,72.76,133.81,65.77,127.01,326.59,Single-ply,SBD,F,
Girls,75.07,3,Brittany Morales,Greenville,73.84,133.81,52.16,138.35,324.32,Single-ply,SBD,F,
Girls,75.07,4,Madison DeLeon,Midlothian,73.71,131.54,79.38,111.13,322.05,Single-ply,SBD,F,
Girls,75.07,5,Ryan Barnett,Crandall,73.57,122.47,63.5,133.81,319.78,Single-ply,SBD,F,
Girls,75.07,6,Chloe Steber,Longview Pine Tree,68.76,127.01,54.43,117.93,299.37,Single-ply,SBD,F,
Girls,75.07,7,Alauryn Morgan,Longview Pine Tree,72.12,108.86,65.77,124.74,299.37,Single-ply,SBD,F,
Girls,75.07,8,Taiz Hawkins,Corsicana,72.08,113.4,61.23,120.2,294.84,Single-ply,SBD,F,
Girls,75.07,9,Zoe Elliot,Longview Pine Tree,72.53,129.27,52.16,102.06,283.5,Single-ply,SBD,F,
Girls,75.07,10,Grace Enright,Whitehouse,67.54,102.06,58.97,120.2,281.23,Single-ply,SBD,F,
Girls,75.07,11,Meredith Fisher,Longview Pine Tree,73.39,111.13,61.23,108.86,281.23,Single-ply,SBD,F,
Girls,75.07,12,Destini Vance,Royse City,69.85,95.25,63.5,108.86,267.62,Single-ply,SBD,F,
Girls,75.07,13,Wendy Esquivel,Marshall,67.4,104.33,45.36,113.4,263.08,Single-ply,SBD,F,
Girls,82.33,1,Nayelli Jaimes,Mount Pleasant,77.2,167.83,63.5,149.69,381.02,Single-ply,SBD,F,
Girls,82.33,2,Aspen Holm,Royse City,76.97,136.08,83.91,140.61,360.61,Single-ply,SBD,F,
Girls,82.33,3,Christiana James,Hallsville,80.6,127.01,77.11,136.08,340.19,Single-ply,SBD,F,
Girls,82.33,4,Raela Spratling,Marshall,76.34,133.81,61.23,131.54,326.59,Single-ply,SBD,F,
Girls,82.33,5,Allison Ramsey,Midlothian,79.33,120.2,68.04,117.93,306.17,Single-ply,SBD,F,
Girls,82.33,6,McKinsee Oviedo,Mount Pleasant,76.43,127.01,49.9,127.01,303.91,Single-ply,SBD,F,
Girls,82.33,7,Jenna Cook,Mount Pleasant,77.02,124.74,52.16,111.13,288.03,Single-ply,SBD,F,
Girls,82.33,8,Jacqueline Martinez,Corsicana,79.97,120.2,52.16,111.13,283.5,Single-ply,SBD,F,
Girls,82.33,9,Jiara McCarty,Longview Pine Tree,79.88,113.4,56.7,106.59,276.69,Single-ply,SBD,F,
Girls,82.33,10,Jordan Garcia #2,Crandall,80.6,99.79,40.82,104.33,244.94,Single-ply,SBD,F,
Girls,82.33,11,Tiffany Thomas,Royse City,76.11,74.84,36.29,111.13,222.26,Single-ply,SBD,F,
Girls,82.33,12,Makenley Chandler,Texarkana Texas,78.88,81.65,36.29,102.06,219.99,Single-ply,SBD,F,
Girls,82.33,DQ,Maria Vasquez,Marshall,75.3,,,,,Single-ply,SBD,F,
Girls,90.04,1,Samira Matlock,Tyler Legacy,87.18,167.83,65.77,133.81,367.41,Single-ply,SBD,F,
Girls,90.04,2,Junie Harry,Corsicana,84.82,124.74,70.31,158.76,353.8,Single-ply,SBD,F,
Girls,90.04,3,Patience Crook,Forney,86.5,142.88,79.38,117.93,340.19,Single-ply,SBD,F,
Girls,90.04,4,Mallory Armstrong,Longview Pine Tree,83.64,133.81,72.57,113.4,319.78,Single-ply,SBD,F,
Girls,90.04,5,Kodi Loper,Midlothian,85.87,117.93,72.57,124.74,315.25,Single-ply,SBD,F,
Girls,90.04,6,Camille Dworaczyk,Whitehouse,89.45,120.2,77.11,113.4,310.71,Single-ply,SBD,F,
Girls,90.04,7,Taylor Harris,Tyler Legacy,86.64,122.47,49.9,122.47,294.84,Single-ply,SBD,F,
Girls,90.04,8,Emilia Ray,Longview Pine Tree,86.77,117.93,68.04,104.33,290.3,Single-ply,SBD,F,
Girls,90.04,9,Grace Aguilar,Longview Pine Tree,85.37,97.52,65.77,102.06,265.35,Single-ply,SBD,F,
Girls,90.04,10,Dixie Dowling,Jacksonville,83.64,90.72,56.7,90.72,238.14,Single-ply,SBD,F,
Girls,90.04,11,Markida Hood,Sulphur Springs,84.59,99.79,47.63,90.72,238.14,Single-ply,SBD,F,
Girls,90.04,12,Mollie Johnson,Texarkana Texas,85.09,92.99,43.09,90.72,226.8,Single-ply,SBD,F,
Girls,90.04,DQ,Trinity Hicks,Royse City,89.45,90.72,36.29,,,Single-ply,SBD,F,
Girls,100.02,1,Jia Lewis,Longview Pine Tree,97.43,190.51,104.33,154.22,449.06,Single-ply,SBD,F,
Girls,100.02,2,Mariza Paez,Texarkana Texas,96.39,165.56,68.04,149.69,383.29,Single-ply,SBD,F,
Girls,100.02,3,Lexi Chandler,Waxahachie,98.43,136.08,81.65,131.54,349.27,Single-ply,SBD,F,
Girls,100.02,4,Lindsay McManus,Ennis,92.76,145.15,72.57,129.27,347,Single-ply,SBD,F,
Girls,100.02,5,Learondra Reese,Marshall,92.53,145.15,54.43,142.88,342.46,Single-ply,SBD,F,
Girls,100.02,6,Angelica Arcos,Longview Pine Tree,95.93,142.88,61.23,120.2,324.32,Single-ply,SBD,F,
Girls,100.02,7,Shy McKenzie,Midlothian,96.89,108.86,70.31,145.15,324.32,Single-ply,SBD,F,
Girls,100.02,8,Kate Garza,Lufkin,90.81,111.13,56.7,124.74,292.57,Single-ply,SBD,F,
Girls,100.02,9,Madelyne Barkley,Longview Pine Tree,96.12,115.67,58.97,113.4,288.03,Single-ply,SBD,F,
Girls,100.02,10,Maggie Urbasci,Crandall,96.62,106.59,54.43,127.01,288.03,Single-ply,SBD,F,
Girls,100.02,11,Sheyna Zamarron,Crandall,93.76,113.4,52.16,104.33,269.89,Single-ply,SBD,F,
Girls,100.02,12,Elizabeth Stevens,North Forney,96.75,86.18,47.63,113.4,247.21,Single-ply,SBD,F,
Girls,100.02,13,Dainyra Pelaez,Crandall,92.99,83.91,31.75,99.79,215.46,Single-ply,SBD,F,
Girls,117.71,1,Asia Burnley,Tyler Legacy,109.72,181.44,83.91,172.37,437.72,Single-ply,SBD,F,
Girls,117.71,2,Abby Larry,Crandall,102.06,156.49,63.5,158.76,378.75,Single-ply,SBD,F,
Girls,117.71,3,Haley Gardella,Royse City,105.23,124.74,81.65,136.08,342.46,Single-ply,SBD,F,
Girls,117.71,4,Cheyenne Etheridge,Longview Pine Tree,106.64,149.69,74.84,115.67,340.19,Single-ply,SBD,F,
Girls,117.71,5,Brooklyn Irby,Crandall,110.45,136.08,61.23,122.47,319.78,Single-ply,SBD,F,
Girls,117.71,6,Gloria Jaramillo,Hallsville,114.44,83.91,61.23,136.08,281.23,Single-ply,SBD,F,
Girls,117.71,7,Cara Palmer,Royse City,113.08,102.06,52.16,122.47,276.69,Single-ply,SBD,F,
Girls,117.71,8,Camila Hernandez,Waxahachie,100.06,124.74,40.82,102.06,267.62,Single-ply,SBD,F,
Girls,117.71,9,Reese Offutt,Sulphur Springs,106.46,88.45,47.63,102.06,238.14,Single-ply,SBD,F,
Girls,117.71+,1,India Banks-Bray,Royse City,119.75,183.7,108.86,158.76,451.32,Single-ply,SBD,F,
Girls,117.71+,2,Machelle Allen,Sulphur Springs,121.93,170.1,63.5,145.15,378.75,Single-ply,SBD,F,
Girls,117.71+,3,Jaydyn Martin,Tyler,117.93,167.83,68.04,140.61,376.48,Single-ply,SBD,F,
Girls,117.71+,4,Javin Crawford,Crandall,129.68,136.08,72.57,145.15,353.8,Single-ply,SBD,F,
Girls,117.71+,5,Maria Ruiz,Corsicana,123.2,133.81,65.77,136.08,335.66,Single-ply,SBD,F,
Girls,117.71+,6,Madison Wright,Marshall,121.47,138.35,52.16,138.35,328.85,Single-ply,SBD,F,
Girls,117.71+,7,Mia Hernandez,Waxahachie,152.36,140.61,52.16,136.08,328.85,Single-ply,SBD,F,
Girls,117.71+,8,Hannah Manning,Royse City,122.88,108.86,72.57,131.54,312.98,Single-ply,SBD,F,
Girls,117.71+,9,Peyton Hubbard,Royse City,120.34,129.27,65.77,113.4,308.44,Single-ply,SBD,F,
Girls,117.71+,10,Jocelyn Stafford,Whitehouse,140.48,95.25,70.31,111.13,276.69,Single-ply,SBD,F,
Girls,117.71+,11,Cristal Ponce,Jacksonville,125.06,106.59,49.9,113.4,269.89,Single-ply,SBD,F,
Girls,117.71+,12,Madison Lene,Crandall,118.02,65.77,36.29,63.5,165.56,Single-ply,SBD,F,
