Division,WeightClassKg,Place,Name,Team,BodyweightKg,Best3SquatKg,Best3BenchKg,Best3DeadliftKg,TotalKg,Equipment,Event,Sex,BirthDate
Boys,51.71,1,Derrick Dominguez,Center Point,51.71,120.2,74.84,129.27,324.32,Single-ply,SBD,M,
Boys,55.79,1,Braden Watson,Comfort,55.43,127.01,68.04,145.15,340.19,Single-ply,SBD,M,
Boys,55.79,2,Misael Hernandez,Rocksprings,55.34,122.47,65.77,120.2,308.44,Single-ply,SBD,M,
Boys,55.79,3,Braeden Martin,Rocksprings,55.34,88.45,56.7,102.06,247.21,Single-ply,SBD,M,
Boys,67.13,1,Sammy Bustamante,Center Point,66.77,199.58,108.86,188.24,496.68,Single-ply,SBD,M,
Boys,67.13,2,Jude Hueber,Center Point,66.86,142.88,81.65,151.95,376.48,Single-ply,SBD,M,
Boys,74.84,1,Adrian Mata,Rocksprings,74.39,197.31,92.99,208.65,498.95,Single-ply,SBD,M,
Boys,82.1,1,Beau Hernandez,Rocksprings,81.92,170.1,102.06,183.7,455.86,Single-ply,SBD,M,
Boys,82.1,2,Eddie Flemma,Center Point,76.66,129.27,86.18,140.61,356.07,Single-ply,SBD,M,
Boys,82.1,DQ,Tap Shanklin,Rocksprings,81.65,,,,,Single-ply,SBD,M,
Boys,89.81,1,Bruno Munoz,Rocksprings,88.9,124.74,56.7,131.54,312.98,Single-ply,SBD,M,
Boys,99.79,1,Austin Barrera,Rocksprings,92.99,242.67,113.4,206.38,562.45,Single-ply,SBD,M,
Boys,99.79,2,Jake Laque,Center Point,97.07,208.65,124.74,197.31,530.7,Single-ply,SBD,M,
Boys,99.79,3,Roberto Rivas,Rocksprings,91.17,206.38,83.91,213.19,503.49,Single-ply,SBD,M,
Boys,99.79,4,Kyle Sanders,Rocksprings,99.34,204.12,95.25,165.56,464.93,Single-ply,SBD,M,
Boys,109.77,1,Kevin Ceniceros,Center Point,102.51,231.33,127.01,204.12,562.45,Single-ply,SBD,M,
Boys,109.77,2,Jacob Palacio,Rocksprings,109.32,215.46,124.74,215.46,555.65,Single-ply,SBD,M,
Boys,109.77,3,Jadon Dobbins,Rocksprings,109.13,122.47,61.23,113.4,297.1,Single-ply,SBD,M,
Boys,139.71,1,Martin Hernandez,Comfort,126.1,215.46,92.99,215.46,523.9,Single-ply,SBD,M,
Boys,139.71+,1,Dorien Enriquez,Rocksprings,149.69,226.8,151.95,240.4,619.15,Single-ply,SBD,M,
Boys,139.71+,2,Leandro Gonzales,Rocksprings,147.42,233.6,111.13,233.6,578.33,Single-ply,SBD,M,
