Division,WeightClassKg,Place,Name,Team,BodyweightKg,Best3SquatKg,Best3BenchKg,Best3DeadliftKg,TotalKg,Equipment,Event,Sex,BirthDate
Boys,51.71,1,Kody Tanimoto,Keller Central,46.72,92.99,61.23,70.31,224.53,Single-ply,SBD,M,
Boys,51.71,DQ,Brady Parker,Keller Central,51.26,61.23,31.75,61.23,,Single-ply,SBD,M,
Boys,55.79,1,LaHarrol Mitchell,Keller Central,55.61,113.4,70.31,124.74,308.44,Single-ply,SBD,M,
Boys,67.13,1,Jayden Wahlquist,Keller Central,67.04,165.56,95.25,170.1,430.91,Single-ply,SBD,M,
Boys,67.13,DQ,Bayne Christian,Keller Central,62.23,124.74,83.91,142.88,,Single-ply,SBD,M,
Boys,67.13,DQ,Caden Pogue,Keller Central,64.86,124.74,70.31,142.88,,Single-ply,SBD,M,
Boys,74.84,1,Benecio Swann,Keller Central,74.21,204.12,111.13,210.92,526.17,Single-ply,SBD,M,
Boys,74.84,2,Justin Huynh,Keller Central,70.49,158.76,99.79,174.63,433.18,Single-ply,SBD,M,
Boys,74.84,3,Daniel Scherer,Keller Central,71.76,170.1,86.18,163.29,419.57,Single-ply,SBD,M,
Boys,74.84,4,Tj Burphy,Keller Central,73.03,147.42,83.91,170.1,401.43,Single-ply,SBD,M,
Boys,74.84,5,Casey Britton,Keller Timber Creek,73.48,136.08,86.18,154.22,376.48,Single-ply,SBD,M,
Boys,82.1,1,Carter Shell,Keller Timber Creek,81.65,233.6,151.95,195.04,580.6,Single-ply,SBD,M,
Boys,82.1,2,Josh Compton,Keller Timber Creek,81.65,210.92,145.15,192.78,548.85,Single-ply,SBD,M,
Boys,82.1,3,Jack Estill,Keller Central,76.93,192.78,136.08,176.9,505.76,Single-ply,SBD,M,
Boys,89.81,1,Nathan Moreno,Keller Timber Creek,86.45,142.88,86.18,127.01,356.07,Single-ply,SBD,M,
Boys,89.81,DQ,Aaron Niblet,Keller Timber Creek,88.9,158.76,102.06,113.4,,Single-ply,SBD,M,
Boys,89.81,DQ,Sanders Tyquintin,Keller Timber Creek,89.45,142.88,92.99,183.7,,Single-ply,SBD,M,
Boys,89.81,DQ,Felipe Silva,Keller Central,87.36,185.97,104.33,174.63,,Single-ply,SBD,M,
Boys,99.79,1,Tyler Balsarick,Keller Central,95.62,226.8,149.69,219.99,596.47,Single-ply,SBD,M,
Boys,99.79,2,Tyler Adams,Keller Central,98.7,195.04,102.06,183.7,480.81,Single-ply,SBD,M,
Boys,99.79,3,Ysidro Salas,Keller Central,93.8,170.1,106.59,163.29,439.98,Single-ply,SBD,M,
Boys,99.79,4,Josh Carter,Keller Central,95.35,147.42,79.38,142.88,369.68,Single-ply,SBD,M,
Boys,99.79,DQ,Matthew Nowak,Keller Timber Creek,99.79,136.08,65.77,102.06,,Single-ply,SBD,M,
Boys,109.77,1,JT Sleeper,Keller Central,107.5,260.82,158.76,195.04,614.62,Single-ply,SBD,M,
Boys,109.77,DQ,Gregory Delano,Keller Timber Creek,109.77,113.4,79.38,102.06,,Single-ply,SBD,M,
Boys,109.77,DQ,Jett Lund,Keller Timber Creek,104.78,192.78,79.38,113.4,,Single-ply,SBD,M,
Boys,124.74,1,Blake Hines,Keller Central,124.74,195.04,129.27,170.1,494.42,Single-ply,SBD,M,
Boys,124.74,2,Brady Smith,Keller Central,123.47,185.97,111.13,163.29,460.4,Single-ply,SBD,M,
Boys,124.74,3,Landers Foster,Keller Timber Creek,124.47,124.74,90.72,113.4,328.85,Single-ply,SBD,M,
Boys,124.74,DQ,Edwin Martinez,Keller Timber Creek,119.2,179.17,79.38,113.4,,Single-ply,SBD,M,
Boys,124.74,DQ,Caden Curlee,Keller Timber Creek,123.1,158.76,108.86,102.06,,Single-ply,SBD,M,
Boys,124.74,DQ,Escobar Aaron,Keller Timber Creek,119.2,88.45,61.23,83.91,,Single-ply,SBD,M,
Boys,139.71,1,Reagan Wade,Keller Timber Creek,128.91,219.99,124.74,158.76,503.49,Single-ply,SBD,M,
Boys,139.71,2,Skyler Valdez,Keller Timber Creek,131.9,215.46,113.4,136.08,464.93,Single-ply,SBD,M,
Boys,139.71,DQ,Sam Mackey,Keller Timber Creek,128.37,147.42,79.38,113.4,,Single-ply,SBD,M,
