Division,WeightClassKg,Place,Name,Team,BodyweightKg,Best3SquatKg,Best3BenchKg,Best3DeadliftKg,TotalKg,Equipment,Event,Sex,BirthDate
Girls,44.23,1,Austyn Hance,Azle,41.5,97.52,40.82,102.06,240.4,Single-ply,SBD,F,
Girls,44.23,2,Evelyn Bush,Wylie,42.86,92.99,47.63,99.79,240.4,Single-ply,SBD,F,
Girls,44.23,3,Alexis Mitchell,Wylie,43.64,90.72,56.7,90.72,238.14,Single-ply,SBD,F,
Girls,44.23,4,Elizabeth Ayala,Wylie East,40.42,70.31,36.29,86.18,192.78,Single-ply,SBD,F,
Girls,44.23,5,Emma McLemore,Denison,44.23,68.04,43.09,70.31,181.44,Single-ply,SBD,F,
Girls,44.23,6,Samantha Vasquez,Everman,38.33,61.23,27.22,83.91,172.37,Single-ply,SBD,F,
Girls,44.23,7,Nancy Gomez,Saginaw,43.45,63.5,27.22,74.84,165.56,Single-ply,SBD,F,
Girls,47.85,1,Avery Quiroga,Wylie,47.49,113.4,56.7,120.2,290.3,Single-ply,SBD,F,
Girls,47.85,2,Ryan Buckner,Prosper,46.45,115.67,61.23,111.13,288.03,Single-ply,SBD,F,
Girls,47.85,3,Jennifer Muniz,Sherman,47.08,106.59,54.43,117.93,278.96,Single-ply,SBD,F,
Girls,47.85,4,Sydney Duvall,Prosper,45.63,106.59,56.7,97.52,260.82,Single-ply,SBD,F,
Girls,47.85,5,Ashley Colucci,Denison,47.49,88.45,47.63,108.86,244.94,Single-ply,SBD,F,
Girls,47.85,6,Natalie Crim,Wylie,47.81,88.45,47.63,95.25,231.33,Single-ply,SBD,F,
Girls,47.85,7,Liya Henok,Wylie,47.85,72.57,52.16,102.06,226.8,Single-ply,SBD,F,
Girls,47.85,8,Kirin Parikh,Frisco Liberty,46.81,58.97,27.22,74.84,161.03,Single-ply,SBD,F,
Girls,47.85,9,Natalie Wilson,Frisco Liberty,45.86,58.97,29.48,54.43,142.88,Single-ply,SBD,F,
Girls,47.85,10,Gwendolyn Morales,Everman,46.54,52.16,20.41,70.31,142.88,Single-ply,SBD,F,
Girls,47.85,DQ,Christina Deschenes,Bishop Lynch,46.08,68.04,,,,Single-ply,SBD,F,
Girls,51.94,1,Natalie Walker,Princeton,51.07,147.42,83.91,147.42,378.75,Single-ply,SBD,F,
Girls,51.94,2,Aya Laaziz,Wylie,50.8,122.47,63.5,124.74,310.71,Single-ply,SBD,F,
Girls,51.94,3,Ellington Owen,Azle,51.94,115.67,52.16,115.67,283.5,Single-ply,SBD,F,
Girls,51.94,4,Aza Nela,Everman,51.66,115.67,52.16,113.4,281.23,Single-ply,SBD,F,
Girls,51.94,5,Mackenzie Benton,Azle,50.85,102.06,61.23,113.4,276.69,Single-ply,SBD,F,
Girls,51.94,6,Cassidy Watson,Wylie,51.71,117.93,49.9,108.86,276.69,Single-ply,SBD,F,
Girls,51.94,7,Kylie Pizzurro,Prosper,49.4,102.06,56.7,97.52,256.28,Single-ply,SBD,F,
Girls,51.94,8,Hailey Bellamy,Wylie,51.8,102.06,43.09,106.59,251.74,Single-ply,SBD,F,
Girls,51.94,9,Chloe Shackelford,Weatherford,49.9,102.06,47.63,95.25,244.94,Single-ply,SBD,F,
Girls,51.94,10,Lorelai Turner,Little Elm,51.3,97.52,47.63,97.52,242.67,Single-ply,SBD,F,
Girls,51.94,11,Yulissa Solis,Azle,51.75,95.25,47.63,95.25,238.14,Single-ply,SBD,F,
Girls,51.94,12,Katy Conwell,Azle,50.98,95.25,40.82,95.25,231.33,Single-ply,SBD,F,
Girls,51.94,13,Agape Nebiyu,Wylie,51.85,86.18,49.9,90.72,226.8,Single-ply,SBD,F,
Girls,56.02,1,Kaylan Ghafoor,Wylie,55.79,156.49,86.18,158.76,401.43,Single-ply,SBD,F,
Girls,56.02,2,Hannah Ray,Wylie,55.47,131.54,68.04,145.15,344.73,Single-ply,SBD,F,
Girls,56.02,3,Saniah Rivera,Wylie,55.16,136.08,61.23,142.88,340.19,Single-ply,SBD,F,
Girls,56.02,4,Riley McKelvain,Azle,54.79,117.93,65.77,124.74,308.44,Single-ply,SBD,F,
Girls,56.02,5,Samantha Schwarz,Wylie,55.47,122.47,54.43,124.74,301.64,Single-ply,SBD,F,
Girls,56.02,6,Tatum Gehring,Wylie,55.7,117.93,70.31,104.33,292.57,Single-ply,SBD,F,
Girls,56.02,7,Monai Owens,Azle,55.02,115.67,52.16,120.2,288.03,Single-ply,SBD,F,
Girls,56.02,8,Tanner Bussey,Weatherford,55.57,122.47,58.97,102.06,283.5,Single-ply,SBD,F,
Girls,56.02,9,Willo Hawkins,Prosper Rock Hill,54.34,102.06,52.16,124.74,278.96,Single-ply,SBD,F,
Girls,56.02,10,Sofia Padilla,Saginaw,54.84,102.06,43.09,99.79,244.94,Single-ply,SBD,F,
Girls,56.02,11,Hanna Knox,Frisco Liberty,54.48,90.72,47.63,102.06,240.4,Single-ply,SBD,F,
Girls,56.02,DQ,Hannah Willis,North Crowley,54.16,136.08,,,,Single-ply,SBD,F,
Girls,56.02,DQ,Kalle Vasquez,Azle,54.11,102.06,,,,Single-ply,SBD,F,
Girls,56.02,DQ,Carina Mata,Sherman,54.02,136.08,,,,Single-ply,SBD,F,
Girls,60.1,1,Tyler Hanson,Wylie,59.56,165.56,120.2,151.95,437.72,Single-ply,SBD,F,
Girls,60.1,2,Eden Yeneneh,Wylie,60.1,154.22,74.84,140.61,369.68,Single-ply,SBD,F,
Girls,60.1,3,Naomi Williams,Wylie,58.06,142.88,83.91,138.35,365.14,Single-ply,SBD,F,
Girls,60.1,4,Maddie Wethinton,Wylie,57.7,133.81,79.38,138.35,351.53,Single-ply,SBD,F,
Girls,60.1,5,Jenny Moore,Frisco Heritage,59.78,138.35,68.04,142.88,349.27,Single-ply,SBD,F,
Girls,60.1,6,Alyssa Jacobs,Wylie,59.28,136.08,72.57,127.01,335.66,Single-ply,SBD,F,
Girls,60.1,7,Brie Michelli,Azle,58.69,129.27,65.77,136.08,331.12,Single-ply,SBD,F,
Girls,60.1,8,Breton Estes,Azle,58.24,117.93,72.57,136.08,326.59,Single-ply,SBD,F,
Girls,60.1,9,Presleigh Thornburg,Azle,58.79,129.27,63.5,133.81,326.59,Single-ply,SBD,F,
Girls,60.1,10,Skyler Arrellano,Azle,59.01,111.13,79.38,124.74,315.25,Single-ply,SBD,F,
Girls,60.1,11,Amandalynn Garst,Prosper,58.42,117.93,68.04,117.93,303.91,Single-ply,SBD,F,
Girls,60.1,12,Jazmine McDaniel,Saginaw,60.06,106.59,58.97,131.54,297.1,Single-ply,SBD,F,
Girls,60.1,13,Evelyn Pecory,Prosper,58.6,111.13,65.77,113.4,290.3,Single-ply,SBD,F,
Girls,60.1,14,Clare Draper,Frisco Centennial,59.42,124.74,45.36,120.2,290.3,Single-ply,SBD,F,
Girls,60.1,15,Brilee Payne,Denison,59.24,117.93,58.97,111.13,288.03,Single-ply,SBD,F,
Girls,60.1,16,Karina Otrhalek,Frisco Liberty,57.97,97.52,52.16,102.06,251.74,Single-ply,SBD,F,
Girls,67.36,1,Sarah Katherine Sisk,Bishop Lynch,66.77,138.35,83.91,149.69,371.95,Single-ply,SBD,F,
Girls,67.36,2,Madison Tamjidi,Azle,66.81,138.35,79.38,149.69,367.41,Single-ply,SBD,F,
Girls,67.36,3,Abby Roberts,Keller Central,66.54,147.42,72.57,142.88,362.87,Single-ply,SBD,F,
Girls,67.36,4,Devon Bellamy,Wylie,65.18,145.15,65.77,133.81,344.73,Single-ply,SBD,F,
Girls,67.36,5,Shayla Nguyen,Wylie,65,124.74,81.65,136.08,342.46,Single-ply,SBD,F,
Girls,67.36,6,Veronica Venegas,Carrollton Creekview,66.68,129.27,54.43,147.42,331.12,Single-ply,SBD,F,
Girls,67.36,7,Charlotte McNamara,Wichita Falls Rider,65.82,136.08,74.84,117.93,328.85,Single-ply,SBD,F,
Girls,67.36,8,Elizabeth Fricano,Wylie,64.82,133.81,65.77,127.01,326.59,Single-ply,SBD,F,
Girls,67.36,9,Sydney Nelson,Weatherford,65.63,111.13,61.23,129.27,301.64,Single-ply,SBD,F,
Girls,67.36,10,Dev Davis,Frisco Memorial,62.82,115.67,56.7,127.01,299.37,Single-ply,SBD,F,
Girls,67.36,11,Rachel Baumann,Azle,63.96,108.86,63.5,122.47,294.84,Single-ply,SBD,F,
Girls,67.36,DQ,Annsile Woodard,Argyle Liberty Christian School,66.13,,,,,Single-ply,SBD,F,
Girls,67.36,DQ,Mackenzie Simms,Wylie,66.95,136.08,,,,Single-ply,SBD,F,
Girls,67.36,DQ,Mia Mendoza,Wylie East,62.91,,,,,Single-ply,SBD,F,
Girls,75.07,1,Kianna Jones,Denison,74.21,170.1,83.91,163.29,417.3,Single-ply,SBD,F,
Girls,75.07,2,Emmanuella Moseri,Wylie East,75.07,145.15,88.45,170.1,403.7,Single-ply,SBD,F,
Girls,75.07,3,Kate Staley,Northwest Eaton,73.21,165.56,79.38,156.49,401.43,Single-ply,SBD,F,
Girls,75.07,4,Madison Hines,Weatherford,73.39,156.49,90.72,142.88,390.09,Single-ply,SBD,F,
Girls,75.07,5,Zaria Green,Cedar Hill,73.71,165.56,65.77,158.76,390.09,Single-ply,SBD,F,
Girls,75.07,6,Emily Phillips,Wylie,74.66,154.22,92.99,142.88,390.09,Single-ply,SBD,F,
Girls,75.07,7,Lanie Fajerson,Sherman,73.94,151.95,77.11,138.35,367.41,Single-ply,SBD,F,
Girls,75.07,8,Tiffani Adams,Fort Worth Chisholm Trail,71.89,133.81,79.38,151.95,365.14,Single-ply,SBD,F,
Girls,75.07,9,Madison Geller,Wylie East,71.3,145.15,77.11,140.61,362.87,Single-ply,SBD,F,
Girls,75.07,10,Annabella Gamble,Azle,72.85,145.15,65.77,140.61,351.53,Single-ply,SBD,F,
Girls,75.07,11,Stormie Stevens,Prosper,69.26,138.35,74.84,129.27,342.46,Single-ply,SBD,F,
Girls,75.07,12,Arlin Granados,Wylie East,72.8,131.54,65.77,136.08,333.39,Single-ply,SBD,F,
Girls,75.07,13,Caitlyn Flaherty,Frisco Memorial,73.8,129.27,68.04,136.08,333.39,Single-ply,SBD,F,
Girls,75.07,DQ,Reyna Salomon,Wichita Falls,71.89,,,,,Single-ply,SBD,F,
Girls,82.33,1,Reyna Alcantar,Azle,80.69,181.44,88.45,149.69,419.57,Single-ply,SBD,F,
Girls,82.33,2,Savannah Williams,Mansfield Lake Ridge,81.33,174.63,68.04,165.56,408.23,Single-ply,SBD,F,
Girls,82.33,3,Kendall Nalley,Wylie,78.47,151.95,104.33,136.08,392.36,Single-ply,SBD,F,
Girls,82.33,4,Ava Taylor,Frisco Memorial,81.96,170.1,72.57,145.15,387.82,Single-ply,SBD,F,
Girls,82.33,5,Lawrann Smith,Fort Worth Boswell,79.38,149.69,77.11,147.42,374.21,Single-ply,SBD,F,
Girls,82.33,6,Eriana Mbari,Wylie,79.47,161.03,90.72,120.2,371.95,Single-ply,SBD,F,
Girls,82.33,7,Sidney Richardson,Bishop Lynch,79.61,140.61,83.91,136.08,360.61,Single-ply,SBD,F,
Girls,82.33,8,Sydney Haas,Wylie East,79.06,145.15,77.11,136.08,358.34,Single-ply,SBD,F,
Girls,82.33,9,Bella Moore,Wylie,77.43,142.88,90.72,122.47,356.07,Single-ply,SBD,F,
Girls,82.33,10,Carley Hall,Wylie,80.74,136.08,79.38,138.35,353.8,Single-ply,SBD,F,
Girls,82.33,11,Kayce Bolle,Little Elm,75.84,131.54,74.84,138.35,344.73,Single-ply,SBD,F,
Girls,82.33,12,Aviana Baca,Princeton,79.11,140.61,61.23,140.61,342.46,Single-ply,SBD,F,
Girls,82.33,13,Kim Marks,Wichita Falls Rider,77.66,131.54,70.31,122.47,324.32,Single-ply,SBD,F,
Girls,82.33,14,Nicole Overton,Denton Guyer,80.6,145.15,92.99,,238.14,Single-ply,SB,F,
Girls,90.04,1,Carmen Mitchell,Wylie East,89.54,185.97,120.2,145.15,451.32,Single-ply,SBD,F,
Girls,90.04,2,Fatima Cansino,Weatherford,89.99,210.92,81.65,145.15,437.72,Single-ply,SBD,F,
Girls,90.04,3,Ashlyn Raley,Frisco Heritage,83.05,181.44,90.72,142.88,415.04,Single-ply,SBD,F,
Girls,90.04,4,Peyton Chianese,Frisco Memorial,87.77,165.56,95.25,142.88,403.7,Single-ply,SBD,F,
Girls,90.04,5,Cadence Lincoln,Justin Northwest,86.59,161.03,79.38,156.49,396.89,Single-ply,SBD,F,
Girls,90.04,6,Briana Adeoye,Cedar Hill,87.23,156.49,68.04,151.95,376.48,Single-ply,SBD,F,
Girls,90.04,7,Abigail Scoble,Wylie,86.14,140.61,90.72,142.88,374.21,Single-ply,SBD,F,
Girls,90.04,8,Kiersten Buckley,Little Elm,88.09,151.95,65.77,142.88,360.61,Single-ply,SBD,F,
Girls,90.04,9,Alexi Jordan,Denison,88.04,136.08,68.04,136.08,340.19,Single-ply,SBD,F,
Girls,90.04,10,Meaghan Ervin,Wylie East,84.96,129.27,70.31,138.35,337.93,Single-ply,SBD,F,
Girls,90.04,11,Melanie Morales,Carrollton Creekview,87.23,145.15,72.57,120.2,337.93,Single-ply,SBD,F,
Girls,90.04,12,Kamryn Smith,Wylie,88.63,136.08,74.84,127.01,337.93,Single-ply,SBD,F,
Girls,90.04,13,Stephanie Cruz,Wylie East,86.27,136.08,79.38,117.93,333.39,Single-ply,SBD,F,
Girls,90.04,14,Lila Holmes,Carrollton Creekview,86.09,113.4,72.57,122.47,308.44,Single-ply,SBD,F,
Girls,100.02,1,Alyvia Thomas,Weatherford,96.89,204.12,92.99,147.42,444.52,Single-ply,SBD,F,
Girls,100.02,2,Carla Ledezma,Denison,98.38,170.1,97.52,149.69,417.3,Single-ply,SBD,F,
Girls,100.02,3,Jacqueline Calderon,Carrollton Creekview,96.84,147.42,70.31,158.76,376.48,Single-ply,SBD,F,
Girls,100.02,4,Sahnee Dillahunt,Northwest Eaton,90.49,145.15,65.77,163.29,374.21,Single-ply,SBD,F,
Girls,100.02,5,Karmen Rosas,Saginaw,96.52,149.69,70.31,154.22,374.21,Single-ply,SBD,F,
Girls,100.02,6,Jordan Tolleson,Wichita Falls Rider,98.2,145.15,68.04,145.15,358.34,Single-ply,SBD,F,
Girls,100.02,7,Christi Amine,Frisco Centennial,98.38,136.08,70.31,142.88,349.27,Single-ply,SBD,F,
Girls,100.02,8,Chasity Figueroa,Little Elm,94.53,140.61,61.23,136.08,337.93,Single-ply,SBD,F,
Girls,100.02,9,Marissa Stoeltje,Wichita Falls,97.25,145.15,52.16,136.08,333.39,Single-ply,SBD,F,
Girls,100.02,10,Layla Frances,Weatherford,90.31,124.74,68.04,138.35,331.12,Single-ply,SBD,F,
Girls,100.02,11,Kairi Phillip,Keller Fossil Ridge,95.39,117.93,68.04,117.93,303.91,Single-ply,SBD,F,
Girls,100.02,12,Sydney Keys,Frisco Lone Star,98.11,117.93,63.5,113.4,294.84,Single-ply,SBD,F,
Girls,100.02,13,Sue Slater,Frisco Liberty,90.63,113.4,56.7,120.2,290.3,Single-ply,SBD,F,
Girls,100.02,14,Sarai Galaviz,Bishop Lynch,96.43,99.79,65.77,120.2,285.76,Single-ply,SBD,F,
Girls,117.71,1,Cameron Davis,Frisco Memorial,113.62,167.83,113.4,172.37,453.59,Single-ply,SBD,F,
Girls,117.71,2,Katie Nguyen,Wylie,102.78,188.24,111.13,142.88,442.25,Single-ply,SBD,F,
Girls,117.71,3,Aaliyah Trunnell,Cedar Hill,117.3,183.7,74.84,170.1,428.64,Single-ply,SBD,F,
Girls,117.71,4,Briana Webb,Wylie,105.78,179.17,102.06,138.35,419.57,Single-ply,SBD,F,
Girls,117.71,5,Raquel Duran,Wylie,107.55,161.03,83.91,145.15,390.09,Single-ply,SBD,F,
Girls,117.71,6,Frances Frank-Nwafor,Wylie East,102.51,154.22,70.31,163.29,387.82,Single-ply,SBD,F,
Girls,117.71,7,Deysy Fuentes,Princeton,103.24,156.49,70.31,145.15,371.95,Single-ply,SBD,F,
Girls,117.71,8,Victoria Okafor,Wylie,106,161.03,70.31,140.61,371.95,Single-ply,SBD,F,
Girls,117.71,9,Carrie Fulton,Justin Northwest,103.37,122.47,70.31,129.27,322.05,Single-ply,SBD,F,
Girls,117.71,10,Janiaya Debbs,Everman,112.26,124.74,65.77,90.72,281.23,Single-ply,SBD,F,
Girls,117.71,11,Brie Baldwin,Frisco Heritage,107.86,97.52,43.09,124.74,265.35,Single-ply,SBD,F,
Girls,117.71+,1,Ruthie Sanchez,Keller Central,144.42,244.94,97.52,158.76,501.22,Single-ply,SBD,F,
Girls,117.71+,2,Ayjah Smith,Prosper,130.91,172.37,108.86,158.76,439.98,Single-ply,SBD,F,
Girls,117.71+,3,Zoe Young,Frisco Heritage,130.32,183.7,88.45,158.76,430.91,Single-ply,SBD,F,
Girls,117.71+,4,Kennadi Hames,Cedar Hill,157.03,181.44,74.84,165.56,421.84,Single-ply,SBD,F,
Girls,117.71+,5,Caroline Speer,Princeton,117.75,163.29,79.38,147.42,390.09,Single-ply,SBD,F,
Girls,117.71+,6,Halimat Omilabu,Frisco Centennial,132.4,145.15,68.04,147.42,360.61,Single-ply,SBD,F,
Girls,117.71+,7,Abby Walker,Weatherford,123.92,115.67,77.11,111.13,303.91,Single-ply,SBD,F,
Girls,117.71+,8,Alauna Washington,Fort Worth Chisholm Trail,131.68,83.91,54.43,136.08,274.42,Single-ply,SBD,F,
Girls,117.71+,9,Kelsey Green,Fort Worth Chisholm Trail,127.23,104.33,36.29,106.59,247.21,Single-ply,SBD,F,
Girls,117.71+,10,Jennifer Gonzales,Wylie East,157.31,72.57,74.84,86.18,233.6,Single-ply,SBD,F,
Girls,,NS,Lorena Diaz,Wichita Falls,,,,,,Single-ply,SBD,F,
Girls,,NS,Megan Steward,Wichita Falls,,,,,,Single-ply,SBD,F,
