Division,WeightClassKg,Place,Name,Team,BodyweightKg,Best3SquatKg,Best3BenchKg,Best3DeadliftKg,TotalKg,Equipment,Event,Sex,BirthDate
Boys,51.71,1,Cason Wilbanks,Decatur,38.1,77.11,36.29,79.38,192.78,Single-ply,SBD,M,
Boys,55.79,1,Renier Reyes,Decatur,53.52,149.69,102.06,165.56,417.3,Single-ply,SBD,M,
Boys,55.79,2,Garrett Upshaw,Decatur,55.02,124.74,86.18,156.49,367.41,Single-ply,SBD,M,
Boys,59.87,1,Cameron Wilson,Weatherford,59.87,163.29,106.59,154.22,424.11,Single-ply,SBD,M,
Boys,59.87,2,Manuel Rodriguez,Decatur,59.33,149.69,90.72,163.29,403.7,Single-ply,SBD,M,
Boys,59.87,3,Daniel Rodriguez,Decatur,58.97,124.74,95.25,161.03,381.02,Single-ply,SBD,M,
Boys,59.87,4,Zandon White,Bridgeport,57.79,145.15,79.38,113.4,337.93,Single-ply,SBD,M,
Boys,74.84,1,Jeremiah Wilton,Weatherford,73.75,195.04,124.74,195.04,514.83,Single-ply,SBD,M,
Boys,74.84,2,Luke Miner,Decatur,72.67,183.7,129.27,190.51,503.49,Single-ply,SBD,M,
Boys,74.84,3,Blake Eames,Weatherford,72.21,158.76,108.86,181.44,449.06,Single-ply,SBD,M,
Boys,74.84,4,Brayden Bork,Weatherford,72.57,181.44,90.72,156.49,428.64,Single-ply,SBD,M,
Boys,74.84,5,Elijah Vasquez,Bridgeport,74.03,154.22,74.84,147.42,376.48,Single-ply,SBD,M,
Boys,74.84,6,Michael Young,Graham,70.85,145.15,65.77,161.03,371.95,Single-ply,SBD,M,
Boys,74.84,7,Cody Epperson,Graham,69.31,90.72,54.43,127.01,272.16,Single-ply,SBD,M,
Boys,82.1,1,Ethan Broomes,Weatherford,80.1,181.44,124.74,208.65,514.83,Single-ply,SBD,M,
Boys,82.1,2,Aldo Cereceres,Graham,79.29,192.78,108.86,183.7,485.34,Single-ply,SBD,M,
Boys,82.1,3,Aden Hinshaw,Decatur,81.28,172.37,102.06,195.04,469.47,Single-ply,SBD,M,
Boys,82.1,4,Kevin Salas,Decatur,80.47,176.9,99.79,185.97,462.66,Single-ply,SBD,M,
Boys,82.1,5,Patrick Wiley,Weatherford,82.1,165.56,113.4,183.7,462.66,Single-ply,SBD,M,
Boys,82.1,6,Bowen Boenisch,Graham,79.38,129.27,56.7,122.47,308.44,Single-ply,SBD,M,
Boys,89.81,1,Daniel Seals,Weatherford,89.81,222.26,161.03,206.38,589.67,Single-ply,SBD,M,
Boys,89.81,2,Colton Ligon,Graham,83.73,197.31,120.2,195.04,512.56,Single-ply,SBD,M,
Boys,89.81,3,James Vela,Graham,88.45,210.92,108.86,170.1,489.88,Single-ply,SBD,M,
Boys,89.81,4,Lloyd Harris,Weatherford,89.81,172.37,120.2,174.63,467.2,Single-ply,SBD,M,
Boys,89.81,5,Korbin Owens,Decatur,87.72,161.03,120.2,174.63,455.86,Single-ply,SBD,M,
Boys,89.81,6,Cayden Scobee,Graham,86.27,156.49,79.38,142.88,378.75,Single-ply,SBD,M,
Boys,89.81,7,Brayden Morrow,Bridgeport,85.37,88.45,61.23,136.08,285.76,Single-ply,SBD,M,
Boys,99.79,1,Lane Malone,Weatherford,98.25,219.99,151.95,204.12,576.06,Single-ply,SBD,M,
Boys,99.79,2,Jimmy Gamino,Decatur,94.62,213.19,127.01,213.19,553.38,Single-ply,SBD,M,
Boys,99.79,3,Karter Houchin,Decatur,98.88,222.26,120.2,195.04,537.51,Single-ply,SBD,M,
Boys,99.79,4,Gustavo Isaac,Decatur,90.9,174.63,108.86,181.44,464.93,Single-ply,SBD,M,
Boys,99.79,5,Talan Yowell,Graham,98.52,158.76,90.72,138.35,387.82,Single-ply,SBD,M,
Boys,99.79,6,Devon Castro,Graham,91.26,115.67,79.38,124.74,319.78,Single-ply,SBD,M,
Boys,99.79,DQ,Hunter Shinault,Decatur,93.26,,,,,Single-ply,SBD,M,
Boys,109.77,1,Riley Wrinkle,Weatherford,108.14,272.16,163.29,260.82,696.26,Single-ply,SBD,M,
Boys,109.77,2,Karson Daniel,Weatherford,108.77,208.65,145.15,208.65,562.45,Single-ply,SBD,M,
Boys,109.77,3,Lawson Marin,Graham,102.42,129.27,74.84,142.88,347,Single-ply,SBD,M,
Boys,124.74,1,Jayden Conner,Weatherford,112.58,249.48,145.15,217.72,612.35,Single-ply,SBD,M,
Boys,124.74,2,Gary O'Bannon,Weatherford,116.39,210.92,154.22,219.99,585.13,Single-ply,SBD,M,
Boys,124.74,3,Colby Wilson,Decatur,120.93,240.4,129.27,210.92,580.6,Single-ply,SBD,M,
Boys,124.74,4,Ethan Woodruff,Weatherford,113.85,183.7,149.69,190.51,523.9,Single-ply,SBD,M,
Boys,124.74,DQ,Travis Horne,Bridgeport,120.02,,,,,Single-ply,SBD,M,
Boys,124.74,DQ,Gordon Taylor,Graham,123.65,,,,,Single-ply,SBD,M,
Boys,139.71,1,Hayden Philpot,Decatur,131.9,258.55,172.37,222.26,653.17,Single-ply,SBD,M,
Boys,139.71,2,Ayden Mast,Decatur,131.54,244.94,151.95,222.26,619.15,Single-ply,SBD,M,
Boys,139.71,3,Steven Brown,Graham,126.64,161.03,90.72,188.24,439.98,Single-ply,SBD,M,
Boys,139.71+,1,Diego Rojo,Bridgeport,156.22,192.78,88.45,142.88,424.11,Single-ply,SBD,M,
