Division,WeightClassKg,Place,Name,Team,BodyweightKg,Best3SquatKg,Best3BenchKg,Best3DeadliftKg,TotalKg,Equipment,Event,Sex,BirthDate
Girls,44.23,1,Katrina Le,Beaumont West Brook,43.27,102.06,54.43,113.4,269.89,Single-ply,SBD,F,
Girls,47.85,1,Nicole Garza,Beaumont United,45.09,38.56,22.68,52.16,113.4,Single-ply,SBD,F,
Girls,51.94,1,Amy Heng,Beaumont West Brook,51.44,63.5,34.02,86.18,183.7,Single-ply,SBD,F,
Girls,56.02,1,Cherish Herring,Beaumont United,52.25,65.77,31.75,95.25,192.78,Single-ply,SBD,F,
Girls,56.02,2,Brooklyn Popillion,Beaumont United,55.97,56.7,27.22,83.91,167.83,Single-ply,SBD,F,
Girls,60.1,1,Taylor Lewis,Beaumont West Brook,56.34,99.79,65.77,131.54,297.1,Single-ply,SBD,F,
Girls,60.1,2,Karrington Gerard,Beaumont West Brook,60.06,83.91,45.36,102.06,231.33,Single-ply,SBD,F,
Girls,67.36,1,Paris Williams,Beaumont West Brook,67.31,102.06,63.5,142.88,308.44,Single-ply,SBD,F,
Girls,67.36,2,Anaiah Johnson,Beaumont West Brook,63.59,90.72,56.7,113.4,260.82,Single-ply,SBD,F,
Girls,67.36,3,Priscilla Morris,Beaumont United,61.78,61.23,38.56,99.79,199.58,Single-ply,SBD,F,
Girls,67.36,4,Kenderlyn Thierry,Beaumont West Brook,63.46,68.04,38.56,90.72,197.31,Single-ply,SBD,F,
Girls,75.07,1,Da'Lea Benton,Beaumont West Brook,74.62,104.33,63.5,129.27,297.1,Single-ply,SBD,F,
Girls,75.07,2,Camille Thompson,Beaumont West Brook,72.57,97.52,61.23,120.2,278.96,Single-ply,SBD,F,
Girls,75.07,3,Sherlyn Rabago,Beaumont West Brook,69.85,92.99,47.63,102.06,242.67,Single-ply,SBD,F,
Girls,75.07,4,Khacie Simien,Beaumont United,73.48,65.77,38.56,99.79,204.12,Single-ply,SBD,F,
Girls,75.07,5,Ramiyah Traylor,Beaumont United,71.85,65.77,40.82,86.18,192.78,Single-ply,SBD,F,
Girls,75.07,6,Paris Gillam,Beaumont West Brook,68.04,43.09,40.82,102.06,185.97,Single-ply,SBD,F,
Girls,90.04,1,Katera Perkins,Beaumont West Brook,86.18,151.95,77.11,156.49,385.55,Single-ply,SBD,F,
Girls,90.04,2,Kaleigha Washington,Beaumont West Brook,87.36,129.27,79.38,165.56,374.21,Single-ply,SBD,F,
Girls,90.04,3,Siara Benton,Beaumont West Brook,89.81,127.01,79.38,124.74,331.12,Single-ply,SBD,F,
Girls,90.04,4,Marcia Orbro,Beaumont United,86.14,68.04,47.63,104.33,219.99,Single-ply,SBD,F,
Girls,100.02,1,Cydney Griffin,Beaumont West Brook,97.98,154.22,90.72,145.15,390.09,Single-ply,SBD,F,
Girls,100.02,2,Kelsey Roundtree,Beaumont United,93.71,70.31,34.02,102.06,206.38,Single-ply,SBD,F,
Girls,117.71+,1,Rayia Calbert,Beaumont United,131.81,97.52,70.31,133.81,301.64,Single-ply,SBD,F,
