Division,WeightClassKg,Place,Name,Team,BodyweightKg,Best3SquatKg,Best3BenchKg,Best3DeadliftKg,TotalKg,Equipment,Event,Sex,BirthDate
Boys,51.71,1,Chad Hasty,Geronimo Navarro,,88.45,56.7,102.06,247.21,Single-ply,SBD,M,
Boys,59.87,1,Morris Brown,Kenedy,59.6,131.54,77.11,129.27,337.93,Single-ply,SBD,M,
Boys,67.13,1,Nick Schwarzlose,Geronimo Navarro,66.9,156.49,99.79,158.76,415.04,Single-ply,SBD,M,
Boys,67.13,2,Diego Chapa,Geronimo Navarro,67.04,156.49,90.72,163.29,410.5,Single-ply,SBD,M,
Boys,67.13,3,Carson Van Pelt,Vanderbilt Industrial,65.14,117.93,70.31,136.08,324.32,Single-ply,SBD,M,
Boys,67.13,4,Adam Nieto,Geronimo Navarro,67.13,113.4,81.65,108.86,303.91,Single-ply,SBD,M,
Boys,67.13,5,Ronald Navarro,San Antonio Brackenridge,61.69,104.33,43.09,133.81,281.23,Single-ply,SBD,M,
Boys,67.13,DQ,Bryan Leal,Kenedy,62.78,142.88,,,,Single-ply,SBD,M,
Boys,74.84,1,Roman Mason,Pflugerville Connally,69.4,188.24,102.06,206.38,496.68,Single-ply,SBD,M,
Boys,74.84,2,Zeke Campos,Geronimo Navarro,73.03,183.7,127.01,183.7,494.42,Single-ply,SBD,M,
Boys,74.84,3,Mack Berry,Geronimo Navarro,74.84,133.81,88.45,154.22,376.48,Single-ply,SBD,M,
Boys,74.84,4,Hayden Toliver,Geronimo Navarro,69.85,140.61,88.45,145.15,374.21,Single-ply,SBD,M,
Boys,74.84,NS,Jaydin Chapa,Kenedy,,,,,,Single-ply,SBD,M,
Boys,82.1,1,Aden Ramirez,Pflugerville Connally,81.01,188.24,97.52,192.78,478.54,Single-ply,SBD,M,
Boys,82.1,2,Jesse Cornish,Vanderbilt Industrial,79.38,188.24,97.52,163.29,449.06,Single-ply,SBD,M,
Boys,82.1,3,Patrick Segura,Kenedy,81.65,142.88,77.11,158.76,378.75,Single-ply,SBD,M,
Boys,82.1,4,Matthew Holms,Geronimo Navarro,80.47,136.08,88.45,142.88,367.41,Single-ply,SBD,M,
Boys,82.1,5,Lucas Turner,Geronimo Navarro,75.75,133.81,88.45,136.08,358.34,Single-ply,SBD,M,
Boys,82.1,DQ,Calvin Lopez,Kenedy,82.1,,,,,Single-ply,SBD,M,
Boys,89.81,1,Alvin Amador,Kenedy,85.46,204.12,120.2,204.12,528.44,Single-ply,SBD,M,
Boys,89.81,2,Izacc Zamora,Geronimo Navarro,85.28,192.78,106.59,192.78,492.15,Single-ply,SBD,M,
Boys,89.81,3,Matthew Richardson,Geronimo Navarro,86.73,165.56,111.13,161.03,437.72,Single-ply,SBD,M,
Boys,89.81,NS,Armand Kirkland,Pflugerville Connally,,,,,,Single-ply,SBD,M,
Boys,99.79,1,Nando Vargas,Kenedy,94.98,224.53,102.06,215.46,542.04,Single-ply,SBD,M,
Boys,99.79,2,Justin Santos,Pflugerville Connally,91.44,170.1,108.86,190.51,469.47,Single-ply,SBD,M,
Boys,99.79,NS,Cole Booker,Geronimo Navarro,,,,,,Single-ply,SBD,M,
Boys,109.77,1,Jace Kitchens,Vanderbilt Industrial,100.7,195.04,120.2,190.51,505.76,Single-ply,SBD,M,
Boys,109.77,2,Alex Gonzalez,Kenedy,102.87,204.12,106.59,190.51,501.22,Single-ply,SBD,M,
Boys,109.77,3,Jaden Perez #2,San Antonio Brackenridge,102.97,183.7,102.06,183.7,469.47,Single-ply,SBD,M,
Boys,109.77,4,Jenner Weston,Geronimo Navarro,100.7,104.33,86.18,92.99,283.5,Single-ply,SBD,M,
Boys,109.77,NS,Ryland Reyna,Kenedy,,,,,,Single-ply,SBD,M,
Boys,124.74,1,Tristan Bermea,Vanderbilt Industrial,119.57,288.03,185.97,235.87,709.87,Single-ply,SBD,M,
Boys,124.74,2,Joseph Luna,Kenedy,123.38,226.8,142.88,226.8,596.47,Single-ply,SBD,M,
Boys,124.74,3,Jordan Moreno,Pflugerville Connally,117.93,235.87,149.69,199.58,585.13,Single-ply,SBD,M,
Boys,124.74,4,Robert De Leon,Kenedy,110.68,183.7,136.08,179.17,498.95,Single-ply,SBD,M,
Boys,124.74,5,Houston Berry,Geronimo Navarro,115.85,106.59,90.72,133.81,331.12,Single-ply,SBD,M,
Boys,124.74,DQ,Carter Holtkamp,Geronimo Navarro,121.11,276.69,,,,Single-ply,SBD,M,
Boys,139.71,1,Diego Salazar,Pflugerville Connally,125.65,240.4,131.54,231.33,603.28,Single-ply,SBD,M,
Boys,139.71,2,Trey Garner,Geronimo Navarro,139.25,158.76,106.59,165.56,430.91,Single-ply,SBD,M,
Boys,139.71+,1,Sergio Hernandez,Geronimo Navarro,141.07,294.84,197.31,247.21,739.36,Single-ply,SBD,M,
