Division,WeightClassKg,Place,Name,Team,BodyweightKg,Best3SquatKg,Best3BenchKg,Best3DeadliftKg,TotalKg,Equipment,Event,Sex,BirthDate
Boys,59.87,1,Lukas Gill,Tyler Legacy,58.97,165.56,99.79,145.15,410.5,Single-ply,SBD,M,
Boys,59.87,2,Cullen Williams,Tyler Legacy,57.15,115.67,61.23,131.54,308.44,Single-ply,SBD,M,
Boys,59.87,DQ,De'Jaylon Beal,Tyler,57.7,127.01,,,,Single-ply,SBD,M,
Boys,67.13,1,Kane Jones,Tyler Legacy,63.05,174.63,95.25,172.37,442.25,Single-ply,SBD,M,
Boys,67.13,2,Walker Coe,Tyler Legacy,64.41,170.1,92.99,176.9,439.98,Single-ply,SBD,M,
Boys,67.13,3,Andre Williams,Tyler,67.13,136.08,92.99,142.88,371.95,Single-ply,SBD,M,
Boys,67.13,4,Cameron Sanchez,Tyler Legacy,63.05,117.93,74.84,117.93,310.71,Single-ply,SBD,M,
Boys,67.13,5,Randy Stevenson,Tyler,64.95,117.93,68.04,122.47,308.44,Single-ply,SBD,M,
Boys,67.13,6,Kody Sprayberry,Tyler Legacy,63.96,104.33,81.65,120.2,306.17,Single-ply,SBD,M,
Boys,67.13,DQ,Naquaveron Brown,Tyler,61.69,154.22,,,,Single-ply,SBD,M,
Boys,74.84,1,Jeremiah Sheffie,Tyler Legacy,71.21,190.51,104.33,176.9,471.74,Single-ply,SBD,M,
Boys,82.1,1,Dunaireon Cantley,Tyler,81.24,206.38,108.86,199.58,514.83,Single-ply,SBD,M,
Boys,82.1,2,Tyson Wilson,Tyler,78.47,167.83,104.33,183.7,455.86,Single-ply,SBD,M,
Boys,89.81,1,Bryson Donnell,Tyler Legacy,89.81,201.85,111.13,181.44,494.42,Single-ply,SBD,M,
Boys,89.81,2,Braiden Grogan,Tyler Legacy,87.09,188.24,102.06,183.7,474,Single-ply,SBD,M,
Boys,89.81,3,Cruz Rivera,Tyler Legacy,85.28,151.95,90.72,151.95,394.63,Single-ply,SBD,M,
Boys,89.81,4,Isaiah Baker,Tyler,89.36,122.47,70.31,149.69,342.46,Single-ply,SBD,M,
Boys,89.81,DQ,Jordan Dews,Tyler,84.37,145.15,,154.22,,Single-ply,SBD,M,
Boys,99.79,1,John Taylor,Tyler,99.34,185.97,108.86,183.7,478.54,Single-ply,SBD,M,
Boys,99.79,2,Ameer Johnson,Tyler,99.79,172.37,92.99,163.29,428.64,Single-ply,SBD,M,
Boys,99.79,DQ,Javian Harper,Tyler,94.03,138.35,,,,Single-ply,SBD,M,
Boys,109.77,1,Tariq Robinson,Tyler Legacy,107.5,240.4,154.22,204.12,598.74,Single-ply,SBD,M,
Boys,124.74,1,Nicholas Cruz,Tyler,117.93,244.94,129.27,215.46,589.67,Single-ply,SBD,M,
Boys,124.74,2,Jones Kelm,Tyler Legacy,112.94,195.04,95.25,192.78,483.08,Single-ply,SBD,M,
Boys,124.74,3,Kade Fry,Tyler Legacy,114.31,195.04,117.93,170.1,483.08,Single-ply,SBD,M,
Boys,124.74,4,Payton Campbell,Tyler,120.66,156.49,74.84,154.22,385.55,Single-ply,SBD,M,
Boys,139.71,1,Donavan Jordan,Tyler Legacy,125.19,204.12,136.08,219.99,560.19,Single-ply,SBD,M,
Boys,139.71+,1,Kah'Lil Montague,Tyler Legacy,165.56,283.5,249.48,254.01,786.98,Single-ply,SBD,M,
