Division,WeightClassKg,Place,Name,Team,BodyweightKg,Best3SquatKg,Best3BenchKg,Best3DeadliftKg,TotalKg,Equipment,Event,Sex,BirthDate
Boys,51.71,1,Tomas Elizondo,San Diego,51.71,161.03,102.06,183.7,446.79,Single-ply,SBD,M,
Boys,51.71,2,Romulo Torres,San Diego,50.53,115.67,70.31,120.2,306.17,Single-ply,SBD,M,
Boys,55.79,1,Michael Longoria,San Diego,53.16,161.03,92.99,149.69,403.7,Single-ply,SBD,M,
Boys,55.79,2,Noah Solis,Hebbronville,55.61,108.86,68.04,117.93,294.84,Single-ply,SBD,M,
Boys,55.79,3,Rolando Martinez,Hebbronville,54.16,104.33,61.23,120.2,285.76,Single-ply,SBD,M,
Boys,55.79,4,Christian Cantu,Hebbronville,55.79,86.18,52.16,102.06,240.4,Single-ply,SBD,M,
Boys,67.13,1,Austin Mendez,San Diego,66.77,219.99,115.67,244.94,580.6,Single-ply,SBD,M,
Boys,67.13,2,Andres Garza,San Diego,66.68,204.12,136.08,190.51,530.7,Single-ply,SBD,M,
Boys,67.13,3,Diego Rodriguez,Hebbronville,65.59,145.15,106.59,167.83,419.57,Single-ply,SBD,M,
Boys,67.13,DQ,Seth Solis,Hebbronville,67.13,147.42,113.4,,,Single-ply,SBD,M,
Boys,74.84,1,Lukas Salaiz,San Diego,73.94,226.8,151.95,229.06,607.81,Single-ply,SBD,M,
Boys,74.84,2,Jack Edwards,Santa Gertrudis Academy,71.67,183.7,86.18,167.83,437.72,Single-ply,SBD,M,
Boys,82.1,1,Jason Rodriguez,San Diego,80.92,219.99,142.88,233.6,596.47,Single-ply,SBD,M,
Boys,82.1,2,Jaime Salinas,San Diego,78.83,254.01,115.67,183.7,553.38,Single-ply,SBD,M,
Boys,82.1,3,Regino Molina,San Diego,80.2,145.15,72.57,172.37,390.09,Single-ply,SBD,M,
Boys,89.81,1,Jose Torres,San Diego,87.18,242.67,154.22,242.67,639.57,Single-ply,SBD,M,
Boys,89.81,2,Jason Sanchez,Santa Gertrudis Academy,89.81,117.93,65.77,133.81,317.51,Single-ply,SBD,M,
Boys,99.79,1,Alejandro Gómez,Hebbronville,98.07,258.55,183.7,229.06,671.32,Single-ply,SBD,M,
Boys,99.79,2,Mario Gonzalez,Hebbronville,97.34,131.54,54.43,133.81,319.78,Single-ply,SBD,M,
Boys,124.74,1,Jorge Guerra,San Diego,115.85,249.48,149.69,192.78,591.94,Single-ply,SBD,M,
Boys,124.74,2,Eric Garcia,San Diego,116.94,172.37,142.88,165.56,480.81,Single-ply,SBD,M,
Boys,139.71,1,Louis Pena,San Diego,131.18,226.8,129.27,172.37,528.44,Single-ply,SBD,M,
Boys,139.71,2,Jayden Valderas,Hebbronville,126.92,145.15,102.06,165.56,412.77,Single-ply,SBD,M,
