Division,WeightClassKg,Place,Name,Team,BodyweightKg,Best3SquatKg,Best3BenchKg,Best3DeadliftKg,TotalKg,Equipment,Event,Sex,BirthDate
Boys,67.13,1,Kaiden Garza,Van Vleck,64.95,136.08,79.38,147.42,362.87,Single-ply,SBD,M,
Boys,82.1,1,Stephen Morales,Hitchcock,81.19,217.72,120.2,210.92,548.85,Single-ply,SBD,M,
Boys,82.1,2,Eric Stephenson,Hitchcock,79.38,133.81,74.84,142.88,351.53,Single-ply,SBD,M,
Boys,82.1,3,Isaias Rodriguez,Hitchcock,82.1,113.4,83.91,140.61,337.93,Single-ply,SBD,M,
Boys,82.1,DQ,Mattew Fleming,Hitchcock,81.74,213.19,106.59,,,Single-ply,SBD,M,
Boys,89.81,1,Carlo Lewis,Hitchcock,86.27,210.92,106.59,188.24,505.76,Single-ply,SBD,M,
Boys,89.81,2,Dalton Reyna,Van Vleck,86.18,113.4,65.77,124.74,303.91,Single-ply,SBD,M,
Boys,99.79,1,Josh Figueroa,Van Vleck,98.43,276.69,154.22,206.38,637.3,Single-ply,SBD,M,
Boys,99.79,2,Caleb Montemayor,Van Vleck,99.34,136.08,83.91,136.08,356.07,Single-ply,SBD,M,
Boys,124.74,1,Ronnie Cathey,Van Vleck,123.92,210.92,111.13,174.63,496.68,Single-ply,SBD,M,
Boys,124.74,2,Erskin Hill Jr,Hitchcock,112.85,183.7,102.06,170.1,455.86,Single-ply,SBD,M,
Boys,139.71,1,Wyatt Gobert,Van Vleck,126.82,247.21,163.29,226.8,637.3,Single-ply,SBD,M,
Boys,139.71,2,Wade Springfield,Van Vleck,137.17,192.78,117.93,183.7,494.42,Single-ply,SBD,M,
Boys,139.71+,1,Mikal Bryan,Hitchcock,147.69,217.72,136.08,192.78,546.58,Single-ply,SBD,M,
Boys,139.71+,2,Jacob Perez,Van Vleck,141.52,183.7,117.93,151.95,453.59,Single-ply,SBD,M,
