Division,WeightClassKg,Place,Name,Team,BodyweightKg,Best3SquatKg,Best3BenchKg,Best3DeadliftKg,TotalKg,Equipment,Event,Sex,BirthDate
Girls,44.23,1,Savannah Ruiz,Livingston,40.73,61.23,34.02,90.72,185.97,Single-ply,SBD,F,
Girls,44.23,2,Amber Lowery,Pollok Central,44,65.77,34.02,83.91,183.7,Single-ply,SBD,F,
Girls,44.23,3,Drue Bowers,Bullard,44.18,70.31,34.02,79.38,183.7,Single-ply,SBD,F,
Girls,44.23,4,KayLynn Morris,Rusk,43.18,68.04,27.22,70.31,165.56,Single-ply,SBD,F,
Girls,47.85,1,Kyndall Moffet,Livingston,47.81,83.91,49.9,92.99,226.8,Single-ply,SBD,F,
Girls,47.85,2,Guinevere Young,Elkhart,46.9,70.31,43.09,77.11,190.51,Single-ply,SBD,F,
Girls,47.85,3,Marley Martin,Pollok Central,44.91,68.04,38.56,68.04,174.63,Single-ply,SBD,F,
Girls,47.85,4,Ella Morton,Rusk,45,63.5,34.02,68.04,165.56,Single-ply,SBD,F,
Girls,51.94,1,Tristan Dykes,Brownsboro,48.99,136.08,70.31,99.79,306.17,Single-ply,SBD,F,
Girls,51.94,2,Jordan Stephens,Elkhart,51.71,111.13,70.31,106.59,288.03,Single-ply,SBD,F,
Girls,51.94,3,Zoe Fields,Rusk,51.62,115.67,43.09,111.13,269.89,Single-ply,SBD,F,
Girls,51.94,4,Taylor Soong,Brownsboro,49.17,65.77,29.48,81.65,176.9,Single-ply,SBD,F,
Girls,51.94,5,Wendy Perez,Grapeland,51.89,47.63,20.41,74.84,142.88,Single-ply,SBD,F,
Girls,51.94,6,Kamerin Ortiz,Bullard,48.35,45.36,24.95,65.77,136.08,Single-ply,SBD,F,
Girls,56.02,1,Madilynn Essary,Brownsboro,55.7,115.67,70.31,124.74,310.71,Single-ply,SBD,F,
Girls,56.02,2,Ja'Noria Harrell,Livingston,53.16,90.72,45.36,102.06,238.14,Single-ply,SBD,F,
Girls,56.02,3,Ruby Aguirre,Elkhart,55.93,102.06,49.9,86.18,238.14,Single-ply,SBD,F,
Girls,56.02,4,Chenoa Watson,Elkhart,55.97,86.18,34.02,95.25,215.46,Single-ply,SBD,F,
Girls,56.02,5,Carson Trawick,Rusk,55.97,83.91,34.02,88.45,206.38,Single-ply,SBD,F,
Girls,56.02,6,Kaylia Galvez,Livingston,54.61,70.31,34.02,97.52,201.85,Single-ply,SBD,F,
Girls,56.02,7,Miranda Morin,Rusk,52.98,81.65,31.75,83.91,197.31,Single-ply,SBD,F,
Girls,56.02,8,Tara Herod,Elkhart,55.93,63.5,27.22,74.84,165.56,Single-ply,SBD,F,
Girls,56.02,9,Grace Salmon,Elkhart,55.07,49.9,29.48,68.04,147.42,Single-ply,SBD,F,
Girls,60.1,1,Maria Gutierrez,Livingston,58.06,102.06,58.97,117.93,278.96,Single-ply,SBD,F,
Girls,60.1,2,Kinley Haas,Elkhart,60.1,124.74,47.63,106.59,278.96,Single-ply,SBD,F,
Girls,67.36,1,Kiera DeCluette,Grapeland,62.78,140.61,52.16,138.35,331.12,Single-ply,SBD,F,
Girls,67.36,2,Mason Blalock,Rusk,66.32,124.74,43.09,129.27,297.1,Single-ply,SBD,F,
Girls,67.36,3,Trinity Hawkins,Brownsboro,62.51,97.52,74.84,108.86,281.23,Single-ply,SBD,F,
Girls,67.36,4,Lindsey Bersano,Brownsboro,65.59,90.72,70.31,115.67,276.69,Single-ply,SBD,F,
Girls,67.36,5,Sarah Mann,Elkhart,62.32,108.86,52.16,108.86,269.89,Single-ply,SBD,F,
Girls,67.36,6,Nicole Commiato,Dawson,63.14,92.99,45.36,99.79,238.14,Single-ply,SBD,F,
Girls,67.36,7,Kyleigh Thornhill,Bullard,62.6,90.72,38.56,95.25,224.53,Single-ply,SBD,F,
Girls,67.36,8,Savanah Yeley,Bullard,65.05,79.38,40.82,102.06,222.26,Single-ply,SBD,F,
Girls,67.36,9,Christian Fite #2,Bullard,63.68,77.11,34.02,83.91,195.04,Single-ply,SBD,F,
Girls,67.36,10,Emily Trowbridge,Rusk,66.32,68.04,38.56,83.91,190.51,Single-ply,SBD,F,
Girls,67.36,11,Molly Davis,Rusk,62.32,52.16,27.22,77.11,156.49,Single-ply,SBD,F,
Girls,67.36,12,Emily Florez,Livingston,66.32,61.23,29.48,58.97,149.69,Single-ply,SBD,F,
Girls,67.36,DQ,Mackenzie Ballow,Bullard,64.14,58.97,,,,Single-ply,SBD,F,
Girls,67.36,DQ,Riley Wilbur,Bullard,62.69,65.77,,,,Single-ply,SBD,F,
Girls,75.07,1,Mae Lewis,Brownsboro,74.75,147.42,68.04,142.88,358.34,Single-ply,SBD,F,
Girls,75.07,2,Reina Rodriguez,Pollok Central,68.13,133.81,63.5,138.35,335.66,Single-ply,SBD,F,
Girls,75.07,3,Lauren Simpson,Elkhart,72.3,145.15,56.7,127.01,328.85,Single-ply,SBD,F,
Girls,75.07,4,Emi Etheridge,Rusk,71.03,124.74,56.7,136.08,317.51,Single-ply,SBD,F,
Girls,75.07,5,Grace O'Bannon,Bullard,70.85,106.59,47.63,120.2,274.42,Single-ply,SBD,F,
Girls,75.07,6,Mallorie Friday,Elkhart,74.12,104.33,47.63,102.06,254.01,Single-ply,SBD,F,
Girls,75.07,7,Miranda Munoz,Livingston,67.68,88.45,36.29,124.74,249.48,Single-ply,SBD,F,
Girls,75.07,8,Harley Lenard,Rusk,72.12,79.38,43.09,104.33,226.8,Single-ply,SBD,F,
Girls,75.07,9,Shelby Lhear,Brownsboro,68.4,70.31,40.82,86.18,197.31,Single-ply,SBD,F,
Girls,75.07,10,Giselle Jaime,Pollok Central,74.39,70.31,43.09,79.38,192.78,Single-ply,SBD,F,
Girls,75.07,11,Alyssa Alcorta,Elkhart,70.4,54.43,34.02,74.84,163.29,Single-ply,SBD,F,
Girls,75.07,12,Jocelyn Delgado,Livingston,68.95,61.23,22.68,77.11,161.03,Single-ply,SBD,F,
Girls,75.07,13,Elizabeth Eddins,Pollok Central,74.39,52.16,34.02,65.77,151.95,Single-ply,SBD,F,
Girls,82.33,1,Elora Purtee,Brownsboro,79.11,92.99,70.31,102.06,265.35,Single-ply,SBD,F,
Girls,82.33,2,A'naiya Sutton,Rusk,80.92,102.06,49.9,108.86,260.82,Single-ply,SBD,F,
Girls,82.33,3,Venessa Hernedez,Livingston,76.2,70.31,27.22,70.31,167.83,Single-ply,SBD,F,
Girls,90.04,1,Gabby Krazter,Livingston,88.63,138.35,49.9,131.54,319.78,Single-ply,SBD,F,
Girls,90.04,2,Lillianna Purtee,Brownsboro,88.54,120.2,65.77,120.2,306.17,Single-ply,SBD,F,
Girls,90.04,3,Wendy Negrete,Livingston,87.27,111.13,47.63,102.06,260.82,Single-ply,SBD,F,
Girls,90.04,4,Gabby Flores,Rusk,88.09,106.59,47.63,102.06,256.28,Single-ply,SBD,F,
Girls,90.04,5,Skye Vaughan,Pollok Central,87.18,90.72,56.7,90.72,238.14,Single-ply,SBD,F,
Girls,90.04,6,Kelsey Sims,Brownsboro,84.73,72.57,52.16,92.99,217.72,Single-ply,SBD,F,
Girls,100.02,1,Stacy Perez,Grapeland,99.61,138.35,40.82,142.88,322.05,Single-ply,SBD,F,
Girls,117.71,1,Jana Qualls,Dawson,103.51,127.01,70.31,120.2,317.51,Single-ply,SBD,F,
Girls,117.71+,1,Kamryn Sparks,Grapeland,119.75,142.88,74.84,136.08,353.8,Single-ply,SBD,F,
Girls,117.71+,2,Arionna Davis,Grapeland,140.8,140.61,61.23,92.99,294.84,Single-ply,SBD,F,
