Name,WeightClassKg,Division,Best3SquatKg,Best3BenchKg,Best3DeadliftKg,TotalKg,Sex,Event,Equipment,Place,Team
Gloria Winn,52,F-M3a,45.36,34.02,99.79,179.17,F,SBD,Single-ply,1,
Jose Rodriguez,67.5,M-T3,106.59,,,,M,SBD,Single-ply,DQ,
Jeremy Hickman,100,M-Jr,199.58,149.69,183.7,532.97,M,SBD,Single-ply,1,
Scott Striepeke,110,M-M1a,192.78,142.88,197.31,532.97,M,SBD,Single-ply,1,
Robert Nordbrok,110,M-O,192.78,124.74,174.63,492.15,M,SBD,Single-ply,1,
Don Riley,125,M-O,231.33,113.4,249.48,594.21,M,SBD,Single-ply,1,
Colin Rhodes,125+,M-O,65.77,,,,M,SBD,Single-ply,DQ,
